<?xml version="1.0" encoding="utf-8" standalone="no"?>
<!DOCTYPE svg PUBLIC "-//W3C//DTD SVG 1.1//EN"
  "http://www.w3.org/Graphics/SVG/1.1/DTD/svg11.dtd">
<!-- Created with matplotlib (https://matplotlib.org/) -->
<svg height="345.6pt" version="1.1" viewBox="0 0 460.8 345.6" width="460.8pt" xmlns="http://www.w3.org/2000/svg" xmlns:xlink="http://www.w3.org/1999/xlink">
 <defs>
  <style type="text/css">
*{stroke-linecap:butt;stroke-linejoin:round;}
  </style>
 </defs>
 <g id="figure_1">
  <g id="patch_1">
   <path d="M 0 345.6 
L 460.8 345.6 
L 460.8 0 
L 0 0 
z
" style="fill:#ffffff;"/>
  </g>
  <g id="axes_1">
   <g id="patch_2">
    <path d="M 34.755403 321.621875 
L 428.93909 321.621875 
L 428.93909 10.8 
L 34.755403 10.8 
z
" style="fill:#ffffff;"/>
   </g>
   <g id="matplotlib.axis_1">
    <g id="xtick_1">
     <g id="line2d_1"/>
     <g id="text_1">
      <!-- 100 -->
      <defs>
       <path d="M 12.40625 8.296875 
L 28.515625 8.296875 
L 28.515625 63.921875 
L 10.984375 60.40625 
L 10.984375 69.390625 
L 28.421875 72.90625 
L 38.28125 72.90625 
L 38.28125 8.296875 
L 54.390625 8.296875 
L 54.390625 0 
L 12.40625 0 
z
" id="DejaVuSans-49"/>
       <path d="M 31.78125 66.40625 
Q 24.171875 66.40625 20.328125 58.90625 
Q 16.5 51.421875 16.5 36.375 
Q 16.5 21.390625 20.328125 13.890625 
Q 24.171875 6.390625 31.78125 6.390625 
Q 39.453125 6.390625 43.28125 13.890625 
Q 47.125 21.390625 47.125 36.375 
Q 47.125 51.421875 43.28125 58.90625 
Q 39.453125 66.40625 31.78125 66.40625 
z
M 31.78125 74.21875 
Q 44.046875 74.21875 50.515625 64.515625 
Q 56.984375 54.828125 56.984375 36.375 
Q 56.984375 17.96875 50.515625 8.265625 
Q 44.046875 -1.421875 31.78125 -1.421875 
Q 19.53125 -1.421875 13.0625 8.265625 
Q 6.59375 17.96875 6.59375 36.375 
Q 6.59375 54.828125 13.0625 64.515625 
Q 19.53125 74.21875 31.78125 74.21875 
z
" id="DejaVuSans-48"/>
      </defs>
      <g style="fill:#262626;" transform="translate(89.017263 332.720312)scale(0.1 -0.1)">
       <use xlink:href="#DejaVuSans-49"/>
       <use x="63.623047" xlink:href="#DejaVuSans-48"/>
       <use x="127.246094" xlink:href="#DejaVuSans-48"/>
      </g>
     </g>
    </g>
    <g id="xtick_2">
     <g id="line2d_2"/>
     <g id="text_2">
      <!-- 150 -->
      <defs>
       <path d="M 10.796875 72.90625 
L 49.515625 72.90625 
L 49.515625 64.59375 
L 19.828125 64.59375 
L 19.828125 46.734375 
Q 21.96875 47.46875 24.109375 47.828125 
Q 26.265625 48.1875 28.421875 48.1875 
Q 40.625 48.1875 47.75 41.5 
Q 54.890625 34.8125 54.890625 23.390625 
Q 54.890625 11.625 47.5625 5.09375 
Q 40.234375 -1.421875 26.90625 -1.421875 
Q 22.3125 -1.421875 17.546875 -0.640625 
Q 12.796875 0.140625 7.71875 1.703125 
L 7.71875 11.625 
Q 12.109375 9.234375 16.796875 8.0625 
Q 21.484375 6.890625 26.703125 6.890625 
Q 35.15625 6.890625 40.078125 11.328125 
Q 45.015625 15.765625 45.015625 23.390625 
Q 45.015625 31 40.078125 35.4375 
Q 35.15625 39.890625 26.703125 39.890625 
Q 22.75 39.890625 18.8125 39.015625 
Q 14.890625 38.140625 10.796875 36.28125 
z
" id="DejaVuSans-53"/>
      </defs>
      <g style="fill:#262626;" transform="translate(157.287746 332.720312)scale(0.1 -0.1)">
       <use xlink:href="#DejaVuSans-49"/>
       <use x="63.623047" xlink:href="#DejaVuSans-53"/>
       <use x="127.246094" xlink:href="#DejaVuSans-48"/>
      </g>
     </g>
    </g>
    <g id="xtick_3">
     <g id="line2d_3"/>
     <g id="text_3">
      <!-- 200 -->
      <defs>
       <path d="M 19.1875 8.296875 
L 53.609375 8.296875 
L 53.609375 0 
L 7.328125 0 
L 7.328125 8.296875 
Q 12.9375 14.109375 22.625 23.890625 
Q 32.328125 33.6875 34.8125 36.53125 
Q 39.546875 41.84375 41.421875 45.53125 
Q 43.3125 49.21875 43.3125 52.78125 
Q 43.3125 58.59375 39.234375 62.25 
Q 35.15625 65.921875 28.609375 65.921875 
Q 23.96875 65.921875 18.8125 64.3125 
Q 13.671875 62.703125 7.8125 59.421875 
L 7.8125 69.390625 
Q 13.765625 71.78125 18.9375 73 
Q 24.125 74.21875 28.421875 74.21875 
Q 39.75 74.21875 46.484375 68.546875 
Q 53.21875 62.890625 53.21875 53.421875 
Q 53.21875 48.921875 51.53125 44.890625 
Q 49.859375 40.875 45.40625 35.40625 
Q 44.1875 33.984375 37.640625 27.21875 
Q 31.109375 20.453125 19.1875 8.296875 
z
" id="DejaVuSans-50"/>
      </defs>
      <g style="fill:#262626;" transform="translate(225.558228 332.720312)scale(0.1 -0.1)">
       <use xlink:href="#DejaVuSans-50"/>
       <use x="63.623047" xlink:href="#DejaVuSans-48"/>
       <use x="127.246094" xlink:href="#DejaVuSans-48"/>
      </g>
     </g>
    </g>
    <g id="xtick_4">
     <g id="line2d_4"/>
     <g id="text_4">
      <!-- 250 -->
      <g style="fill:#262626;" transform="translate(293.82871 332.720312)scale(0.1 -0.1)">
       <use xlink:href="#DejaVuSans-50"/>
       <use x="63.623047" xlink:href="#DejaVuSans-53"/>
       <use x="127.246094" xlink:href="#DejaVuSans-48"/>
      </g>
     </g>
    </g>
    <g id="xtick_5">
     <g id="line2d_5"/>
     <g id="text_5">
      <!-- 300 -->
      <defs>
       <path d="M 40.578125 39.3125 
Q 47.65625 37.796875 51.625 33 
Q 55.609375 28.21875 55.609375 21.1875 
Q 55.609375 10.40625 48.1875 4.484375 
Q 40.765625 -1.421875 27.09375 -1.421875 
Q 22.515625 -1.421875 17.65625 -0.515625 
Q 12.796875 0.390625 7.625 2.203125 
L 7.625 11.71875 
Q 11.71875 9.328125 16.59375 8.109375 
Q 21.484375 6.890625 26.8125 6.890625 
Q 36.078125 6.890625 40.9375 10.546875 
Q 45.796875 14.203125 45.796875 21.1875 
Q 45.796875 27.640625 41.28125 31.265625 
Q 36.765625 34.90625 28.71875 34.90625 
L 20.21875 34.90625 
L 20.21875 43.015625 
L 29.109375 43.015625 
Q 36.375 43.015625 40.234375 45.921875 
Q 44.09375 48.828125 44.09375 54.296875 
Q 44.09375 59.90625 40.109375 62.90625 
Q 36.140625 65.921875 28.71875 65.921875 
Q 24.65625 65.921875 20.015625 65.03125 
Q 15.375 64.15625 9.8125 62.3125 
L 9.8125 71.09375 
Q 15.4375 72.65625 20.34375 73.4375 
Q 25.25 74.21875 29.59375 74.21875 
Q 40.828125 74.21875 47.359375 69.109375 
Q 53.90625 64.015625 53.90625 55.328125 
Q 53.90625 49.265625 50.4375 45.09375 
Q 46.96875 40.921875 40.578125 39.3125 
z
" id="DejaVuSans-51"/>
      </defs>
      <g style="fill:#262626;" transform="translate(362.099193 332.720312)scale(0.1 -0.1)">
       <use xlink:href="#DejaVuSans-51"/>
       <use x="63.623047" xlink:href="#DejaVuSans-48"/>
       <use x="127.246094" xlink:href="#DejaVuSans-48"/>
      </g>
     </g>
    </g>
   </g>
   <g id="matplotlib.axis_2">
    <g id="ytick_1">
     <g id="line2d_6"/>
     <g id="text_6">
      <!-- 300 -->
      <g style="fill:#262626;" transform="translate(12.167903 69.297026)scale(0.1 -0.1)">
       <use xlink:href="#DejaVuSans-51"/>
       <use x="63.623047" xlink:href="#DejaVuSans-48"/>
       <use x="127.246094" xlink:href="#DejaVuSans-48"/>
      </g>
     </g>
    </g>
    <g id="ytick_2">
     <g id="line2d_7"/>
     <g id="text_7">
      <!-- 350 -->
      <g style="fill:#262626;" transform="translate(12.167903 137.567508)scale(0.1 -0.1)">
       <use xlink:href="#DejaVuSans-51"/>
       <use x="63.623047" xlink:href="#DejaVuSans-53"/>
       <use x="127.246094" xlink:href="#DejaVuSans-48"/>
      </g>
     </g>
    </g>
    <g id="ytick_3">
     <g id="line2d_8"/>
     <g id="text_8">
      <!-- 400 -->
      <defs>
       <path d="M 37.796875 64.3125 
L 12.890625 25.390625 
L 37.796875 25.390625 
z
M 35.203125 72.90625 
L 47.609375 72.90625 
L 47.609375 25.390625 
L 58.015625 25.390625 
L 58.015625 17.1875 
L 47.609375 17.1875 
L 47.609375 0 
L 37.796875 0 
L 37.796875 17.1875 
L 4.890625 17.1875 
L 4.890625 26.703125 
z
" id="DejaVuSans-52"/>
      </defs>
      <g style="fill:#262626;" transform="translate(12.167903 205.837991)scale(0.1 -0.1)">
       <use xlink:href="#DejaVuSans-52"/>
       <use x="63.623047" xlink:href="#DejaVuSans-48"/>
       <use x="127.246094" xlink:href="#DejaVuSans-48"/>
      </g>
     </g>
    </g>
    <g id="ytick_4">
     <g id="line2d_9"/>
     <g id="text_9">
      <!-- 450 -->
      <g style="fill:#262626;" transform="translate(12.167903 274.108473)scale(0.1 -0.1)">
       <use xlink:href="#DejaVuSans-52"/>
       <use x="63.623047" xlink:href="#DejaVuSans-53"/>
       <use x="127.246094" xlink:href="#DejaVuSans-48"/>
      </g>
     </g>
    </g>
   </g>
   <g id="patch_3">
    <path clip-path="url(#p7368ff62b3)" d="M 73.458766 207.503364 
L 77.696411 202.816977 
L 83.507804 200.156154 
L 90.362008 199.012135 
L 92.82619 191.787361 
L 95.006475 183.860505 
L 98.329557 177.350372 
L 103.012939 172.776759 
L 108.950006 170.19496 
L 112.907775 164.243893 
L 117.175577 158.623556 
L 121.290407 152.50388 
L 125.463083 146.230826 
L 129.285155 138.944717 
L 133.360964 131.800261 
L 137.443527 124.263125 
L 141.933417 117.21883 
L 147.392319 112.132201 
L 153.766546 109.169892 
L 160.072798 105.971712 
L 166.414798 102.786386 
L 172.91928 99.994159 
L 179.455649 97.229157 
L 186.344684 95.601208 
L 193.140022 93.668621 
L 199.965371 91.840821 
L 206.963035 90.740426 
L 214.020297 90.004682 
L 221.340122 90.756466 
L 229.070832 94.267588 
L 236.884744 99.375078 
L 244.405204 103.966315 
L 252.131644 111.83709 
L 259.249272 116.83849 
L 266.457023 125.160003 
L 273.466009 135.101466 
L 279.942041 141.813817 
L 286.207977 149.552949 
L 292.107975 152.23371 
L 297.910822 165.051601 
L 303.272136 177.529094 
L 308.401915 184.252969 
L 313.631076 184.718252 
L 319.002975 183.046723 
L 324.232383 183.821743 
L 329.418769 184.900478 
L 334.542771 186.335287 
L 339.486671 188.85103 
L 344.347955 191.486049 
L 349.120579 194.253601 
L 354.104237 195.588511 
L 358.963103 197.450168 
L 363.768419 199.417974 
L 368.513176 201.507993 
L 373.264254 203.455731 
L 377.907363 205.697477 
L 383.956521 203.235769 
L 392.798119 192.645497 
L 398.448751 175.254638 
L 390.800082 180.851489 
L 385.605535 178.850761 
L 380.424483 176.733391 
L 375.143639 174.914659 
L 369.742878 173.539749 
L 364.299236 172.345637 
L 358.793092 171.466441 
L 353.352428 170.253597 
L 347.804493 169.662324 
L 342.283338 168.951711 
L 336.853476 167.516104 
L 331.429489 165.76975 
L 326.192641 161.415896 
L 320.869651 156.352021 
L 315.707444 145.098783 
L 310.095531 135.754135 
L 304.172531 125.945512 
L 297.910822 112.968511 
L 291.174696 98.766192 
L 284.068242 88.278936 
L 276.678039 79.532947 
L 269.183956 73.865249 
L 261.543438 68.997473 
L 253.705746 64.095369 
L 245.845515 60.640677 
L 238.145974 59.429582 
L 230.582847 59.58647 
L 222.969961 59.667826 
L 215.372166 60.053997 
L 207.912556 61.270017 
L 200.577222 63.080429 
L 193.299487 65.105421 
L 186.130429 67.508466 
L 179.234605 70.805416 
L 172.456241 74.335124 
L 166.268177 79.52417 
L 160.305314 85.043156 
L 154.518816 90.712272 
L 149.103346 97.021841 
L 143.872164 103.419513 
L 138.42295 108.948688 
L 133.101363 114.510464 
L 127.251496 118.698463 
L 121.893708 123.790004 
L 116.878578 129.382785 
L 111.823758 134.699704 
L 106.979861 140.229998 
L 102.206438 145.708634 
L 97.40954 150.988401 
L 92.216389 155.498666 
L 87.005254 159.912474 
L 81.815603 164.304233 
L 76.107021 167.909913 
L 71.828621 173.503115 
L 69.109411 181.048841 
L 66.149413 188.037494 
L 62.255545 193.668538 
z
" style="fill:#ff69b5;opacity:0.2;stroke:#ff69b5;stroke-linecap:round;stroke-linejoin:miter;stroke-width:0.5;"/>
   </g>
   <g id="patch_4">
    <path clip-path="url(#p7368ff62b3)" d="M 103.568081 253.06991 
L 107.226503 249.203046 
L 110.542379 244.857899 
L 113.633622 240.134465 
L 117.846988 236.841964 
L 122.528252 234.206302 
L 127.295277 231.730623 
L 132.256637 229.593493 
L 137.153077 227.4124 
L 140.156874 222.13191 
L 144.599571 219.135693 
L 149.763889 217.414428 
L 154.466631 214.899284 
L 159.590002 213.208675 
L 163.551583 209.201305 
L 168.084973 206.266137 
L 171.235252 200.160582 
L 175.867861 197.163371 
L 180.81751 194.862452 
L 184.840295 190.119776 
L 186.496289 178.569656 
L 189.416917 169.58939 
L 192.392931 159.927893 
L 195.784365 150.637979 
L 199.449738 141.303965 
L 203.786869 133.403195 
L 208.928282 127.789094 
L 214.367174 122.811275 
L 219.867448 117.513363 
L 225.701513 113.193882 
L 231.531955 108.225306 
L 237.524482 103.414227 
L 243.849245 100.01046 
L 250.360343 97.411002 
L 257.038115 95.800745 
L 263.801833 94.811043 
L 270.5763 93.7767 
L 277.383148 92.987228 
L 284.226223 92.802926 
L 291.076062 93.115471 
L 297.910822 94.681862 
L 304.691673 96.203874 
L 311.439055 97.280669 
L 318.089287 99.650507 
L 324.574866 103.364971 
L 330.726755 109.590737 
L 336.907475 113.650202 
L 342.966249 117.731563 
L 348.934465 121.626485 
L 354.745484 125.838632 
L 359.807256 133.646446 
L 364.610122 141.540415 
L 370.154132 144.800517 
L 375.344716 149.275522 
L 380.633631 152.895503 
L 386.038221 155.782638 
L 391.404835 158.626197 
L 396.958523 160.708135 
L 402.260043 163.524689 
L 405.206657 154.455945 
L 400.15236 150.261566 
L 394.51488 147.78018 
L 389.309634 143.573558 
L 384.432099 137.66068 
L 378.972876 133.560237 
L 373.923071 127.069052 
L 370.514563 111.164698 
L 367.055048 92.542175 
L 362.486869 76.961456 
L 356.679185 66.519939 
L 350.3334 57.730928 
L 343.453043 51.373276 
L 336.188308 47.164898 
L 328.523257 46.900356 
L 320.779674 48.314874 
L 313.069684 50.585546 
L 305.468276 51.712325 
L 297.910822 52.036493 
L 290.330341 50.39313 
L 282.743906 50.354943 
L 275.226818 51.84199 
L 267.696997 52.600749 
L 260.107198 52.581176 
L 252.79736 55.452655 
L 246.202481 63.547929 
L 239.65694 70.180663 
L 233.356086 77.096008 
L 227.234235 83.851726 
L 221.47816 91.466614 
L 216.084862 99.717694 
L 211.461228 110.224239 
L 206.611014 118.495041 
L 201.238582 123.892859 
L 195.804695 128.592189 
L 190.981678 134.9291 
L 186.297557 141.168261 
L 181.147457 145.573134 
L 176.227093 150.355272 
L 172.458256 157.863461 
L 168.404263 164.138589 
L 164.290002 169.887645 
L 160.748309 176.606521 
L 157.438997 183.435768 
L 153.45444 188.499094 
L 148.806558 192.044976 
L 146.980076 200.819122 
L 142.592779 204.477403 
L 138.442536 208.471396 
L 134.062258 211.988767 
L 128.374011 213.362957 
L 123.826988 216.612974 
L 120.628103 221.846131 
L 117.433395 226.930092 
L 113.607752 231.007156 
L 108.606625 233.463415 
L 105.185544 238.001463 
L 101.222138 241.788273 
L 97.011417 245.255982 
z
" style="fill:#00d9ff;opacity:0.2;stroke:#00d9ff;stroke-linecap:round;stroke-linejoin:miter;stroke-width:0.5;"/>
   </g>
   <g id="patch_5">
    <path clip-path="url(#p7368ff62b3)" d="M 109.210254 259.79399 
L 113.854907 257.388443 
L 117.931506 254.31555 
L 122.073364 251.334381 
L 126.902184 249.305371 
L 131.806052 247.456374 
L 136.388287 245.211563 
L 140.991195 243.043533 
L 145.291451 240.436521 
L 149.285976 237.325287 
L 153.43307 234.435763 
L 157.704661 231.739959 
L 160.575693 226.388758 
L 162.757647 219.42553 
L 166.196503 214.624195 
L 169.854102 210.060048 
L 173.300191 204.798511 
L 177.340454 200.632584 
L 181.498564 196.54812 
L 184.484883 189.193897 
L 186.507179 178.599576 
L 190.379156 172.383936 
L 193.860906 164.445857 
L 197.788521 157.19328 
L 202.045066 150.354949 
L 206.127326 142.137902 
L 210.067281 132.357372 
L 214.684341 124.185074 
L 219.367281 115.160265 
L 224.587606 107.463328 
L 230.785175 103.99011 
L 237.120958 100.866476 
L 243.437837 97.083142 
L 249.526507 90.619951 
L 255.709122 83.156217 
L 262.396469 78.747655 
L 269.248331 74.785856 
L 276.264145 71.63537 
L 283.401403 69.183192 
L 290.643671 68.343784 
L 297.910822 68.575083 
L 305.127304 71.246567 
L 312.245968 74.173696 
L 319.264499 77.226135 
L 326.090391 81.691955 
L 332.542206 88.840037 
L 339.04268 93.335079 
L 345.444182 97.550416 
L 351.151246 105.853263 
L 356.866441 112.447439 
L 362.457594 118.615634 
L 368.027531 123.959373 
L 373.895843 127.197151 
L 379.593638 130.871423 
L 385.14119 134.816671 
L 390.290251 139.913846 
L 395.385413 144.744272 
L 401.13005 147.063685 
L 406.827277 149.468189 
L 411.02165 136.559235 
L 403.860629 138.132366 
L 397.888662 136.014404 
L 392.037429 133.39329 
L 386.376394 129.862538 
L 380.607424 126.480231 
L 375.506747 119.618442 
L 372.152948 102.735942 
L 368.356256 85.162656 
L 363.728365 69.122959 
L 357.401605 61.379653 
L 350.559908 55.886173 
L 343.172475 54.042704 
L 335.746042 52.220019 
L 328.332041 49.634863 
L 320.808126 47.771986 
L 313.224374 46.15581 
L 305.569548 45.910429 
L 297.910822 46.404552 
L 290.269733 46.920861 
L 282.688338 48.763662 
L 275.172168 50.799207 
L 267.768852 53.628321 
L 260.528658 57.398477 
L 253.679303 63.843781 
L 247.115587 70.984577 
L 240.348079 75.098373 
L 234.173758 82.258588 
L 228.190705 89.276141 
L 222.222053 95.29361 
L 216.856958 103.350119 
L 211.453227 110.189583 
L 206.152978 116.65796 
L 200.933841 122.755551 
L 195.875823 128.840241 
L 191.811775 137.644223 
L 188.793868 148.851117 
L 184.511934 155.344287 
L 181.369549 164.484055 
L 178.512289 173.634756 
L 173.385143 176.4667 
L 170.883582 185.421146 
L 167.390576 191.525298 
L 164.087698 197.693955 
L 160.828623 203.618411 
L 156.678816 207.495151 
L 152.792459 211.750624 
L 150.695349 219.094827 
L 146.257175 222.006748 
L 141.608905 224.548496 
L 137.173656 227.445332 
L 132.810591 230.446509 
L 128.433944 233.418766 
L 124.289554 236.721702 
L 120.068375 239.899441 
L 115.494182 242.603512 
L 112.941022 247.928022 
L 109.554081 252.077365 
L 105.497278 255.369037 
z
" style="fill:#0000ff;opacity:0.2;stroke:#0000ff;stroke-linecap:round;stroke-linejoin:miter;stroke-width:0.5;"/>
   </g>
   <g id="patch_6">
    <path clip-path="url(#p7368ff62b3)" d="M 65.879002 208.153814 
L 71.37588 204.931214 
L 75.505006 200.012107 
L 79.984044 195.479967 
L 85.366093 192.135847 
L 90.31444 188.200211 
L 94.838729 183.61181 
L 97.50186 176.075831 
L 100.924018 169.433785 
L 105.335807 164.179924 
L 109.044209 157.552 
L 113.204527 151.459593 
L 115.994219 142.5432 
L 119.171196 133.882302 
L 122.813196 125.675235 
L 127.398855 119.014476 
L 132.244048 112.584902 
L 137.945803 107.8246 
L 143.878529 103.435266 
L 149.933911 99.185537 
L 155.777961 94.171743 
L 161.750682 89.240809 
L 168.106891 85.183148 
L 174.671164 81.579811 
L 181.325168 78.096077 
L 188.424969 76.071803 
L 195.659124 74.56941 
L 203.24798 74.648754 
L 211.662435 78.911813 
L 220.317846 85.497316 
L 229.308035 95.612831 
L 237.356853 102.355857 
L 246.457266 118.567496 
L 254.316753 129.633375 
L 261.731937 140.459471 
L 268.6367 150.073821 
L 275.204875 159.968397 
L 281.436597 170.33164 
L 287.06625 174.130658 
L 292.529254 176.368772 
L 297.910822 180.281281 
L 303.164591 183.690336 
L 308.37044 185.154289 
L 313.552739 186.213006 
L 318.718469 187.115356 
L 323.653556 190.437772 
L 328.313449 195.416892 
L 333.102087 198.068711 
L 337.879107 200.289442 
L 342.637066 202.288176 
L 347.422093 203.886199 
L 351.956868 206.635764 
L 356.492451 209.073674 
L 364.309181 197.075678 
L 368.87109 200.072479 
L 373.592016 202.232506 
L 377.539223 206.981334 
L 384.563988 201.248833 
L 389.275858 203.485901 
L 395.10418 185.54817 
L 390.242936 182.67383 
L 384.391814 183.083506 
L 379.920401 178.614654 
L 374.912005 175.84369 
L 368.518289 178.84403 
L 363.426741 176.450402 
L 358.064318 175.21566 
L 352.732283 173.770611 
L 347.29236 172.895807 
L 341.86483 171.929548 
L 336.534502 170.113933 
L 331.288868 167.107668 
L 325.832221 165.535513 
L 320.331106 164.05356 
L 314.781142 162.77368 
L 309.226759 160.632522 
L 303.616288 157.812645 
L 297.910822 153.934632 
L 292.04009 148.344597 
L 285.769477 136.995946 
L 279.020269 124.225346 
L 272.06025 114.998176 
L 264.320966 100.744765 
L 255.809805 84.114154 
L 247.915722 77.501158 
L 240.07774 73.174808 
L 231.924617 68.058072 
L 223.393294 62.068668 
L 215.330855 59.841468 
L 207.466493 59.171455 
L 199.411283 58.030194 
L 191.363721 57.34149 
L 183.377712 57.235185 
L 175.470184 57.677321 
L 168.022325 59.832441 
L 160.484174 61.722838 
L 153.178007 64.343954 
L 146.580065 68.900734 
L 139.860462 72.943305 
L 132.508681 75.293906 
L 125.633193 78.81791 
L 119.079497 83.016838 
L 113.37611 88.942603 
L 107.854551 95.005466 
L 101.871225 99.929198 
L 97.997355 108.696022 
L 91.536165 112.368832 
L 87.291441 119.875101 
L 89.073704 137.115238 
L 88.920193 150.22365 
L 86.928907 159.794911 
L 85.957586 170.444975 
L 84.071754 179.28473 
L 81.512112 186.831298 
L 77.660268 192.396212 
L 72.832228 196.591107 
L 68.988525 201.983076 
L 64.12372 206.061951 
z
" style="fill:#ff69b5;opacity:0.2;stroke:#ff69b5;stroke-linecap:round;stroke-linejoin:miter;stroke-width:0.5;"/>
   </g>
   <g id="patch_7">
    <path clip-path="url(#p7368ff62b3)" d="M 94.16423 250.294927 
L 95.581081 243.551374 
L 93.938898 232.794221 
L 94.041645 223.737922 
L 96.461115 217.345779 
L 99.069572 210.997067 
L 100.639661 202.946155 
L 103.917639 197.071848 
L 107.644059 191.693447 
L 112.516051 187.984916 
L 117.21065 183.942981 
L 121.825781 179.690333 
L 125.730535 174.05711 
L 130.884401 170.54756 
L 136.806375 168.493289 
L 142.206138 165.436659 
L 145.969588 158.839543 
L 147.399678 146.625005 
L 149.460206 134.950835 
L 151.01131 121.089518 
L 152.109361 104.852778 
L 157.296764 98.34462 
L 163.468959 94.231048 
L 169.776576 90.32191 
L 175.970525 85.82983 
L 182.469192 82.085762 
L 189.183965 78.904416 
L 196.048432 76.13084 
L 202.643148 72.028939 
L 209.450633 68.506101 
L 216.627025 66.509688 
L 223.926092 65.090317 
L 231.389984 64.68253 
L 239.102075 66.232595 
L 246.906542 69.282047 
L 255.401579 80.230143 
L 263.280232 88.849115 
L 270.525861 93.055383 
L 277.863026 102.143835 
L 284.620402 104.090731 
L 291.576868 121.806575 
L 297.910822 129.689247 
L 304.028631 134.189496 
L 309.987805 138.839012 
L 315.663144 145.944089 
L 321.130846 152.616748 
L 326.609681 156.649112 
L 332.106853 159.325061 
L 337.503865 162.219111 
L 342.89698 164.585423 
L 348.289213 166.601927 
L 353.433083 169.796178 
L 358.560836 172.661294 
L 363.493757 176.135118 
L 368.205471 180.198994 
L 373.063821 183.256352 
L 378.201458 185.029835 
L 383.241033 187.096757 
L 388.189108 189.391602 
L 391.73862 195.906299 
L 409.054835 142.61247 
L 400.379686 149.518017 
L 394.589714 147.519205 
L 388.796389 145.489016 
L 383.026886 143.296682 
L 377.009006 142.066694 
L 370.824741 141.645551 
L 365.283467 138.076358 
L 359.296132 136.545173 
L 353.210762 135.528489 
L 347.708882 130.34696 
L 341.56279 129.16182 
L 335.4915 127.122296 
L 329.484857 123.785697 
L 323.420506 119.873087 
L 317.346419 113.825276 
L 311.27134 102.083372 
L 304.834825 88.0027 
L 297.910822 80.819522 
L 290.79315 76.907415 
L 283.345914 67.594182 
L 275.48062 56.684819 
L 267.037795 43.173715 
L 258.861648 38.344473 
L 250.604557 34.589525 
L 242.029035 29.557935 
L 233.656609 27.48609 
L 225.46131 27.250358 
L 217.686886 29.706023 
L 209.905788 31.931921 
L 202.107546 33.959595 
L 194.429995 36.453864 
L 186.865867 39.301582 
L 179.547935 42.942262 
L 172.460863 47.182571 
L 165.413339 51.29883 
L 158.511971 55.653022 
L 151.867263 60.537278 
L 145.611617 66.239943 
L 140.601181 74.872945 
L 136.694188 85.653398 
L 132.491486 94.975035 
L 129.591799 106.627854 
L 126.42054 116.916473 
L 121.967997 123.942321 
L 119.405962 134.343056 
L 118.354998 146.983179 
L 116.687639 157.743293 
L 114.112427 166.330411 
L 112.089233 175.419512 
L 108.359446 181.332958 
L 104.201195 186.391902 
L 99.613251 190.690331 
L 94.346505 193.958596 
L 89.212758 197.430327 
L 83.215227 199.767892 
L 77.779193 202.922933 
L 72.660912 206.518096 
L 66.156926 208.485032 
L 60.612958 211.698604 
z
" style="fill:#b20000;opacity:0.2;stroke:#b20000;stroke-linecap:round;stroke-linejoin:miter;stroke-width:0.5;"/>
   </g>
   <g id="patch_8">
    <path clip-path="url(#p7368ff62b3)" d="M 82.177274 245.082191 
L 85.144429 239.918833 
L 88.148738 234.693852 
L 88.504712 226.083559 
L 92.288313 221.49376 
L 99.91173 221.9249 
L 104.16847 218.015099 
L 108.196999 213.739152 
L 112.567066 209.895152 
L 117.148304 206.328701 
L 124.652679 207.40758 
L 128.495269 202.723742 
L 132.273848 197.786915 
L 136.640772 193.739698 
L 140.403533 188.450442 
L 144.222766 183.048777 
L 148.257385 177.843553 
L 152.746378 173.372415 
L 155.754319 165.389835 
L 159.278943 158.08233 
L 163.211595 151.286285 
L 168.233156 146.856701 
L 174.10462 144.523827 
L 179.896953 141.941407 
L 185.448539 138.555255 
L 190.865645 134.549573 
L 196.405532 130.687555 
L 201.986055 126.682465 
L 207.745588 123.045567 
L 213.670448 119.793421 
L 219.699178 116.721716 
L 225.88598 114.142882 
L 232.369762 112.976751 
L 238.68245 110.725345 
L 245.067896 108.681613 
L 251.498908 106.683864 
L 257.782098 102.879263 
L 264.515475 102.968009 
L 271.276238 103.78627 
L 278.064259 105.983597 
L 284.821477 109.848776 
L 291.435151 113.687637 
L 297.910822 118.218069 
L 304.222963 123.056247 
L 310.394744 127.185807 
L 316.396312 131.95441 
L 322.004894 140.117287 
L 327.395827 147.663415 
L 332.645482 154.200351 
L 337.868699 159.247777 
L 343.100792 163.135222 
L 347.989612 168.49353 
L 353.199617 171.12023 
L 358.401892 173.478988 
L 363.471419 176.240211 
L 368.326138 179.676326 
L 373.32396 182.212992 
L 378.462657 184.055028 
L 383.659828 185.636246 
L 388.848558 187.234636 
L 391.380203 197.009392 
L 406.51626 150.425399 
L 400.664724 148.585699 
L 394.808079 146.757676 
L 388.941991 144.945619 
L 383.168856 142.727273 
L 377.254961 141.001346 
L 371.517201 138.38778 
L 366.593677 131.335911 
L 360.981244 126.98843 
L 355.445581 121.418393 
L 349.917178 114.634114 
L 344.216554 107.548643 
L 338.221892 101.144355 
L 331.820369 97.090666 
L 325.480589 90.412531 
L 319.062016 81.089731 
L 312.178158 76.115515 
L 305.128404 71.183569 
L 297.910822 67.84867 
L 290.577885 64.574897 
L 283.202795 63.495797 
L 275.840593 63.55351 
L 268.428711 63.064742 
L 260.931461 62.002541 
L 253.508988 62.223339 
L 246.369954 64.911887 
L 239.405122 68.388886 
L 232.52355 71.839586 
L 225.715024 75.235853 
L 220.065384 84.19851 
L 213.846464 89.186862 
L 207.31979 92.285699 
L 200.703707 94.802128 
L 194.304955 98.016209 
L 187.982671 101.313548 
L 181.806208 104.917488 
L 176.039112 109.596014 
L 170.330835 114.159385 
L 164.635466 118.50754 
L 158.896694 122.534386 
L 153.419516 127.050039 
L 147.842711 131.140255 
L 142.506836 135.635502 
L 137.231418 140.100476 
L 132.918893 146.394984 
L 129.285915 153.733556 
L 125.211695 159.878751 
L 120.654427 164.899568 
L 115.765753 169.194056 
L 111.321879 174.14242 
L 106.881212 178.967288 
L 100.698222 180.997797 
L 95.903731 185.19074 
L 90.704635 188.757466 
L 91.283878 200.280979 
L 86.243142 203.786071 
L 80.081574 205.869847 
L 75.302803 209.780559 
L 67.944549 210.615437 
L 63.660379 215.204261 
L 59.392774 219.777441 
z
" style="fill:#00d9ff;opacity:0.2;stroke:#00d9ff;stroke-linecap:round;stroke-linejoin:miter;stroke-width:0.5;"/>
   </g>
   <g id="patch_9">
    <path clip-path="url(#p7368ff62b3)" d="M 108.826081 251.17836 
L 113.070767 248.094088 
L 116.687875 244.187596 
L 120.83398 240.953206 
L 125.038466 237.791259 
L 129.277801 234.669834 
L 133.428398 231.397848 
L 137.060266 227.26387 
L 140.623162 222.907944 
L 142.994348 216.355365 
L 146.492343 211.512403 
L 150.463262 207.370041 
L 154.151889 202.535777 
L 157.608139 197.01544 
L 161.701188 192.576066 
L 165.664146 187.647673 
L 169.451656 182.047739 
L 173.119096 175.808209 
L 177.134326 170.045041 
L 181.576021 165.051332 
L 186.193149 160.226888 
L 190.851958 155.185266 
L 195.423133 149.456443 
L 200.013761 143.270945 
L 204.320696 135.395466 
L 208.73192 127.001532 
L 213.815268 120.420708 
L 219.228446 114.507095 
L 224.795917 108.534993 
L 230.646 103.200808 
L 236.995289 100.07303 
L 243.569595 98.02065 
L 250.013878 94.58927 
L 256.61052 91.732442 
L 263.481977 91.155071 
L 270.399261 91.244917 
L 277.362601 92.595164 
L 284.282458 94.413294 
L 291.156429 97.719663 
L 297.910822 101.495059 
L 304.528092 105.575424 
L 311.008755 109.602831 
L 317.35017 113.753703 
L 323.406856 120.068291 
L 329.266874 126.277254 
L 335.281301 129.122214 
L 341.114194 132.815342 
L 346.76176 137.08608 
L 352.738514 138.510145 
L 358.582976 140.589684 
L 364.117338 144.075572 
L 369.790805 146.509837 
L 375.542512 148.418777 
L 381.307991 150.190792 
L 387.094414 151.840872 
L 392.742849 153.959986 
L 398.406561 155.971816 
L 404.277398 157.31591 
L 409.058604 142.600868 
L 407.331981 126.778084 
L 402.546341 119.771147 
L 396.067909 118.351333 
L 389.694121 116.555861 
L 383.350393 114.599127 
L 376.962982 112.767397 
L 370.571195 110.873356 
L 364.445676 107.340657 
L 358.72092 100.73872 
L 352.917819 93.283446 
L 346.611875 88.040318 
L 340.291173 81.456465 
L 333.826518 74.160282 
L 326.916029 69.884781 
L 319.931662 64.495899 
L 312.699655 61.181794 
L 305.330709 59.593516 
L 297.910822 58.496902 
L 290.45136 57.326298 
L 282.963996 56.657481 
L 275.51911 57.419252 
L 268.119858 58.647936 
L 260.836691 60.919318 
L 253.754116 64.555576 
L 246.84807 68.805826 
L 240.130084 73.54726 
L 233.809569 79.959187 
L 227.695431 86.467303 
L 220.951177 88.755522 
L 214.375379 91.675208 
L 208.138636 95.832512 
L 202.399106 101.602 
L 196.770137 107.216394 
L 191.20908 112.565373 
L 185.829165 118.075988 
L 180.271966 122.6234 
L 175.185109 128.257219 
L 170.328457 134.148903 
L 165.676018 140.195129 
L 160.936498 145.655223 
L 156.171846 150.762468 
L 152.154147 157.303717 
L 147.414627 161.938439 
L 143.434868 167.955928 
L 143.659344 181.942998 
L 142.228489 191.882685 
L 137.871747 195.960436 
L 136.606654 205.291555 
L 132.922215 210.091416 
L 128.646905 213.799679 
L 128.622261 223.997046 
L 124.229425 227.185309 
L 119.218331 229.479245 
L 114.555022 232.310962 
L 109.684655 234.894009 
L 103.685247 236.08117 
L 98.81881 238.82041 
z
" style="fill:#0000ff;opacity:0.2;stroke:#0000ff;stroke-linecap:round;stroke-linejoin:miter;stroke-width:0.5;"/>
   </g>
   <g id="patch_10">
    <path clip-path="url(#p7368ff62b3)" d="M 94.08284 307.493608 
L 98.12019 304.786277 
L 101.656094 301.668075 
L 104.577912 297.979148 
L 107.491287 294.259035 
L 110.331178 290.434162 
L 111.709171 285.001746 
L 112.83092 279.126514 
L 113.9931 273.105432 
L 115.235565 266.974675 
L 116.529661 260.691489 
L 117.869065 254.235629 
L 119.2565 247.596276 
L 117.734093 236.686577 
L 117.739653 227.367474 
L 120.65528 221.886421 
L 123.969246 216.832032 
L 129.320487 214.877636 
L 137.129918 217.094211 
L 137.689688 207.167425 
L 140.268315 200.283959 
L 142.046716 191.54082 
L 146.885197 188.274092 
L 147.124674 175.521152 
L 149.661677 166.757252 
L 153.299561 159.87636 
L 157.162227 153.095659 
L 159.865847 143.005266 
L 162.100157 130.879692 
L 165.530593 120.966881 
L 170.120424 113.548305 
L 175.066201 106.601701 
L 180.416985 100.373547 
L 186.284976 95.392981 
L 191.89801 89.03337 
L 197.401612 81.558147 
L 203.526859 75.856712 
L 210.164797 71.865981 
L 217.133579 69.11568 
L 224.338858 67.431228 
L 231.620383 66.137208 
L 238.965245 65.258998 
L 246.325973 64.55369 
L 253.691835 63.96301 
L 261.263784 65.801012 
L 268.870109 69.377033 
L 276.446102 75.107315 
L 283.887108 83.091962 
L 291.055168 91.918403 
L 297.910822 96.216517 
L 304.6033 101.266724 
L 311.084892 107.422567 
L 317.244988 115.760694 
L 322.965258 126.383432 
L 328.22992 138.129694 
L 333.580555 145.303731 
L 338.986804 150.141536 
L 344.524358 153.006026 
L 350.114577 155.077031 
L 355.590688 157.559792 
L 360.874398 160.759051 
L 366.287232 162.992849 
L 371.492423 165.961636 
L 376.16451 170.820168 
L 380.475252 176.543922 
L 385.170624 180.367473 
L 389.756393 184.265241 
L 392.903081 192.322456 
L 406.56826 150.265359 
L 398.745944 154.861747 
L 392.598708 154.462668 
L 386.759288 153.09158 
L 381.307485 150.192823 
L 376.075641 146.10954 
L 370.739607 142.046072 
L 365.133164 138.849596 
L 359.368314 136.135811 
L 353.502579 133.686026 
L 347.648905 130.773719 
L 342.656653 120.253019 
L 336.272864 119.688119 
L 331.101254 105.310197 
L 324.7127 101.393856 
L 318.325594 95.141515 
L 311.831268 86.049156 
L 305.007948 78.084453 
L 297.910822 69.225172 
L 290.468322 58.298045 
L 282.632608 47.167772 
L 274.357593 35.256187 
L 266.020449 28.624996 
L 257.81592 26.391741 
L 249.589118 24.928267 
L 241.463925 24.955491 
L 233.327078 25.141353 
L 225.186278 25.513868 
L 217.33 27.682017 
L 209.700182 30.87417 
L 202.710961 36.798438 
L 195.916975 42.894681 
L 189.696369 50.654105 
L 183.812244 58.856878 
L 178.906908 69.6626 
L 174.16251 79.916079 
L 169.208384 88.573196 
L 164.112591 96.100292 
L 159.289392 103.819322 
L 155.115452 112.683912 
L 150.587226 120.039874 
L 146.113398 127.066249 
L 142.647534 135.951515 
L 139.394754 144.739765 
L 135.914502 152.536893 
L 132.777759 160.586686 
L 129.214342 167.406636 
L 125.475235 173.596536 
L 122.287111 180.489379 
L 119.058166 187.017764 
L 113.226287 189.121531 
L 116.653584 205.5669 
L 111.394329 208.156497 
L 105.169051 209.414793 
L 106.443232 221.146041 
L 101.505739 224.040222 
L 97.480254 228.139142 
L 93.480362 232.227976 
L 89.503582 236.308493 
L 85.495941 240.323201 
L 81.274423 244.079474 
L 77.056318 247.84111 
L 72.537933 251.298112 
L 68.26663 255.034377 
L 64.504237 259.280451 
L 60.858631 263.623825 
L 56.761855 267.547064 
L 52.672843 271.496447 
z
" style="fill:#b20000;opacity:0.2;stroke:#b20000;stroke-linecap:round;stroke-linejoin:miter;stroke-width:0.5;"/>
   </g>
   <g id="line2d_10">
    <path clip-path="url(#p7368ff62b3)" d="M 65.314015 207.480489 
L 67.857155 200.585951 
L 71.922912 195.427236 
L 76.308607 190.602498 
L 81.095315 186.257625 
L 84.466605 179.848637 
L 88.411039 174.082369 
L 92.667405 168.631423 
L 97.614664 164.137712 
L 103.179773 160.59168 
L 107.557107 154.976264 
L 112.077719 149.426777 
L 116.557082 143.601792 
L 121.17083 137.806806 
L 125.589431 131.367361 
L 130.30623 125.249362 
L 135.272445 119.386794 
L 140.178183 113.083759 
L 145.632241 107.775857 
L 151.434946 103.095866 
L 157.295807 98.341992 
L 163.360056 93.914771 
L 169.593729 89.759165 
L 175.955945 85.78214 
L 182.789644 83.203312 
L 189.635226 80.588544 
L 196.632429 78.473121 
L 203.770128 76.910427 
L 210.966426 75.637349 
L 218.356144 75.405231 
L 226.020396 76.967707 
L 233.733796 79.480774 
L 241.275589 81.697948 
L 248.98858 86.238884 
L 256.477509 90.46693 
L 264.000231 97.078738 
L 271.324983 104.483358 
L 278.31004 110.673382 
L 285.138109 118.915942 
L 291.641336 125.499951 
L 297.910822 139.010056 
L 303.722333 151.737303 
L 309.248723 160.003552 
L 314.66926 164.908517 
L 319.936313 169.699372 
L 325.212512 172.61882 
L 330.424129 175.335114 
L 335.698123 176.925696 
L 340.885004 178.901371 
L 346.076224 180.574186 
L 351.236504 182.253599 
L 356.448664 183.527476 
L 361.63117 184.897902 
L 366.755649 186.478862 
L 371.828407 188.211326 
L 376.844369 190.094561 
L 381.756449 192.274119 
L 387.378301 192.043629 
L 395.623435 183.950068 
" style="fill:none;stroke:#ff69b5;stroke-linecap:round;"/>
   </g>
   <g id="line2d_11">
    <path clip-path="url(#p7368ff62b3)" d="M 81.621469 260.704388 
L 85.661157 257.06867 
L 89.709802 253.447911 
L 93.76874 249.839967 
L 100.289749 249.162946 
L 104.224321 245.49566 
L 107.863961 241.429681 
L 111.120123 236.79894 
L 115.72737 233.92456 
L 119.980823 230.568197 
L 123.96169 226.788377 
L 128.041812 223.103233 
L 132.763544 220.387678 
L 137.109566 217.060339 
L 141.521053 213.803544 
L 146.178334 210.945916 
L 150.723354 207.859203 
L 154.19828 202.626825 
L 158.503011 198.8502 
L 162.761985 194.850953 
L 165.991781 188.383552 
L 170.078931 183.525508 
L 174.610886 179.50052 
L 178.649275 173.991618 
L 181.361691 164.462464 
L 185.282187 157.581262 
L 189.345244 150.548077 
L 193.383021 142.783539 
L 197.627217 134.948077 
L 202.512726 128.648027 
L 207.769648 123.142067 
L 212.914201 116.517757 
L 217.976155 108.615528 
L 223.589837 102.330248 
L 229.383095 96.038516 
L 235.440284 90.255118 
L 241.753092 85.095561 
L 248.281412 80.479465 
L 254.917738 75.6267 
L 261.954516 73.696109 
L 269.136649 73.188724 
L 276.304983 72.414609 
L 283.485065 71.578934 
L 290.703202 71.7543 
L 297.910822 73.359177 
L 305.079974 73.9581 
L 312.254369 73.933108 
L 319.434481 73.982691 
L 326.549061 75.132663 
L 333.457531 78.377818 
L 340.180259 82.511739 
L 346.649825 87.731245 
L 352.806825 94.073212 
L 358.616176 101.400044 
L 363.431152 113.094311 
L 367.562343 126.352556 
L 372.038602 135.934785 
L 377.158796 141.41788 
L 382.532865 145.278092 
L 387.673928 149.678098 
L 392.959858 153.203189 
L 398.555442 155.484851 
L 403.73335 158.990317 
" style="fill:none;stroke:#00d9ff;stroke-linecap:round;"/>
   </g>
   <g id="line2d_12">
    <path clip-path="url(#p7368ff62b3)" d="M 78.324938 293.795473 
L 81.597173 289.908885 
L 86.129629 287.189412 
L 90.202059 284.096548 
L 94.056935 280.824682 
L 96.931821 276.558721 
L 99.828163 272.260924 
L 102.747987 267.928282 
L 105.693381 263.557698 
L 107.353766 257.581513 
L 111.704494 254.732904 
L 115.436264 251.121786 
L 118.783773 246.968947 
L 123.485279 244.602406 
L 128.047803 242.089038 
L 132.411116 239.315164 
L 136.900893 236.745021 
L 141.232553 233.940926 
L 145.44744 230.936892 
L 149.845123 228.221255 
L 154.200005 225.417393 
L 156.684076 219.069691 
L 159.718232 213.46034 
L 163.512563 209.121303 
L 166.9709 203.877002 
L 170.345384 198.161904 
L 174.112018 193.026865 
L 177.441854 186.50741 
L 181.498586 181.414327 
L 183.938364 171.541815 
L 187.445545 163.864112 
L 191.327387 156.648487 
L 194.800148 147.418752 
L 198.960445 139.597595 
L 203.530584 132.446726 
L 208.11013 124.507666 
L 213.068784 117.187329 
L 218.112119 109.255192 
L 223.40483 101.378469 
L 229.48794 96.633126 
L 235.647358 91.562532 
L 241.892958 86.090757 
L 248.321047 80.802264 
L 254.694213 73.499999 
L 261.462563 68.073066 
L 268.508592 64.207088 
L 275.718156 61.217288 
L 283.044871 58.973427 
L 290.456702 57.632323 
L 297.910822 57.489818 
L 305.348426 58.578498 
L 312.735171 60.164753 
L 320.036312 62.49906 
L 327.211216 65.663409 
L 334.144124 70.530028 
L 341.107578 73.688891 
L 348.002045 76.718295 
L 354.276426 83.616458 
L 360.297403 90.785199 
L 365.406925 101.889145 
L 370.090239 113.347658 
L 374.701295 123.407797 
L 380.100531 128.675827 
L 385.758792 132.339604 
L 391.16384 136.653568 
L 396.637038 140.379338 
L 402.495339 142.598026 
L 408.924463 143.013712 
" style="fill:none;stroke:#0000ff;stroke-linecap:round;"/>
   </g>
   <g id="line2d_13">
    <path clip-path="url(#p7368ff62b3)" d="M 60.059654 211.0621 
L 65.001361 207.107882 
L 70.182203 203.457145 
L 74.168617 198.301607 
L 78.822156 193.93809 
L 83.439103 189.483572 
L 87.193097 183.74247 
L 90.398157 177.028392 
L 92.215384 167.935371 
L 94.922106 159.828718 
L 97.204755 150.647581 
L 98.167825 138.71355 
L 102.370346 131.914213 
L 106.995787 125.619611 
L 110.521211 116.90575 
L 115.333873 110.340351 
L 120.387482 103.978539 
L 125.661772 97.80087 
L 131.789498 93.321255 
L 138.193605 89.364586 
L 144.897186 86.064421 
L 151.179013 81.536238 
L 157.464344 76.792381 
L 164.295532 73.452993 
L 171.346744 70.706126 
L 178.397676 67.886699 
L 185.90134 66.653494 
L 193.511423 65.95545 
L 201.329631 66.339474 
L 209.564464 69.041634 
L 217.824351 72.669392 
L 226.350664 78.840749 
L 234.640735 85.206965 
L 243.267503 95.871152 
L 251.116238 103.567267 
L 258.770871 112.286813 
L 266.478833 125.409293 
L 273.632563 137.483287 
L 280.228433 147.278493 
L 286.417863 155.563302 
L 292.284672 162.356685 
L 297.910822 167.107957 
L 303.390439 170.751491 
L 308.7986 172.893405 
L 314.166941 174.493343 
L 319.524788 175.584458 
L 324.742889 177.986643 
L 329.801159 181.26228 
L 334.818295 184.091322 
L 339.871969 186.109495 
L 344.964713 187.591991 
L 350.077188 188.828405 
L 355.010593 190.925712 
L 359.959596 192.762038 
L 366.413735 187.959854 
L 371.891548 187.958084 
L 376.756208 190.42358 
L 380.965519 195.03242 
L 387.403462 191.961332 
L 392.190019 194.517036 
" style="fill:none;stroke:#ff69b5;stroke-dasharray:3.7,1.6;stroke-dashoffset:0;"/>
   </g>
   <g id="line2d_14">
    <path clip-path="url(#p7368ff62b3)" d="M 74.201423 296.964096 
L 75.946742 291.728139 
L 78.773242 287.366206 
L 82.414474 283.724974 
L 86.478107 280.50037 
L 90.709908 277.477655 
L 93.538475 273.044809 
L 94.572544 266.624963 
L 95.635051 260.028567 
L 77.388594 230.996766 
L 80.869004 226.018203 
L 83.299905 219.656158 
L 85.910419 213.330428 
L 89.838171 208.556836 
L 94.141165 204.213697 
L 97.493083 198.452375 
L 101.765445 193.881089 
L 105.922627 189.042675 
L 110.437748 184.658937 
L 114.649941 179.681246 
L 117.969104 173.010372 
L 121.209087 165.900201 
L 124.6197 158.76537 
L 128.106168 151.418173 
L 132.087068 144.68949 
L 136.195064 137.878008 
L 138.495738 126.62643 
L 140.975846 114.962935 
L 143.852749 103.371458 
L 146.355271 89.862862 
L 151.45419 82.292281 
L 157.668111 77.384163 
L 164.144274 72.987466 
L 170.691932 68.56433 
L 177.465028 64.634167 
L 184.36595 60.923339 
L 191.45715 57.716211 
L 198.536571 54.241401 
L 205.77909 51.232848 
L 213.266407 49.220805 
L 220.806489 47.39817 
L 228.425647 45.966444 
L 236.379342 46.859343 
L 244.467788 49.419991 
L 253.003068 57.409834 
L 261.07094 63.596794 
L 268.781828 68.114549 
L 276.671823 79.414327 
L 283.983158 85.842456 
L 291.185009 99.356995 
L 297.910822 105.254384 
L 304.431728 111.096098 
L 310.629573 120.461192 
L 316.504781 129.884682 
L 322.275676 136.244917 
L 328.047269 140.217405 
L 333.799177 143.223679 
L 339.533327 145.690466 
L 345.302931 147.466191 
L 350.749987 151.065208 
L 356.364608 153.170676 
L 361.922151 155.368826 
L 367.159249 158.890334 
L 372.607238 161.132844 
L 378.045353 163.276517 
L 383.498923 165.259426 
L 388.915374 167.307981 
L 394.284397 169.45481 
L 400.396727 169.259384 
" style="fill:none;stroke:#b20000;stroke-dasharray:3.7,1.6;stroke-dashoffset:0;"/>
   </g>
   <g id="line2d_15">
    <path clip-path="url(#p7368ff62b3)" d="M 60.092661 270.546136 
L 63.482156 266.070302 
L 66.50402 261.211619 
L 69.548625 256.316372 
L 72.618104 251.381131 
L 75.714659 246.402357 
L 70.785024 232.429816 
L 74.402404 227.561547 
L 78.046643 222.654645 
L 81.903757 217.932059 
L 86.184944 213.681803 
L 93.077436 212.855486 
L 97.726174 209.148039 
L 99.450817 201.248309 
L 104.235398 197.542946 
L 108.923263 193.663249 
L 115.766945 193.187434 
L 119.908574 188.433081 
L 124.019801 183.490486 
L 128.647599 179.319633 
L 132.807614 174.164597 
L 136.754341 168.391167 
L 140.588139 162.119269 
L 144.988898 156.736445 
L 149.130577 150.512669 
L 153.560827 144.611292 
L 158.315556 139.168162 
L 163.564925 134.695543 
L 169.370043 131.515683 
L 175.113894 128.050396 
L 180.743826 124.075634 
L 186.335926 119.733531 
L 192.194101 116.000551 
L 198.145505 112.349337 
L 204.224647 108.923848 
L 210.495119 106.03956 
L 216.772821 102.954289 
L 222.975682 99.170696 
L 229.042393 94.106302 
L 235.603 91.282465 
L 242.236509 88.53525 
L 248.934431 85.797875 
L 255.645543 82.551301 
L 262.723468 82.485275 
L 269.852474 83.425506 
L 276.952426 84.768554 
L 284.012136 86.672286 
L 291.006518 89.131267 
L 297.910822 93.03337 
L 304.675683 97.119908 
L 311.286451 101.650661 
L 317.729164 106.522071 
L 323.742741 115.264909 
L 329.608098 122.37704 
L 335.433687 127.672353 
L 341.042626 133.39821 
L 346.508985 138.884668 
L 351.717597 144.955961 
L 357.09043 149.05433 
L 362.497785 152.40745 
L 367.49431 157.313996 
L 372.790549 160.338836 
L 378.246408 162.470133 
L 383.702324 164.500324 
L 389.233953 166.196961 
L 394.756641 167.910168 
L 398.948232 173.717395 
" style="fill:none;stroke:#00d9ff;stroke-dasharray:3.7,1.6;stroke-dashoffset:0;"/>
   </g>
   <g id="line2d_16">
    <path clip-path="url(#p7368ff62b3)" d="M 92.035117 263.903905 
L 96.402182 260.880552 
L 100.27697 257.326829 
L 103.696684 253.223173 
L 103.822445 244.999385 
L 108.378007 242.087629 
L 113.186265 239.540802 
L 117.694501 236.632084 
L 122.128398 233.635252 
L 126.753613 230.927572 
L 131.02533 227.697447 
L 132.853585 220.531775 
L 136.772688 216.49968 
L 139.800501 210.82346 
L 142.182045 203.73642 
L 146.345875 199.626363 
L 148.905616 192.239388 
L 150.521504 182.485684 
L 154.557907 177.257252 
L 158.909147 172.475695 
L 162.811751 166.405104 
L 167.027797 160.731716 
L 171.405172 155.120085 
L 175.952239 149.600118 
L 180.689129 144.242053 
L 185.561962 138.904333 
L 190.626149 133.766215 
L 195.61142 127.918159 
L 200.545416 121.30593 
L 205.565513 114.301766 
L 210.976952 108.12661 
L 216.801912 103.091152 
L 222.873547 98.645257 
L 229.170716 94.834055 
L 235.402429 90.016109 
L 241.84984 85.783955 
L 248.430974 81.697548 
L 255.182318 78.144009 
L 262.159334 76.037194 
L 269.259559 74.946427 
L 276.440855 75.007208 
L 283.623227 75.535387 
L 290.803894 77.52298 
L 297.910822 79.995981 
L 304.9294 82.58447 
L 311.854205 85.392312 
L 318.640916 89.124801 
L 325.161443 94.976536 
L 331.546696 100.218768 
L 337.786237 105.289339 
L 343.863034 110.42783 
L 349.83979 115.184763 
L 355.729717 119.624433 
L 361.514326 123.96517 
L 367.344266 127.474464 
L 373.376893 129.638617 
L 379.446452 131.508952 
L 385.501056 133.373327 
L 391.581161 135.096103 
L 397.644595 136.865566 
L 402.869271 141.37495 
L 406.668001 149.958389 
" style="fill:none;stroke:#0000ff;stroke-dasharray:3.7,1.6;stroke-dashoffset:0;"/>
   </g>
   <g id="line2d_17">
    <path clip-path="url(#p7368ff62b3)" d="M 73.377842 289.495027 
L 77.441023 286.16667 
L 81.257362 282.64595 
L 84.541075 278.629799 
L 87.878958 274.646706 
L 91.434556 270.866137 
L 94.382745 266.421428 
L 97.052671 261.602994 
L 99.74452 256.714317 
L 102.369573 251.641584 
L 105.005011 246.459733 
L 107.67466 241.187385 
L 110.38112 235.818249 
L 112.088663 228.916309 
L 111.454352 218.391134 
L 116.024805 215.021459 
L 120.311415 211.199466 
L 121.273387 201.999583 
L 128.094042 202.055987 
L 129.988399 193.828402 
L 132.871775 186.940248 
L 135.630529 179.473728 
L 139.831478 174.430389 
L 141.519588 164.029022 
L 144.528215 155.748508 
L 147.973548 147.913938 
L 151.637813 140.080954 
L 155.226536 131.52257 
L 158.607804 121.781802 
L 162.409993 112.393102 
L 167.116507 104.824298 
L 172.137293 97.587449 
L 177.289748 90.144813 
L 182.595942 82.527791 
L 187.855127 73.945124 
L 193.54899 66.106126 
L 199.721917 59.375696 
L 206.437879 54.33221 
L 213.416881 49.994925 
L 220.834429 47.556623 
L 228.40333 45.825538 
L 236.146161 45.200175 
L 243.894949 44.754591 
L 251.640476 44.445638 
L 259.539852 46.096377 
L 267.445279 49.001015 
L 275.401847 55.181751 
L 283.259858 65.129867 
L 290.761745 75.108224 
L 297.910822 82.720845 
L 304.805624 89.675588 
L 311.45808 96.735861 
L 317.785291 105.451105 
L 323.838979 113.888644 
L 329.665587 121.719946 
L 334.926709 132.495925 
L 340.821729 135.197278 
L 346.086631 141.889873 
L 351.808578 144.381528 
L 357.479501 146.847801 
L 363.003781 149.804324 
L 368.51342 152.519461 
L 373.784032 156.035588 
L 378.735997 160.506495 
L 383.61727 164.817751 
L 388.884666 167.41507 
L 394.251168 169.563494 
L 399.735671 171.293907 
" style="fill:none;stroke:#b20000;stroke-linecap:round;"/>
   </g>
   <g id="patch_11">
    <path d="M 34.755403 321.621875 
L 34.755403 10.8 
" style="fill:none;stroke:#262626;stroke-linecap:square;stroke-linejoin:miter;stroke-width:1.25;"/>
   </g>
   <g id="patch_12">
    <path d="M 428.93909 321.621875 
L 428.93909 10.8 
" style="fill:none;stroke:#262626;stroke-linecap:square;stroke-linejoin:miter;stroke-width:1.25;"/>
   </g>
   <g id="patch_13">
    <path d="M 34.755403 321.621875 
L 428.93909 321.621875 
" style="fill:none;stroke:#262626;stroke-linecap:square;stroke-linejoin:miter;stroke-width:1.25;"/>
   </g>
   <g id="patch_14">
    <path d="M 34.755403 10.8 
L 428.93909 10.8 
" style="fill:none;stroke:#262626;stroke-linecap:square;stroke-linejoin:miter;stroke-width:1.25;"/>
   </g>
   <g id="legend_1">
    <g id="line2d_18">
     <path d="M 323.968778 263.007812 
L 343.968778 263.007812 
" style="fill:none;stroke:#b20000;stroke-dasharray:3.7,1.6;stroke-dashoffset:0;"/>
    </g>
    <g id="line2d_19"/>
    <g id="text_10">
     <!-- u -->
     <defs>
      <path d="M 8.5 21.578125 
L 8.5 54.6875 
L 17.484375 54.6875 
L 17.484375 21.921875 
Q 17.484375 14.15625 20.5 10.265625 
Q 23.53125 6.390625 29.59375 6.390625 
Q 36.859375 6.390625 41.078125 11.03125 
Q 45.3125 15.671875 45.3125 23.6875 
L 45.3125 54.6875 
L 54.296875 54.6875 
L 54.296875 0 
L 45.3125 0 
L 45.3125 8.40625 
Q 42.046875 3.421875 37.71875 1 
Q 33.40625 -1.421875 27.6875 -1.421875 
Q 18.265625 -1.421875 13.375 4.4375 
Q 8.5 10.296875 8.5 21.578125 
z
M 31.109375 56 
z
" id="DejaVuSans-117"/>
     </defs>
     <g style="fill:#262626;" transform="translate(351.968778 266.507812)scale(0.1 -0.1)">
      <use xlink:href="#DejaVuSans-117"/>
     </g>
    </g>
    <g id="line2d_20">
     <path d="M 323.968778 277.685937 
L 343.968778 277.685937 
" style="fill:none;stroke:#b20000;stroke-linecap:round;"/>
    </g>
    <g id="line2d_21"/>
    <g id="text_11">
     <!-- ɯ -->
     <defs>
      <path d="M 46 10.546875 
Q 42.71875 4.640625 37.9375 1.65625 
Q 33.25 -1.265625 26.90625 -1.265625 
Q 18.359375 -1.265625 13.71875 4.734375 
Q 9.078125 10.75 9.078125 21.78125 
L 9.078125 54.78125 
L 18.109375 54.78125 
L 18.109375 22.078125 
Q 18.109375 14.15625 20.890625 10.34375 
Q 23.6875 6.546875 29.390625 6.546875 
Q 36.375 6.546875 40.4375 11.234375 
Q 44.484375 15.828125 44.484375 23.828125 
L 44.484375 54.78125 
L 53.515625 54.78125 
L 53.515625 22.078125 
Q 53.515625 14.15625 56.296875 10.34375 
Q 59.078125 6.546875 64.890625 6.546875 
Q 71.78125 6.546875 75.828125 11.234375 
Q 79.890625 15.921875 79.890625 23.828125 
L 79.890625 54.78125 
L 88.921875 54.78125 
L 88.921875 0 
L 79.890625 0 
L 79.890625 8.59375 
Q 76.90625 3.65625 72.515625 1.171875 
Q 68.21875 -1.265625 62.3125 -1.265625 
Q 56.34375 -1.265625 52.15625 1.765625 
Q 48 4.78125 46 10.546875 
z
" id="DejaVuSans-623"/>
     </defs>
     <g style="fill:#262626;" transform="translate(351.968778 281.185937)scale(0.1 -0.1)">
      <use xlink:href="#DejaVuSans-623"/>
     </g>
    </g>
    <g id="line2d_22">
     <path d="M 323.968778 292.364062 
L 343.968778 292.364062 
" style="fill:none;stroke:#ff69b5;stroke-dasharray:3.7,1.6;stroke-dashoffset:0;"/>
    </g>
    <g id="line2d_23"/>
    <g id="text_12">
     <!-- o -->
     <defs>
      <path d="M 30.609375 48.390625 
Q 23.390625 48.390625 19.1875 42.75 
Q 14.984375 37.109375 14.984375 27.296875 
Q 14.984375 17.484375 19.15625 11.84375 
Q 23.34375 6.203125 30.609375 6.203125 
Q 37.796875 6.203125 41.984375 11.859375 
Q 46.1875 17.53125 46.1875 27.296875 
Q 46.1875 37.015625 41.984375 42.703125 
Q 37.796875 48.390625 30.609375 48.390625 
z
M 30.609375 56 
Q 42.328125 56 49.015625 48.375 
Q 55.71875 40.765625 55.71875 27.296875 
Q 55.71875 13.875 49.015625 6.21875 
Q 42.328125 -1.421875 30.609375 -1.421875 
Q 18.84375 -1.421875 12.171875 6.21875 
Q 5.515625 13.875 5.515625 27.296875 
Q 5.515625 40.765625 12.171875 48.375 
Q 18.84375 56 30.609375 56 
z
" id="DejaVuSans-111"/>
     </defs>
     <g style="fill:#262626;" transform="translate(351.968778 295.864062)scale(0.1 -0.1)">
      <use xlink:href="#DejaVuSans-111"/>
     </g>
    </g>
    <g id="line2d_24">
     <path d="M 323.968778 307.042187 
L 343.968778 307.042187 
" style="fill:none;stroke:#ff69b5;stroke-linecap:round;"/>
    </g>
    <g id="line2d_25"/>
    <g id="text_13">
     <!-- a -->
     <defs>
      <path d="M 34.28125 27.484375 
Q 23.390625 27.484375 19.1875 25 
Q 14.984375 22.515625 14.984375 16.5 
Q 14.984375 11.71875 18.140625 8.90625 
Q 21.296875 6.109375 26.703125 6.109375 
Q 34.1875 6.109375 38.703125 11.40625 
Q 43.21875 16.703125 43.21875 25.484375 
L 43.21875 27.484375 
z
M 52.203125 31.203125 
L 52.203125 0 
L 43.21875 0 
L 43.21875 8.296875 
Q 40.140625 3.328125 35.546875 0.953125 
Q 30.953125 -1.421875 24.3125 -1.421875 
Q 15.921875 -1.421875 10.953125 3.296875 
Q 6 8.015625 6 15.921875 
Q 6 25.140625 12.171875 29.828125 
Q 18.359375 34.515625 30.609375 34.515625 
L 43.21875 34.515625 
L 43.21875 35.40625 
Q 43.21875 41.609375 39.140625 45 
Q 35.0625 48.390625 27.6875 48.390625 
Q 23 48.390625 18.546875 47.265625 
Q 14.109375 46.140625 10.015625 43.890625 
L 10.015625 52.203125 
Q 14.9375 54.109375 19.578125 55.046875 
Q 24.21875 56 28.609375 56 
Q 40.484375 56 46.34375 49.84375 
Q 52.203125 43.703125 52.203125 31.203125 
z
" id="DejaVuSans-97"/>
     </defs>
     <g style="fill:#262626;" transform="translate(351.968778 310.542187)scale(0.1 -0.1)">
      <use xlink:href="#DejaVuSans-97"/>
     </g>
    </g>
    <g id="line2d_26">
     <path d="M 381.709403 263.007812 
L 401.709403 263.007812 
" style="fill:none;stroke:#0000ff;stroke-linecap:round;"/>
    </g>
    <g id="line2d_27"/>
    <g id="text_14">
     <!-- i -->
     <defs>
      <path d="M 9.421875 54.6875 
L 18.40625 54.6875 
L 18.40625 0 
L 9.421875 0 
z
M 9.421875 75.984375 
L 18.40625 75.984375 
L 18.40625 64.59375 
L 9.421875 64.59375 
z
" id="DejaVuSans-105"/>
     </defs>
     <g style="fill:#262626;" transform="translate(409.709403 266.507812)scale(0.1 -0.1)">
      <use xlink:href="#DejaVuSans-105"/>
     </g>
    </g>
    <g id="line2d_28">
     <path d="M 381.709403 277.685937 
L 401.709403 277.685937 
" style="fill:none;stroke:#0000ff;stroke-dasharray:3.7,1.6;stroke-dashoffset:0;"/>
    </g>
    <g id="line2d_29"/>
    <g id="text_15">
     <!-- y -->
     <defs>
      <path d="M 32.171875 -5.078125 
Q 28.375 -14.84375 24.75 -17.8125 
Q 21.140625 -20.796875 15.09375 -20.796875 
L 7.90625 -20.796875 
L 7.90625 -13.28125 
L 13.1875 -13.28125 
Q 16.890625 -13.28125 18.9375 -11.515625 
Q 21 -9.765625 23.484375 -3.21875 
L 25.09375 0.875 
L 2.984375 54.6875 
L 12.5 54.6875 
L 29.59375 11.921875 
L 46.6875 54.6875 
L 56.203125 54.6875 
z
" id="DejaVuSans-121"/>
     </defs>
     <g style="fill:#262626;" transform="translate(409.709403 281.185937)scale(0.1 -0.1)">
      <use xlink:href="#DejaVuSans-121"/>
     </g>
    </g>
    <g id="line2d_30">
     <path d="M 381.709403 292.364062 
L 401.709403 292.364062 
" style="fill:none;stroke:#00d9ff;stroke-linecap:round;"/>
    </g>
    <g id="line2d_31"/>
    <g id="text_16">
     <!-- e -->
     <defs>
      <path d="M 56.203125 29.59375 
L 56.203125 25.203125 
L 14.890625 25.203125 
Q 15.484375 15.921875 20.484375 11.0625 
Q 25.484375 6.203125 34.421875 6.203125 
Q 39.59375 6.203125 44.453125 7.46875 
Q 49.3125 8.734375 54.109375 11.28125 
L 54.109375 2.78125 
Q 49.265625 0.734375 44.1875 -0.34375 
Q 39.109375 -1.421875 33.890625 -1.421875 
Q 20.796875 -1.421875 13.15625 6.1875 
Q 5.515625 13.8125 5.515625 26.8125 
Q 5.515625 40.234375 12.765625 48.109375 
Q 20.015625 56 32.328125 56 
Q 43.359375 56 49.78125 48.890625 
Q 56.203125 41.796875 56.203125 29.59375 
z
M 47.21875 32.234375 
Q 47.125 39.59375 43.09375 43.984375 
Q 39.0625 48.390625 32.421875 48.390625 
Q 24.90625 48.390625 20.390625 44.140625 
Q 15.875 39.890625 15.1875 32.171875 
z
" id="DejaVuSans-101"/>
     </defs>
     <g style="fill:#262626;" transform="translate(409.709403 295.864062)scale(0.1 -0.1)">
      <use xlink:href="#DejaVuSans-101"/>
     </g>
    </g>
    <g id="line2d_32">
     <path d="M 381.709403 307.042187 
L 401.709403 307.042187 
" style="fill:none;stroke:#00d9ff;stroke-dasharray:3.7,1.6;stroke-dashoffset:0;"/>
    </g>
    <g id="line2d_33"/>
    <g id="text_17">
     <!-- œ -->
     <defs>
      <path d="M 87.984375 32.234375 
Q 87.890625 39.65625 83.890625 44.015625 
Q 79.890625 48.390625 73.1875 48.390625 
Q 65.71875 48.390625 61.203125 44.140625 
Q 56.6875 39.890625 56 32.171875 
z
M 97.015625 29.59375 
L 97.015625 25.203125 
L 55.71875 25.203125 
Q 56.296875 15.921875 61.28125 11.0625 
Q 66.265625 6.203125 75.203125 6.203125 
Q 80.375 6.203125 85.25 7.46875 
Q 90.140625 8.734375 94.921875 11.28125 
L 94.921875 2.78125 
Q 90.046875 0.734375 84.96875 -0.34375 
Q 79.890625 -1.421875 74.703125 -1.421875 
Q 66.890625 -1.421875 60.984375 1.265625 
Q 55.078125 3.953125 51.125 9.28125 
Q 47.65625 3.90625 42.546875 1.234375 
Q 37.453125 -1.421875 30.609375 -1.421875 
Q 18.84375 -1.421875 12.171875 6.21875 
Q 5.515625 13.875 5.515625 27.296875 
Q 5.515625 40.765625 12.171875 48.375 
Q 18.84375 56 30.609375 56 
Q 37.453125 56 42.59375 53.296875 
Q 47.75 50.59375 50.984375 45.3125 
Q 54.78125 50.53125 60.4375 53.265625 
Q 66.109375 56 73.09375 56 
Q 84.125 56 90.5625 48.890625 
Q 97.015625 41.796875 97.015625 29.59375 
z
M 30.609375 48.390625 
Q 23.390625 48.390625 19.1875 42.75 
Q 14.984375 37.109375 14.984375 27.296875 
Q 14.984375 17.484375 19.15625 11.84375 
Q 23.34375 6.203125 30.609375 6.203125 
Q 37.796875 6.203125 41.984375 11.859375 
Q 46.1875 17.53125 46.1875 27.296875 
Q 46.1875 37.015625 41.984375 42.703125 
Q 37.796875 48.390625 30.609375 48.390625 
z
" id="DejaVuSans-339"/>
     </defs>
     <g style="fill:#262626;" transform="translate(409.709403 310.542187)scale(0.1 -0.1)">
      <use xlink:href="#DejaVuSans-339"/>
     </g>
    </g>
   </g>
  </g>
 </g>
 <defs>
  <clipPath id="p7368ff62b3">
   <rect height="310.821875" width="394.183687" x="34.755403" y="10.8"/>
  </clipPath>
 </defs>
</svg>
