<?xml version="1.0" encoding="utf-8" standalone="no"?>
<!DOCTYPE svg PUBLIC "-//W3C//DTD SVG 1.1//EN"
  "http://www.w3.org/Graphics/SVG/1.1/DTD/svg11.dtd">
<!-- Created with matplotlib (https://matplotlib.org/) -->
<svg height="345.6pt" version="1.1" viewBox="0 0 460.8 345.6" width="460.8pt" xmlns="http://www.w3.org/2000/svg" xmlns:xlink="http://www.w3.org/1999/xlink">
 <defs>
  <style type="text/css">
*{stroke-linecap:butt;stroke-linejoin:round;}
  </style>
 </defs>
 <g id="figure_1">
  <g id="patch_1">
   <path d="M 0 345.6 
L 460.8 345.6 
L 460.8 0 
L 0 0 
z
" style="fill:#ffffff;"/>
  </g>
  <g id="axes_1">
   <g id="patch_2">
    <path d="M 36.25065 321.621875 
L 441.805598 321.621875 
L 441.805598 10.8 
L 36.25065 10.8 
z
" style="fill:#ffffff;"/>
   </g>
   <g id="matplotlib.axis_1">
    <g id="xtick_1">
     <g id="line2d_1"/>
     <g id="text_1">
      <!-- 100 -->
      <defs>
       <path d="M 12.40625 8.296875 
L 28.515625 8.296875 
L 28.515625 63.921875 
L 10.984375 60.40625 
L 10.984375 69.390625 
L 28.421875 72.90625 
L 38.28125 72.90625 
L 38.28125 8.296875 
L 54.390625 8.296875 
L 54.390625 0 
L 12.40625 0 
z
" id="DejaVuSans-49"/>
       <path d="M 31.78125 66.40625 
Q 24.171875 66.40625 20.328125 58.90625 
Q 16.5 51.421875 16.5 36.375 
Q 16.5 21.390625 20.328125 13.890625 
Q 24.171875 6.390625 31.78125 6.390625 
Q 39.453125 6.390625 43.28125 13.890625 
Q 47.125 21.390625 47.125 36.375 
Q 47.125 51.421875 43.28125 58.90625 
Q 39.453125 66.40625 31.78125 66.40625 
z
M 31.78125 74.21875 
Q 44.046875 74.21875 50.515625 64.515625 
Q 56.984375 54.828125 56.984375 36.375 
Q 56.984375 17.96875 50.515625 8.265625 
Q 44.046875 -1.421875 31.78125 -1.421875 
Q 19.53125 -1.421875 13.0625 8.265625 
Q 6.59375 17.96875 6.59375 36.375 
Q 6.59375 54.828125 13.0625 64.515625 
Q 19.53125 74.21875 31.78125 74.21875 
z
" id="DejaVuSans-48"/>
      </defs>
      <g style="fill:#262626;" transform="translate(83.090623 332.720312)scale(0.1 -0.1)">
       <use xlink:href="#DejaVuSans-49"/>
       <use x="63.623047" xlink:href="#DejaVuSans-48"/>
       <use x="127.246094" xlink:href="#DejaVuSans-48"/>
      </g>
     </g>
    </g>
    <g id="xtick_2">
     <g id="line2d_2"/>
     <g id="text_2">
      <!-- 150 -->
      <defs>
       <path d="M 10.796875 72.90625 
L 49.515625 72.90625 
L 49.515625 64.59375 
L 19.828125 64.59375 
L 19.828125 46.734375 
Q 21.96875 47.46875 24.109375 47.828125 
Q 26.265625 48.1875 28.421875 48.1875 
Q 40.625 48.1875 47.75 41.5 
Q 54.890625 34.8125 54.890625 23.390625 
Q 54.890625 11.625 47.5625 5.09375 
Q 40.234375 -1.421875 26.90625 -1.421875 
Q 22.3125 -1.421875 17.546875 -0.640625 
Q 12.796875 0.140625 7.71875 1.703125 
L 7.71875 11.625 
Q 12.109375 9.234375 16.796875 8.0625 
Q 21.484375 6.890625 26.703125 6.890625 
Q 35.15625 6.890625 40.078125 11.328125 
Q 45.015625 15.765625 45.015625 23.390625 
Q 45.015625 31 40.078125 35.4375 
Q 35.15625 39.890625 26.703125 39.890625 
Q 22.75 39.890625 18.8125 39.015625 
Q 14.890625 38.140625 10.796875 36.28125 
z
" id="DejaVuSans-53"/>
      </defs>
      <g style="fill:#262626;" transform="translate(144.261986 332.720312)scale(0.1 -0.1)">
       <use xlink:href="#DejaVuSans-49"/>
       <use x="63.623047" xlink:href="#DejaVuSans-53"/>
       <use x="127.246094" xlink:href="#DejaVuSans-48"/>
      </g>
     </g>
    </g>
    <g id="xtick_3">
     <g id="line2d_3"/>
     <g id="text_3">
      <!-- 200 -->
      <defs>
       <path d="M 19.1875 8.296875 
L 53.609375 8.296875 
L 53.609375 0 
L 7.328125 0 
L 7.328125 8.296875 
Q 12.9375 14.109375 22.625 23.890625 
Q 32.328125 33.6875 34.8125 36.53125 
Q 39.546875 41.84375 41.421875 45.53125 
Q 43.3125 49.21875 43.3125 52.78125 
Q 43.3125 58.59375 39.234375 62.25 
Q 35.15625 65.921875 28.609375 65.921875 
Q 23.96875 65.921875 18.8125 64.3125 
Q 13.671875 62.703125 7.8125 59.421875 
L 7.8125 69.390625 
Q 13.765625 71.78125 18.9375 73 
Q 24.125 74.21875 28.421875 74.21875 
Q 39.75 74.21875 46.484375 68.546875 
Q 53.21875 62.890625 53.21875 53.421875 
Q 53.21875 48.921875 51.53125 44.890625 
Q 49.859375 40.875 45.40625 35.40625 
Q 44.1875 33.984375 37.640625 27.21875 
Q 31.109375 20.453125 19.1875 8.296875 
z
" id="DejaVuSans-50"/>
      </defs>
      <g style="fill:#262626;" transform="translate(205.433349 332.720312)scale(0.1 -0.1)">
       <use xlink:href="#DejaVuSans-50"/>
       <use x="63.623047" xlink:href="#DejaVuSans-48"/>
       <use x="127.246094" xlink:href="#DejaVuSans-48"/>
      </g>
     </g>
    </g>
    <g id="xtick_4">
     <g id="line2d_4"/>
     <g id="text_4">
      <!-- 250 -->
      <g style="fill:#262626;" transform="translate(266.604712 332.720312)scale(0.1 -0.1)">
       <use xlink:href="#DejaVuSans-50"/>
       <use x="63.623047" xlink:href="#DejaVuSans-53"/>
       <use x="127.246094" xlink:href="#DejaVuSans-48"/>
      </g>
     </g>
    </g>
    <g id="xtick_5">
     <g id="line2d_5"/>
     <g id="text_5">
      <!-- 300 -->
      <defs>
       <path d="M 40.578125 39.3125 
Q 47.65625 37.796875 51.625 33 
Q 55.609375 28.21875 55.609375 21.1875 
Q 55.609375 10.40625 48.1875 4.484375 
Q 40.765625 -1.421875 27.09375 -1.421875 
Q 22.515625 -1.421875 17.65625 -0.515625 
Q 12.796875 0.390625 7.625 2.203125 
L 7.625 11.71875 
Q 11.71875 9.328125 16.59375 8.109375 
Q 21.484375 6.890625 26.8125 6.890625 
Q 36.078125 6.890625 40.9375 10.546875 
Q 45.796875 14.203125 45.796875 21.1875 
Q 45.796875 27.640625 41.28125 31.265625 
Q 36.765625 34.90625 28.71875 34.90625 
L 20.21875 34.90625 
L 20.21875 43.015625 
L 29.109375 43.015625 
Q 36.375 43.015625 40.234375 45.921875 
Q 44.09375 48.828125 44.09375 54.296875 
Q 44.09375 59.90625 40.109375 62.90625 
Q 36.140625 65.921875 28.71875 65.921875 
Q 24.65625 65.921875 20.015625 65.03125 
Q 15.375 64.15625 9.8125 62.3125 
L 9.8125 71.09375 
Q 15.4375 72.65625 20.34375 73.4375 
Q 25.25 74.21875 29.59375 74.21875 
Q 40.828125 74.21875 47.359375 69.109375 
Q 53.90625 64.015625 53.90625 55.328125 
Q 53.90625 49.265625 50.4375 45.09375 
Q 46.96875 40.921875 40.578125 39.3125 
z
" id="DejaVuSans-51"/>
      </defs>
      <g style="fill:#262626;" transform="translate(327.776075 332.720312)scale(0.1 -0.1)">
       <use xlink:href="#DejaVuSans-51"/>
       <use x="63.623047" xlink:href="#DejaVuSans-48"/>
       <use x="127.246094" xlink:href="#DejaVuSans-48"/>
      </g>
     </g>
    </g>
    <g id="xtick_6">
     <g id="line2d_6"/>
     <g id="text_6">
      <!-- 350 -->
      <g style="fill:#262626;" transform="translate(388.947437 332.720312)scale(0.1 -0.1)">
       <use xlink:href="#DejaVuSans-51"/>
       <use x="63.623047" xlink:href="#DejaVuSans-53"/>
       <use x="127.246094" xlink:href="#DejaVuSans-48"/>
      </g>
     </g>
    </g>
   </g>
   <g id="matplotlib.axis_2">
    <g id="ytick_1">
     <g id="line2d_7"/>
     <g id="text_7">
      <!-- 250 -->
      <g style="fill:#262626;" transform="translate(13.66315 25.414421)scale(0.1 -0.1)">
       <use xlink:href="#DejaVuSans-50"/>
       <use x="63.623047" xlink:href="#DejaVuSans-53"/>
       <use x="127.246094" xlink:href="#DejaVuSans-48"/>
      </g>
     </g>
    </g>
    <g id="ytick_2">
     <g id="line2d_8"/>
     <g id="text_8">
      <!-- 300 -->
      <g style="fill:#262626;" transform="translate(13.66315 86.585784)scale(0.1 -0.1)">
       <use xlink:href="#DejaVuSans-51"/>
       <use x="63.623047" xlink:href="#DejaVuSans-48"/>
       <use x="127.246094" xlink:href="#DejaVuSans-48"/>
      </g>
     </g>
    </g>
    <g id="ytick_3">
     <g id="line2d_9"/>
     <g id="text_9">
      <!-- 350 -->
      <g style="fill:#262626;" transform="translate(13.66315 147.757147)scale(0.1 -0.1)">
       <use xlink:href="#DejaVuSans-51"/>
       <use x="63.623047" xlink:href="#DejaVuSans-53"/>
       <use x="127.246094" xlink:href="#DejaVuSans-48"/>
      </g>
     </g>
    </g>
    <g id="ytick_4">
     <g id="line2d_10"/>
     <g id="text_10">
      <!-- 400 -->
      <defs>
       <path d="M 37.796875 64.3125 
L 12.890625 25.390625 
L 37.796875 25.390625 
z
M 35.203125 72.90625 
L 47.609375 72.90625 
L 47.609375 25.390625 
L 58.015625 25.390625 
L 58.015625 17.1875 
L 47.609375 17.1875 
L 47.609375 0 
L 37.796875 0 
L 37.796875 17.1875 
L 4.890625 17.1875 
L 4.890625 26.703125 
z
" id="DejaVuSans-52"/>
      </defs>
      <g style="fill:#262626;" transform="translate(13.66315 208.928509)scale(0.1 -0.1)">
       <use xlink:href="#DejaVuSans-52"/>
       <use x="63.623047" xlink:href="#DejaVuSans-48"/>
       <use x="127.246094" xlink:href="#DejaVuSans-48"/>
      </g>
     </g>
    </g>
    <g id="ytick_5">
     <g id="line2d_11"/>
     <g id="text_11">
      <!-- 450 -->
      <g style="fill:#262626;" transform="translate(13.66315 270.099872)scale(0.1 -0.1)">
       <use xlink:href="#DejaVuSans-52"/>
       <use x="63.623047" xlink:href="#DejaVuSans-53"/>
       <use x="127.246094" xlink:href="#DejaVuSans-48"/>
      </g>
     </g>
    </g>
   </g>
   <g id="patch_3">
    <path clip-path="url(#pac79c19451)" d="M 62.064706 232.031458 
L 72.285931 235.424457 
L 76.25937 231.874825 
L 80.378595 228.496065 
L 81.812543 221.67841 
L 84.54079 216.317956 
L 87.427478 211.018856 
L 88.721139 203.287044 
L 91.657144 197.641086 
L 94.552461 191.737715 
L 97.962918 186.436497 
L 101.331506 180.883399 
L 103.888826 173.713969 
L 106.742711 166.724595 
L 110.618911 161.306285 
L 114.634866 155.93435 
L 118.65344 150.33184 
L 125.003602 149.459042 
L 129.288245 144.109436 
L 133.858499 139.151793 
L 138.505844 134.126128 
L 143.657302 130.129436 
L 149.178693 126.956741 
L 155.026814 124.615761 
L 160.95459 122.484978 
L 167.227109 121.458555 
L 173.949233 122.108023 
L 180.308455 121.737201 
L 186.703722 121.696736 
L 193.056353 121.705571 
L 199.38452 121.840661 
L 205.715134 122.253198 
L 212.103531 123.317648 
L 218.440212 124.536992 
L 224.675862 125.588131 
L 230.851109 126.69401 
L 236.927965 127.481595 
L 243.141963 130.4048 
L 249.072932 131.008661 
L 254.983646 131.903696 
L 260.860465 133.031459 
L 266.733626 136.613996 
L 272.47818 140.292353 
L 278.103867 143.423898 
L 283.685914 144.771795 
L 289.167811 147.262164 
L 294.549638 150.082742 
L 299.8088 153.328882 
L 304.971344 156.567488 
L 310.063587 159.610719 
L 315.05764 162.750694 
L 319.951323 165.985667 
L 324.907481 168.377953 
L 329.868711 170.470607 
L 334.412814 174.339751 
L 338.557886 179.496644 
L 342.342475 185.508914 
L 346.02568 191.236289 
L 349.228338 198.059688 
L 352.753298 203.151218 
L 356.134717 208.25095 
L 359.83365 212.02059 
L 364.634118 212.522939 
L 368.611949 215.282267 
L 373.969159 214.520309 
L 403.250835 142.045616 
L 393.144692 151.372285 
L 388.130007 147.968514 
L 381.32514 149.604772 
L 375.952434 147.258288 
L 370.093299 146.43463 
L 364.24561 145.688236 
L 358.684463 143.993068 
L 353.085561 142.420749 
L 347.557986 140.512926 
L 342.039402 138.459476 
L 336.73979 135.121975 
L 331.663937 130.060187 
L 326.46899 124.834738 
L 320.957579 120.770445 
L 315.221201 117.605325 
L 309.384929 114.575036 
L 303.458176 111.616322 
L 297.482412 108.142118 
L 291.394186 104.780398 
L 285.174351 102.148538 
L 278.864832 99.828265 
L 272.47818 96.506028 
L 265.973738 93.080043 
L 259.321268 88.95462 
L 252.564619 85.745922 
L 245.76883 83.757803 
L 238.892784 81.836463 
L 232.014289 80.731088 
L 225.150001 80.262211 
L 218.321535 80.374747 
L 211.522035 80.85734 
L 204.752494 81.627845 
L 198.037185 82.753576 
L 191.516097 84.822645 
L 184.879936 86.289615 
L 178.486266 88.738321 
L 172.342387 92.007429 
L 166.153204 94.92004 
L 160.349584 98.963183 
L 154.906707 103.871508 
L 149.061054 107.289936 
L 143.163814 110.430997 
L 137.432428 113.913084 
L 131.849946 117.652204 
L 126.67853 122.236846 
L 122.159315 128.097598 
L 117.551145 133.477197 
L 113.094701 138.934737 
L 108.044981 143.000972 
L 102.434627 145.913886 
L 97.991448 150.936899 
L 95.623024 159.397181 
L 91.401934 164.357815 
L 87.276669 169.334923 
L 83.225491 174.295711 
L 78.18309 177.664979 
L 74.710072 183.277167 
L 71.891399 189.635277 
L 69.372734 196.189266 
L 66.024016 201.470016 
L 66.40967 211.245879 
L 63.24102 216.360159 
L 60.093705 221.398906 
L 55.657738 224.9158 
z
" style="fill:#ff69b5;opacity:0.2;stroke:#ff69b5;stroke-linecap:round;stroke-linejoin:miter;stroke-width:0.5;"/>
   </g>
   <g id="patch_4">
    <path clip-path="url(#pac79c19451)" d="M 83.213084 295.304238 
L 86.357949 292.159373 
L 89.498983 289.018339 
L 92.733739 285.974855 
L 95.389112 282.338198 
L 98.361897 279.002442 
L 101.346765 275.658605 
L 104.462972 272.439909 
L 106.802292 268.274462 
L 111.67839 267.148093 
L 115.394284 264.661078 
L 118.990967 262.034885 
L 123.440595 260.586658 
L 127.469896 258.626004 
L 131.0281 256.010928 
L 134.576501 253.369333 
L 138.823778 251.827541 
L 142.821384 249.93415 
L 146.131304 246.880088 
L 149.493998 243.849959 
L 152.931131 240.883996 
L 156.435905 237.973509 
L 159.921827 234.944574 
L 161.025917 226.709147 
L 163.919603 221.892739 
L 165.958371 214.774353 
L 165.351864 200.57236 
L 166.295923 189.10506 
L 169.467699 182.700326 
L 173.376127 177.906035 
L 176.785589 171.207785 
L 179.926653 162.996893 
L 182.963279 153.543737 
L 187.735299 149.454558 
L 192.754441 145.964843 
L 197.780276 142.167126 
L 202.644632 137.178286 
L 207.348155 130.654367 
L 211.832508 121.7806 
L 217.251451 117.03145 
L 223.51855 117.353426 
L 229.006881 111.673981 
L 234.711079 106.38933 
L 240.607283 101.433272 
L 246.693591 96.982501 
L 252.944734 92.998944 
L 259.367325 90.273537 
L 265.931197 90.642879 
L 272.47818 90.257722 
L 279.030051 90.362859 
L 285.571811 90.766771 
L 292.096959 91.370697 
L 298.583088 92.401715 
L 304.866875 95.51482 
L 311.015259 99.063486 
L 316.977471 103.301653 
L 322.890758 107.015164 
L 328.583352 111.485183 
L 334.30949 115.056511 
L 339.709904 119.84206 
L 345.127756 123.929913 
L 350.483339 127.841832 
L 355.804027 131.517577 
L 360.990793 135.385727 
L 366.174244 138.96229 
L 371.278605 142.557667 
L 375.378161 149.02572 
L 378.971966 156.438884 
L 384.534498 157.847093 
L 390.128202 159.23051 
L 398.764645 136.731808 
L 393.652743 132.794919 
L 388.484474 128.812555 
L 385.823072 116.879589 
L 383.951707 101.105818 
L 378.719747 95.210921 
L 373.419196 89.002294 
L 367.656418 83.980233 
L 363.518988 71.378232 
L 359.035076 58.501118 
L 352.99816 51.479911 
L 347.122268 42.391638 
L 341.109456 32.398473 
L 333.895064 28.715462 
L 326.237222 27.887031 
L 318.559489 27.284928 
L 310.95267 25.953864 
L 303.301291 24.928267 
L 295.548299 25.515211 
L 287.800555 26.943877 
L 280.074748 30.512217 
L 272.47818 35.386606 
L 265.023366 38.633299 
L 257.736637 43.576732 
L 250.611852 48.484902 
L 243.559827 52.167576 
L 236.633818 56.016359 
L 229.952551 61.114962 
L 223.693872 68.402994 
L 217.527598 74.725588 
L 213.610928 94.046097 
L 210.16474 112.322219 
L 204.71071 117.085884 
L 199.387357 121.854008 
L 194.120595 126.315309 
L 189.787823 134.066389 
L 186.850357 146.15191 
L 182.297036 151.220272 
L 177.684205 155.662176 
L 173.205113 160.188213 
L 169.053379 165.351864 
L 165.393145 171.505581 
L 161.859126 177.546809 
L 157.28686 180.610775 
L 153.572783 185.595736 
L 150.248875 191.187783 
L 147.435038 197.563413 
L 144.990121 204.33004 
L 142.669389 210.955199 
L 139.962291 216.493157 
L 137.302367 221.855673 
L 134.571658 226.858193 
L 131.787384 231.570491 
L 129.516844 236.933334 
L 128.226374 243.590994 
L 124.784205 246.753974 
L 121.019656 249.414107 
L 118.156497 253.313721 
L 114.481504 256.050626 
L 111.352281 259.48755 
L 108.020458 262.630923 
L 100.714443 261.019246 
L 91.740601 257.804495 
L 86.202226 258.838891 
L 80.889657 260.265759 
L 76.865572 263.156511 
L 67.666693 260.907809 
L 63.973357 264.368529 
L 60.394149 267.947738 
L 56.810575 271.531312 
z
" style="fill:#00d9ff;opacity:0.2;stroke:#00d9ff;stroke-linecap:round;stroke-linejoin:miter;stroke-width:0.5;"/>
   </g>
   <g id="patch_5">
    <path clip-path="url(#pac79c19451)" d="M 102.801903 307.493608 
L 104.936776 303.926443 
L 107.006795 300.247911 
L 109.675073 297.131743 
L 122.787538 305.195735 
L 125.593536 302.587372 
L 128.416389 299.995164 
L 131.314382 297.486833 
L 134.75874 295.649951 
L 141.135106 297.607827 
L 144.36333 295.705148 
L 147.582091 293.814577 
L 150.903949 292.0933 
L 154.282167 290.4865 
L 157.440182 288.576313 
L 158.98162 284.086832 
L 161.745015 281.428362 
L 164.311752 278.369547 
L 166.742932 274.96786 
L 169.301954 271.673037 
L 172.746184 269.984232 
L 175.694626 267.283604 
L 178.059426 263.237625 
L 180.351887 258.800255 
L 182.147447 252.913426 
L 183.278437 244.942184 
L 184.11765 235.532245 
L 182.038916 217.239461 
L 182.167225 203.437238 
L 182.737867 189.527013 
L 183.513429 174.728708 
L 186.649456 166.398963 
L 190.385558 159.34546 
L 194.662099 153.616042 
L 198.698204 146.143109 
L 202.971311 138.715187 
L 207.917098 133.581325 
L 213.247616 129.806076 
L 218.689866 126.113248 
L 224.255266 122.595434 
L 228.988864 111.527244 
L 233.599601 95.814325 
L 238.907165 82.000836 
L 245.153876 74.963543 
L 251.807126 71.292095 
L 258.570226 67.447602 
L 265.404373 60.461189 
L 272.47818 55.592373 
L 279.708167 51.513622 
L 286.991568 50.110249 
L 294.257544 50.144274 
L 301.42916 51.700988 
L 308.512331 53.847063 
L 315.543829 55.977015 
L 322.509151 58.249737 
L 329.375918 60.870855 
L 336.007712 64.609614 
L 342.505298 68.575773 
L 348.973593 72.18451 
L 354.804698 78.403479 
L 360.07843 86.280928 
L 364.058392 98.411129 
L 369.168159 104.867383 
L 374.306971 110.600099 
L 379.783116 114.740666 
L 385.03349 119.309671 
L 389.368625 126.244794 
L 392.873317 134.936376 
L 397.239367 140.705291 
L 402.807097 143.143908 
L 420.144704 100.231824 
L 413.986187 97.078336 
L 404.592365 102.738557 
L 398.130294 100.799061 
L 391.812862 98.444911 
L 385.478147 96.113059 
L 379.779691 91.514457 
L 374.459942 85.118179 
L 369.030332 78.469766 
L 363.290052 72.369865 
L 356.903457 68.529598 
L 350.698544 63.310408 
L 344.233589 58.77415 
L 337.660253 54.175887 
L 330.842511 50.435504 
L 324.039736 45.784119 
L 316.994171 42.177937 
L 309.713054 40.122734 
L 302.291971 39.362217 
L 294.827834 39.262492 
L 287.368919 39.30431 
L 279.91175 39.850355 
L 272.47818 43.875618 
L 265.168273 46.934987 
L 257.949266 49.665635 
L 250.844278 52.919855 
L 243.892216 56.920972 
L 237.002503 60.230449 
L 230.261998 64.059159 
L 224.184662 72.400158 
L 218.676657 82.901571 
L 214.544134 99.938126 
L 210.445774 113.916041 
L 205.575221 121.53341 
L 200.665314 127.866326 
L 195.776447 133.48759 
L 191.018839 139.003723 
L 186.864994 146.206536 
L 182.663902 152.499687 
L 177.822869 156.115723 
L 172.616758 158.377441 
L 169.516276 166.696215 
L 165.649715 172.210499 
L 161.435941 176.444375 
L 160.454402 188.450716 
L 159.474182 199.498561 
L 158.103806 208.830246 
L 156.646638 217.317753 
L 155.161655 225.184774 
L 153.132218 231.489657 
L 150.817577 236.908981 
L 148.290461 241.678721 
L 145.488388 245.766524 
L 141.69656 248.062129 
L 137.880731 250.318351 
L 137.740896 258.242074 
L 133.929434 260.312333 
L 130.311252 262.683882 
L 127.106318 265.632093 
L 123.913655 268.567512 
L 120.567297 271.282232 
L 120.011263 277.438334 
L 116.519864 279.855412 
L 112.859837 282.099397 
L 109.159266 284.335266 
L 105.47106 286.626086 
L 102.069267 289.255701 
L 98.130693 291.371809 
L 94.051291 293.414452 
L 90.443845 295.969532 
z
" style="fill:#0000ff;opacity:0.2;stroke:#0000ff;stroke-linecap:round;stroke-linejoin:miter;stroke-width:0.5;"/>
   </g>
   <g id="patch_6">
    <path clip-path="url(#pac79c19451)" d="M 63.595579 233.731665 
L 67.239678 229.619408 
L 71.156101 225.792985 
L 75.774034 222.809906 
L 80.089917 219.473549 
L 84.460778 216.211777 
L 87.827036 211.568799 
L 86.183596 199.663058 
L 87.306991 191.191719 
L 89.99031 184.712618 
L 92.505214 177.702344 
L 94.51983 169.546865 
L 96.247073 160.478065 
L 99.093132 152.924389 
L 103.319703 147.578471 
L 107.794602 142.509576 
L 112.081712 136.857802 
L 117.026065 132.351161 
L 122.14466 128.064681 
L 127.54741 124.283799 
L 133.523973 121.795565 
L 139.63426 119.649054 
L 145.606917 117.143365 
L 151.291877 113.768718 
L 157.236213 111.040991 
L 163.661999 109.797606 
L 170.234353 109.152696 
L 176.869634 108.903346 
L 183.523112 108.940005 
L 190.243682 109.522551 
L 196.910839 110.20291 
L 203.514213 110.930445 
L 210.213457 112.598507 
L 217.244255 116.986021 
L 224.038546 121.053388 
L 230.637487 124.9542 
L 236.91993 127.405151 
L 243.010717 128.904648 
L 248.997209 129.925769 
L 255.004871 132.308697 
L 260.969515 136.154258 
L 266.784884 139.550564 
L 272.47818 142.764497 
L 278.080539 144.760373 
L 283.6278 146.435955 
L 289.130328 147.977378 
L 294.506186 150.704133 
L 299.194907 160.345705 
L 303.802304 167.690163 
L 307.653427 179.239899 
L 312.310329 182.298828 
L 316.797478 185.89826 
L 321.295105 188.864758 
L 325.693365 191.950903 
L 329.979843 195.19524 
L 334.084865 198.871425 
L 337.84312 203.554842 
L 343.095457 202.17203 
L 346.600358 207.224544 
L 350.093069 211.852435 
L 354.092799 214.535328 
L 357.500699 218.795971 
L 352.099753 246.960821 
L 393.855895 132.236765 
L 380.807767 151.107332 
L 373.67453 154.268957 
L 368.491096 151.675198 
L 363.088888 149.722204 
L 357.728053 147.562439 
L 350.966787 150.918686 
L 345.552341 149.200329 
L 340.131164 147.43703 
L 334.519509 146.544328 
L 328.942889 145.492018 
L 323.377147 144.355866 
L 317.89005 142.597051 
L 312.468981 140.020361 
L 306.677143 140.337899 
L 301.030675 139.362784 
L 295.90475 130.703731 
L 290.347211 124.75787 
L 284.586636 118.978473 
L 278.617698 113.986518 
L 272.47818 108.808563 
L 266.159957 103.74855 
L 259.670992 98.969416 
L 253.016501 94.36834 
L 246.329154 91.770798 
L 239.565088 89.520931 
L 232.803429 88.239254 
L 225.936277 86.665915 
L 218.922842 84.653266 
L 212.084703 84.409892 
L 205.309232 84.785262 
L 198.481529 85.039528 
L 191.684446 85.614663 
L 184.937953 86.540914 
L 178.165158 87.450427 
L 171.235737 87.877354 
L 164.97445 90.809237 
L 158.725892 93.652327 
L 152.392983 96.135063 
L 146.112767 98.727489 
L 139.90917 101.488934 
L 134.086029 105.195416 
L 128.501608 109.364776 
L 122.915288 113.371202 
L 117.94749 118.637684 
L 112.978669 123.671491 
L 108.930267 130.396381 
L 104.657551 136.352767 
L 100.465315 142.210148 
L 95.464016 146.377291 
L 90.213224 150.027131 
L 90.669666 163.139117 
L 86.574335 168.210953 
L 82.839784 173.701774 
L 78.730023 178.475841 
L 74.497254 182.973231 
L 76.657208 196.194851 
L 75.540236 204.373818 
L 72.869257 210.231525 
L 68.48957 213.814341 
L 64.2216 217.528769 
L 59.450821 220.659353 
L 55.352639 224.576953 
z
" style="fill:#ff69b5;opacity:0.2;stroke:#ff69b5;stroke-linecap:round;stroke-linejoin:miter;stroke-width:0.5;"/>
   </g>
   <g id="patch_7">
    <path clip-path="url(#pac79c19451)" d="M 122.044916 279.949687 
L 125.258503 277.286703 
L 120.393476 263.896077 
L 123.793831 261.072847 
L 118.353971 245.607114 
L 120.557914 240.48824 
L 121.490003 233.217892 
L 120.94629 223.217581 
L 121.839799 215.014929 
L 125.102725 210.457521 
L 127.546529 204.255677 
L 126.145432 190.507424 
L 125.14337 176.558451 
L 124.895971 163.130926 
L 127.221739 154.215852 
L 131.056544 148.081101 
L 135.268197 142.472834 
L 140.193545 138.303336 
L 145.230085 134.226676 
L 150.528519 130.665357 
L 155.43979 125.81513 
L 160.699497 121.699883 
L 165.347774 115.311528 
L 169.769769 107.532502 
L 175.404835 103.43664 
L 181.616582 101.293332 
L 187.77701 98.83822 
L 194.093127 96.946616 
L 200.402982 94.924547 
L 206.790748 93.187357 
L 213.304868 92.113707 
L 219.898134 91.592828 
L 226.564511 91.782474 
L 233.218888 92.192082 
L 239.863942 92.936852 
L 246.511956 94.384987 
L 253.058234 95.164652 
L 259.566734 95.983868 
L 266.094651 100.007139 
L 272.47818 102.559378 
L 278.761178 105.766595 
L 284.898931 110.035534 
L 290.888408 114.43121 
L 296.653444 119.996912 
L 302.276193 125.126452 
L 307.593978 131.614795 
L 312.494263 139.814456 
L 317.358746 146.377474 
L 322.283078 151.263548 
L 327.137453 155.731155 
L 331.878381 160.131754 
L 336.633981 163.889983 
L 340.992661 168.950476 
L 345.41636 173.180235 
L 349.456031 178.434045 
L 354.107032 181.045657 
L 357.826083 186.558884 
L 361.619065 191.371863 
L 364.596232 198.189048 
L 365.814264 209.280514 
L 366.638054 220.424437 
L 382.75223 178.445576 
L 393.716018 132.621074 
L 384.32815 140.883395 
L 381.556512 130.010711 
L 375.495219 128.765744 
L 369.29604 128.075291 
L 362.433059 130.003117 
L 356.45905 128.890423 
L 350.643561 127.147835 
L 344.603709 126.395359 
L 338.667929 125.202559 
L 332.915957 122.959633 
L 327.094712 120.884083 
L 321.284042 118.447544 
L 315.482672 115.475819 
L 309.713734 111.446668 
L 303.858768 107.037532 
L 297.950277 101.451342 
L 291.875849 95.589719 
L 285.599598 89.971045 
L 279.135118 84.343598 
L 272.47818 80.745172 
L 265.713503 78.171187 
L 258.865672 75.908064 
L 252.020059 75.355098 
L 245.062672 73.659273 
L 237.952027 71.083567 
L 230.695987 68.188282 
L 223.500895 66.831322 
L 216.427894 66.900788 
L 209.391467 67.40547 
L 202.273828 67.570629 
L 195.306068 68.703199 
L 188.538505 70.814176 
L 182.077338 74.150232 
L 175.602178 77.170875 
L 169.38588 80.973596 
L 163.35111 85.147977 
L 157.706207 90.317088 
L 152.324601 95.924604 
L 147.106696 101.614069 
L 141.923926 107.024431 
L 136.488554 111.454209 
L 131.206253 116.059008 
L 126.288228 121.317352 
L 121.020976 125.540847 
L 116.471132 131.161102 
L 112.424376 137.560367 
L 108.83929 144.559892 
L 105.017755 150.772042 
L 103.892451 161.582591 
L 100.606974 168.029635 
L 97.77378 174.962347 
L 95.523149 182.53205 
L 98.993116 198.575724 
L 93.526775 200.412927 
L 88.317484 202.710566 
L 85.056144 207.754994 
L 81.032962 211.662912 
L 85.555132 226.468705 
L 82.33056 230.906541 
z
" style="fill:#b20000;opacity:0.2;stroke:#b20000;stroke-linecap:round;stroke-linejoin:miter;stroke-width:0.5;"/>
   </g>
   <g id="patch_8">
    <path clip-path="url(#pac79c19451)" d="M 92.807246 303.94286 
L 95.660742 300.834367 
L 98.330348 297.54669 
L 97.926496 291.167612 
L 100.613008 287.7477 
L 99.971429 280.728454 
L 103.071032 277.573598 
L 106.227082 274.469285 
L 109.255822 271.198465 
L 108.794618 263.58693 
L 111.971196 260.279725 
L 115.732608 257.710897 
L 119.3363 254.937581 
L 122.035524 250.864916 
L 124.299936 246.036015 
L 126.4613 240.873019 
L 128.184009 234.800352 
L 130.268253 229.042232 
L 132.570189 223.391548 
L 133.836333 215.602782 
L 135.378047 207.871447 
L 137.083103 199.991496 
L 139.028729 192.107375 
L 141.581248 185.009919 
L 144.922355 179.224222 
L 148.271229 173.106056 
L 151.653649 166.668087 
L 155.724258 161.56493 
L 160.230023 157.32002 
L 165.54017 155.148763 
L 170.731853 152.576301 
L 175.751777 149.341487 
L 180.708356 145.679887 
L 185.689234 141.81854 
L 190.862049 138.374876 
L 196.196474 135.306925 
L 201.235136 130.547127 
L 206.585004 126.728291 
L 212.212926 123.938058 
L 217.605092 119.264253 
L 223.314677 115.902796 
L 229.140477 112.762027 
L 235.029374 109.417711 
L 241.095256 107.010838 
L 247.171128 103.811593 
L 253.37291 101.169031 
L 259.701622 99.846538 
L 266.071316 98.670301 
L 272.47818 97.70946 
L 278.918648 96.745114 
L 285.372819 96.465148 
L 291.829285 96.478224 
L 298.124755 98.956186 
L 304.503407 99.669275 
L 310.763275 101.460953 
L 316.608805 106.304196 
L 322.41487 110.401286 
L 327.686932 117.144955 
L 332.349064 126.174637 
L 336.722002 135.213483 
L 341.702623 140.043896 
L 346.629939 144.532743 
L 351.589648 148.420528 
L 356.52553 152.050316 
L 363.201334 149.330057 
L 368.298815 152.304122 
L 373.537118 154.691866 
L 378.806146 156.920462 
L 381.471105 166.263696 
L 389.642606 160.495531 
L 411.769781 102.85227 
L 400.753299 113.286304 
L 394.726621 110.684044 
L 388.683175 108.077096 
L 382.668548 105.302841 
L 376.668022 102.366136 
L 367.984972 109.283097 
L 361.86805 107.19611 
L 355.533077 105.969015 
L 349.373543 103.955056 
L 343.358849 101.069864 
L 337.221732 98.540367 
L 331.057835 95.861913 
L 324.981767 92.136863 
L 318.765394 88.74019 
L 312.523371 84.714751 
L 306.292704 79.217517 
L 299.720259 76.139414 
L 293.018832 73.780316 
L 286.212877 72.409046 
L 279.353474 71.833963 
L 272.47818 72.828148 
L 265.634813 73.663069 
L 258.791976 73.797699 
L 251.981391 74.617271 
L 245.2399 76.193742 
L 238.65167 79.080514 
L 232.126973 81.803202 
L 225.904355 86.405932 
L 220.063283 92.767928 
L 214.41668 99.133411 
L 209.014858 105.800914 
L 203.994329 113.400427 
L 198.408384 117.248306 
L 192.831104 120.72991 
L 187.493177 124.863068 
L 182.18352 128.735038 
L 177.231883 133.555983 
L 172.301374 138.055728 
L 166.872989 140.699938 
L 161.678133 143.932595 
L 156.618583 147.39767 
L 151.53907 150.662144 
L 146.647564 154.277593 
L 142.028966 158.400208 
L 137.455867 162.454216 
L 133.340378 167.337317 
L 130.183449 173.971862 
L 126.684631 179.583346 
L 123.658221 185.829661 
L 120.795292 192.076123 
L 118.166803 198.444151 
L 115.60093 204.631708 
L 113.459276 211.235853 
L 111.335759 217.581728 
L 108.755693 222.990727 
L 105.345171 227.028623 
L 101.572496 230.487803 
L 97.893382 234.037444 
L 93.99685 237.273611 
L 90.379622 240.846305 
L 87.213804 244.92981 
L 83.757473 248.620957 
L 80.265069 252.24501 
L 76.664154 255.734462 
L 74.749819 260.965585 
L 71.320257 264.561373 
L 60.786056 261.290589 
L 57.404071 265.159445 
L 54.684966 269.617405 
z
" style="fill:#00d9ff;opacity:0.2;stroke:#00d9ff;stroke-linecap:round;stroke-linejoin:miter;stroke-width:0.5;"/>
   </g>
   <g id="patch_9">
    <path clip-path="url(#pac79c19451)" d="M 108.238982 283.313187 
L 112.4683 281.648985 
L 115.957269 279.184938 
L 116.907138 273.605058 
L 125.732304 277.89314 
L 129.083236 275.427779 
L 133.297846 274.154001 
L 135.954358 270.743072 
L 138.172201 266.602494 
L 141.083768 263.389644 
L 144.44279 260.81984 
L 147.390957 257.539197 
L 149.887439 253.385904 
L 151.982918 248.340089 
L 153.758256 242.439594 
L 155.336982 235.816751 
L 157.279472 229.526943 
L 159.322091 223.055281 
L 158.32816 209.334153 
L 159.481895 199.516731 
L 162.501974 193.518634 
L 165.359957 186.666784 
L 168.4816 179.991041 
L 172.015556 173.954651 
L 175.828257 168.261419 
L 179.6595 162.123074 
L 183.975803 157.074827 
L 188.302437 151.571148 
L 192.85374 146.36311 
L 197.23368 139.79956 
L 201.942933 133.877049 
L 207.069276 129.219654 
L 212.556235 125.885062 
L 216.988465 115.371023 
L 222.453325 109.773954 
L 227.972491 103.249549 
L 233.741481 97.164227 
L 239.752375 91.661638 
L 245.933954 86.119185 
L 252.466933 83.881953 
L 259.083436 82.144005 
L 265.74461 79.953356 
L 272.47818 78.024151 
L 279.282566 75.896255 
L 286.15046 74.19641 
L 292.980449 74.512691 
L 299.718982 76.157683 
L 306.372186 78.309032 
L 312.816139 81.929255 
L 319.356555 83.925568 
L 325.784451 86.425468 
L 331.854185 90.833952 
L 337.824853 95.1199 
L 343.64012 99.62285 
L 348.208116 109.437957 
L 353.343702 115.452239 
L 358.526113 120.599889 
L 364.0102 124.117146 
L 369.422199 127.635323 
L 374.759059 131.173616 
L 380.292415 133.901199 
L 385.211693 138.317401 
L 391.776642 137.949466 
L 395.917626 144.148545 
L 396.01321 159.959366 
L 418.364292 104.638498 
L 409.03105 109.986907 
L 401.363072 111.610966 
L 394.772431 110.551002 
L 388.383426 108.99963 
L 382.142943 107.022018 
L 376.274141 103.739761 
L 370.359939 100.419598 
L 364.347048 97.253393 
L 358.893871 91.411815 
L 353.095238 86.44586 
L 347.156791 81.531149 
L 341.615183 73.62387 
L 335.420595 68.316525 
L 329.265657 61.655402 
L 322.764382 56.171043 
L 315.951974 52.093776 
L 308.798755 50.573226 
L 301.5926 49.363685 
L 294.335576 48.655336 
L 287.035368 48.855961 
L 279.742201 49.563833 
L 272.47818 50.793682 
L 265.271902 52.871899 
L 258.173373 56.083225 
L 251.200193 59.711111 
L 244.355605 63.547737 
L 237.788428 69.213613 
L 231.349407 74.405164 
L 225.010919 79.129479 
L 219.012947 85.294398 
L 214.252411 98.09626 
L 207.681111 98.236854 
L 203.589415 111.317324 
L 198.81163 119.145427 
L 193.684254 124.425309 
L 188.476375 128.80646 
L 183.336962 133.039743 
L 179.156245 140.267032 
L 174.890063 146.522949 
L 170.454669 151.723216 
L 165.981019 156.429084 
L 161.89469 161.893655 
L 157.784587 166.932271 
L 153.730959 171.80961 
L 151.408679 180.497427 
L 148.443277 187.132343 
L 145.188413 192.745509 
L 142.370268 198.958544 
L 139.898 205.516041 
L 137.987174 212.778502 
L 136.700923 220.77064 
L 136.099425 229.504363 
L 134.155646 235.51194 
L 131.547521 240.183097 
L 128.271664 243.660735 
L 125.599626 247.962885 
L 121.421956 249.98865 
L 121.652216 258.125166 
L 117.595718 260.183326 
L 114.52775 263.551965 
L 112.135526 267.712608 
L 107.673612 269.31286 
L 103.919038 271.814184 
L 100.404664 274.612296 
z
" style="fill:#0000ff;opacity:0.2;stroke:#0000ff;stroke-linecap:round;stroke-linejoin:miter;stroke-width:0.5;"/>
   </g>
   <g id="patch_10">
    <path clip-path="url(#pac79c19451)" d="M 68.716078 288.591604 
L 71.296514 284.57451 
L 73.704279 280.359635 
L 76.437212 276.404734 
L 79.844516 273.085632 
L 84.113913 270.662387 
L 88.533749 268.463044 
L 92.910949 266.289682 
L 97.248612 264.140737 
L 101.549732 262.014704 
L 105.81721 259.910139 
L 110.053864 257.825652 
L 114.26243 255.759905 
L 118.445576 253.711605 
L 122.605905 251.679505 
L 126.745962 249.662398 
L 130.868243 247.659116 
L 134.951431 245.630491 
L 135.704399 238.089498 
L 137.870817 232.572504 
L 141.593711 229.597464 
L 145.332186 226.59246 
L 143.761752 213.099081 
L 141.437854 197.046813 
L 142.416134 186.800339 
L 142.364788 173.479833 
L 143.932031 162.883547 
L 147.033757 155.233453 
L 149.931138 146.473338 
L 153.089334 137.701137 
L 156.949258 130.198944 
L 161.321778 123.615068 
L 166.602047 119.414069 
L 172.018172 115.373614 
L 177.815426 112.433091 
L 183.06081 107.085811 
L 188.693377 102.807445 
L 194.264314 97.751986 
L 200.222212 93.994565 
L 206.299757 90.40281 
L 212.6325 87.868541 
L 219.100243 85.915541 
L 225.512771 83.216732 
L 232.05024 81.073139 
L 238.731179 79.989305 
L 245.472872 79.525405 
L 252.215206 79.078719 
L 258.983047 79.269261 
L 265.740877 79.739439 
L 272.47818 80.401907 
L 279.207863 80.176001 
L 285.908757 81.117888 
L 292.547093 82.781631 
L 299.121904 84.696293 
L 305.596435 87.175909 
L 311.79937 91.603167 
L 317.7256 97.208631 
L 323.178379 104.968638 
L 328.53484 111.791474 
L 333.483907 119.738627 
L 338.280937 127.193459 
L 343.19726 133.012181 
L 348.207437 137.699845 
L 352.976377 142.858663 
L 357.235271 149.401525 
L 360.714786 158.001683 
L 364.510098 164.696458 
L 368.346583 170.66669 
L 372.328541 175.73279 
L 375.227241 183.418571 
L 376.093192 195.792962 
L 390.972939 172.434476 
L 414.277718 114.753123 
L 406.094132 117.637841 
L 397.272364 122.850093 
L 391.699525 119.47537 
L 385.762387 117.066357 
L 379.542451 115.527845 
L 373.637652 112.934292 
L 369.027643 105.391796 
L 362.822914 103.366359 
L 356.766335 100.627187 
L 350.671935 97.846601 
L 344.617091 94.59677 
L 338.26845 92.604135 
L 331.964955 90.134579 
L 325.806754 86.266774 
L 319.889175 79.587727 
L 313.47089 75.699716 
L 307.03358 70.749262 
L 300.421021 66.11806 
L 293.639934 61.928967 
L 286.678433 59.077253 
L 279.615785 56.806207 
L 272.47818 55.38494 
L 265.311889 55.162785 
L 258.112304 54.334431 
L 250.856321 53.149643 
L 243.551812 52.052961 
L 236.283317 52.010123 
L 229.098168 52.986057 
L 221.892764 53.734142 
L 214.65277 54.270124 
L 207.461344 55.219149 
L 200.565163 57.880313 
L 194.04976 62.240053 
L 188.055732 68.542904 
L 182.427972 75.668993 
L 176.889804 82.335259 
L 171.53873 89.008139 
L 166.91234 97.567463 
L 161.909512 104.065479 
L 157.103115 110.631359 
L 152.014112 115.86624 
L 147.069027 121.16048 
L 142.689888 127.609236 
L 138.453901 133.997565 
L 134.643661 141.001518 
L 131.207763 148.420743 
L 129.082704 158.206705 
L 125.612996 164.601045 
L 126.966673 180.136884 
L 125.554564 189.396163 
L 129.909218 208.51808 
L 126.58511 213.025087 
L 122.385332 215.922849 
L 119.754332 221.310049 
L 116.33163 225.274695 
L 113.088824 229.414858 
L 109.88488 233.511998 
L 106.717386 237.569137 
L 103.58403 241.58919 
L 100.482586 245.574975 
L 97.410911 249.529224 
L 94.366939 253.454585 
L 91.348673 257.353634 
L 88.354183 261.228881 
L 85.381597 265.082774 
L 82.429099 268.917711 
L 79.461246 272.702362 
L 76.353649 276.324038 
L 72.735907 279.456613 
L 68.599187 282.145826 
L 64.342603 284.789799 
z
" style="fill:#b20000;opacity:0.2;stroke:#b20000;stroke-linecap:round;stroke-linejoin:miter;stroke-width:0.5;"/>
   </g>
   <g id="line2d_12">
    <path clip-path="url(#pac79c19451)" d="M 58.861222 228.473629 
L 66.189818 228.411682 
L 69.750195 224.117492 
L 73.394132 219.870972 
L 73.918279 211.574213 
L 76.956762 206.253611 
L 79.659438 200.327066 
L 81.715605 193.282105 
L 84.920117 187.653032 
L 88.888976 183.016713 
L 92.619793 177.88571 
L 96.36672 172.620607 
L 99.755925 166.555575 
L 102.36708 158.830747 
L 106.526769 153.610085 
L 111.339924 149.467661 
L 115.874071 144.633289 
L 121.277373 141.46812 
L 125.72378 136.103517 
L 130.268515 130.69432 
L 135.177895 125.889166 
L 140.544865 122.02126 
L 146.171254 118.693869 
L 152.043934 115.952848 
L 157.930648 113.178243 
L 163.788346 110.210869 
L 170.051219 108.514032 
L 176.325421 106.872315 
L 182.594994 105.217529 
L 188.968145 103.997593 
L 195.450309 103.331653 
L 201.876159 102.503387 
L 208.428013 102.472747 
L 214.981123 102.697166 
L 221.498699 102.981439 
L 228.000555 103.47811 
L 234.471127 104.106342 
L 241.017373 106.120631 
L 247.420881 107.383232 
L 253.774132 108.824809 
L 260.090866 110.99304 
L 266.353682 114.847019 
L 272.47818 118.399191 
L 278.484349 121.626081 
L 284.430132 123.460166 
L 290.280999 126.021281 
L 296.016025 129.11243 
L 301.633488 132.472602 
L 307.178137 135.571262 
L 312.642394 138.608022 
L 318.00761 141.76057 
L 323.210157 145.410202 
L 328.285709 149.21907 
L 333.304251 152.796291 
L 338.226108 156.399614 
L 343.057936 160.004785 
L 347.714018 163.964831 
L 352.355072 167.614678 
L 356.736974 171.873962 
L 361.423298 174.792924 
L 366.043575 177.754619 
L 370.579395 180.812681 
L 376.382062 180.245726 
L 380.87832 183.327276 
L 388.609997 178.282962 
" style="fill:none;stroke:#ff69b5;stroke-linecap:round;"/>
   </g>
   <g id="line2d_13">
    <path clip-path="url(#pac79c19451)" d="M 57.151361 278.538548 
L 70.011829 283.417775 
L 73.376049 280.053555 
L 76.73617 276.693434 
L 80.200216 273.441332 
L 86.127342 272.747354 
L 89.625777 269.634101 
L 93.774495 267.248748 
L 98.101787 265.122202 
L 103.758368 264.646854 
L 109.849424 264.889508 
L 113.373283 262.074314 
L 116.736236 259.042756 
L 120.798546 256.95019 
L 124.244776 254.020055 
L 127.906152 251.382451 
L 131.401437 248.480163 
L 134.170311 244.380438 
L 137.304384 240.752321 
L 140.351481 236.869141 
L 143.398182 232.852816 
L 146.446711 228.688577 
L 149.552647 224.464354 
L 152.455974 219.637307 
L 154.230478 212.13628 
L 157.084239 206.540261 
L 159.765577 200.185044 
L 161.319362 190.591567 
L 164.077525 183.325934 
L 167.430422 177.102954 
L 171.214753 171.62895 
L 174.995351 165.697999 
L 178.805429 159.329534 
L 182.630157 152.382004 
L 187.292828 147.803234 
L 191.271132 140.015616 
L 195.950436 134.241218 
L 201.015995 129.516147 
L 206.029432 123.870125 
L 210.998624 117.05141 
L 215.43119 105.538774 
L 220.523074 96.039507 
L 226.350377 90.038488 
L 232.331815 83.752146 
L 238.62055 78.724816 
L 245.126709 74.575038 
L 251.778293 70.741923 
L 258.551981 66.925135 
L 265.477281 64.638089 
L 272.47818 62.822164 
L 279.552399 60.437538 
L 286.686183 58.855324 
L 293.822629 58.442954 
L 300.94219 58.664991 
L 307.909772 60.734342 
L 314.787374 63.174207 
L 321.607347 65.594342 
L 328.392911 67.865313 
L 334.846404 71.941828 
L 340.715879 78.724075 
L 346.354032 85.660986 
L 352.081416 91.215516 
L 357.001164 99.610032 
L 361.730223 107.748905 
L 367.204995 112.19401 
L 372.446995 117.086606 
L 377.615156 121.831742 
L 380.600616 132.952654 
L 383.72822 142.625719 
L 389.093621 145.321006 
L 394.446423 147.981159 
L 402.894648 142.927211 
L 408.28994 145.766839 
" style="fill:none;stroke:#00d9ff;stroke-linecap:round;"/>
   </g>
   <g id="line2d_14">
    <path clip-path="url(#pac79c19451)" d="M 86.181172 303.773778 
L 89.039252 300.550144 
L 96.622874 301.73157 
L 99.494034 298.670448 
L 102.568744 295.80986 
L 105.87217 293.193722 
L 114.129299 295.910911 
L 117.376401 293.461319 
L 120.638113 291.04728 
L 123.917123 288.671123 
L 127.385001 286.544142 
L 130.851201 284.44503 
L 134.138492 282.13633 
L 137.344204 279.723335 
L 140.6076 277.388591 
L 144.1058 275.399417 
L 147.590539 273.409193 
L 148.431175 267.202592 
L 151.720788 264.745246 
L 154.90007 262.068035 
L 157.516697 258.32329 
L 160.059766 254.291009 
L 162.939201 250.736944 
L 165.42814 246.234189 
L 167.353032 240.277689 
L 169.227847 233.815251 
L 170.810815 226.205993 
L 171.866419 216.69645 
L 172.776796 205.98831 
L 173.844315 194.72498 
L 175.841751 185.066726 
L 177.677312 173.952227 
L 180.668149 165.422216 
L 184.656679 159.449325 
L 188.625276 152.775998 
L 192.840469 146.309882 
L 197.237325 139.81535 
L 201.818313 133.290756 
L 206.74616 127.557367 
L 211.846695 121.861059 
L 216.617 113.025687 
L 221.465962 102.748503 
L 226.586763 91.963701 
L 231.9308 79.936742 
L 237.954834 71.115642 
L 244.523046 65.942258 
L 251.325702 62.105975 
L 258.259746 58.556618 
L 265.286323 53.698088 
L 272.47818 49.733996 
L 279.809958 45.681988 
L 287.180244 44.70728 
L 294.542689 44.703383 
L 301.860566 45.531602 
L 309.112693 46.984898 
L 316.269 49.077476 
L 323.274444 52.016928 
L 330.109214 55.653179 
L 336.833983 59.392751 
L 343.369444 63.674962 
L 349.836069 67.747459 
L 355.854077 73.466538 
L 361.684241 79.325397 
L 366.544362 88.440447 
L 371.81405 94.992781 
L 377.043331 101.057278 
L 382.630631 105.426863 
L 388.423176 108.877291 
L 393.749459 113.521928 
L 398.732841 118.837466 
L 405.612777 118.891813 
L 411.4759 121.687866 
L 423.371282 110.237425 
" style="fill:none;stroke:#0000ff;stroke-linecap:round;"/>
   </g>
   <g id="line2d_15">
    <path clip-path="url(#pac79c19451)" d="M 59.474109 229.154309 
L 63.34525 225.13938 
L 67.688851 221.660877 
L 72.131802 218.312123 
L 76.479587 214.852537 
L 80.000507 210.292797 
L 82.242122 203.881825 
L 80.340425 191.318145 
L 83.018507 184.83378 
L 86.415047 179.207196 
L 89.539774 172.956649 
L 92.594748 166.342991 
L 93.230148 155.252598 
L 97.278574 149.65084 
L 101.892509 144.89431 
L 106.226077 139.431171 
L 110.505989 133.627092 
L 115.002367 128.011326 
L 120.046075 123.351182 
L 125.231349 118.8275 
L 131.01279 115.58017 
L 136.860145 112.422235 
L 142.758043 109.316149 
L 148.702322 106.248103 
L 154.814598 103.588027 
L 161.193945 101.724966 
L 167.604402 99.980967 
L 174.052686 98.39035 
L 180.844135 98.195216 
L 187.590817 98.031733 
L 194.297643 97.908786 
L 200.997871 97.984987 
L 207.761345 98.691884 
L 214.664479 100.697957 
L 221.480694 102.853327 
L 228.286882 105.810058 
L 234.86168 107.822202 
L 241.287902 109.212789 
L 247.663181 110.848284 
L 254.010686 113.338518 
L 260.320254 117.561837 
L 266.47242 121.649557 
L 272.47818 125.78653 
L 278.349119 129.373446 
L 284.107218 132.707214 
L 289.73877 136.367624 
L 295.205468 140.703932 
L 300.112791 149.854244 
L 305.239724 154.014031 
L 310.061204 159.63013 
L 315.10019 162.447939 
L 320.087313 165.127063 
L 325.118997 167.178388 
L 330.106437 169.247615 
L 335.055504 171.316135 
L 339.818603 174.035877 
L 344.404954 177.236764 
L 350.411755 174.867234 
L 354.844623 178.473374 
L 359.292082 181.763816 
L 363.883664 184.402143 
L 369.154233 184.951652 
L 372.977824 189.598793 
L 362.016302 232.464513 
L 365.928845 234.420785 
" style="fill:none;stroke:#ff69b5;stroke-dasharray:3.7,1.6;stroke-dashoffset:0;"/>
   </g>
   <g id="line2d_16">
    <path clip-path="url(#pac79c19451)" d="M 58.486105 273.039966 
L 62.658746 270.059508 
L 66.208514 266.526995 
L 69.290592 262.531708 
L 72.386585 258.518384 
L 75.498487 254.484437 
L 78.628333 250.42723 
L 81.778202 246.344066 
L 84.950226 242.232183 
L 102.187738 255.428114 
L 105.406818 251.877704 
L 100.713219 237.779494 
L 104.424987 234.41392 
L 103.335728 224.15884 
L 107.042345 220.450584 
L 110.241559 215.896808 
L 108.23472 202.874815 
L 109.806789 194.988638 
L 112.854849 189.243578 
L 115.71949 182.919134 
L 115.581593 170.639733 
L 116.99133 160.559171 
L 118.660174 150.345647 
L 121.846435 142.688477 
L 126.03876 136.810974 
L 130.778213 131.895093 
L 135.699899 127.181172 
L 140.85932 122.840442 
L 146.226223 118.844894 
L 151.273243 113.714599 
L 156.512049 108.812244 
L 161.526991 102.814308 
L 166.56044 96.340239 
L 172.395358 92.205118 
L 178.60938 89.232103 
L 184.927174 86.494226 
L 191.315816 83.880396 
L 197.854525 81.813873 
L 204.532288 80.378993 
L 211.348168 79.759588 
L 218.163014 79.246808 
L 225.032703 79.306898 
L 231.957437 80.190182 
L 238.907985 82.010209 
L 245.787314 84.02213 
L 252.539147 85.259875 
L 259.216203 85.945966 
L 265.904077 89.089163 
L 272.47818 91.652275 
L 278.948148 95.055096 
L 285.249264 100.00329 
L 291.382129 105.010464 
L 297.30186 110.724127 
L 303.06748 116.081992 
L 308.653856 121.530731 
L 313.988467 127.645137 
L 319.321394 132.412509 
L 324.688895 136.073816 
L 330.026705 139.345394 
L 335.273155 142.667156 
L 340.618845 145.142671 
L 345.818111 148.049155 
L 350.937705 151.035329 
L 355.944545 154.218581 
L 361.701536 154.560474 
L 366.660651 157.662314 
L 371.587788 160.691287 
L 374.462191 169.536222 
L 379.765141 170.950794 
L 374.695142 199.435006 
L 372.87094 217.238496 
" style="fill:none;stroke:#b20000;stroke-dasharray:3.7,1.6;stroke-dashoffset:0;"/>
   </g>
   <g id="line2d_17">
    <path clip-path="url(#pac79c19451)" d="M 73.746106 286.780133 
L 76.532407 282.996906 
L 79.558202 279.418639 
L 84.623376 277.864492 
L 87.681413 274.356642 
L 88.317791 268.231458 
L 91.668051 264.909304 
L 94.992277 261.545121 
L 98.234813 258.064138 
L 99.58712 252.216618 
L 102.984023 248.776668 
L 106.812995 245.87417 
L 110.454398 242.712692 
L 113.690347 238.94677 
L 116.527814 234.513371 
L 118.89853 229.227373 
L 120.821642 223.018102 
L 122.934591 216.83697 
L 125.368496 210.917849 
L 127.315812 203.839453 
L 129.518134 196.850554 
L 131.883867 189.787421 
L 134.606089 183.039618 
L 137.460813 176.173618 
L 141.189111 170.839219 
L 145.150097 165.753132 
L 149.150606 160.47284 
L 153.631664 156.113537 
L 158.424303 152.358845 
L 163.609151 149.540679 
L 168.802421 146.638119 
L 174.026575 143.698607 
L 178.970119 139.617935 
L 183.936377 135.276789 
L 189.177613 131.618972 
L 194.513789 128.018418 
L 199.82176 123.897716 
L 205.289666 120.064359 
L 210.613892 114.869486 
L 216.010886 109.198832 
L 221.68898 104.335362 
L 227.522416 99.583979 
L 233.578173 95.610457 
L 239.873463 93.045676 
L 246.205514 90.002667 
L 252.677151 87.893151 
L 259.246799 86.822118 
L 265.853065 86.166685 
L 272.47818 85.268804 
L 279.136061 84.289538 
L 285.792848 84.437097 
L 292.424058 85.12927 
L 298.922507 87.5478 
L 305.398056 89.443396 
L 311.643323 93.087852 
L 317.6871 97.522193 
L 323.698318 101.269075 
L 329.372383 106.503434 
L 334.785398 112.357502 
L 340.040426 118.141674 
L 345.538083 121.999476 
L 351.081508 125.250879 
L 356.728849 127.808319 
L 362.255251 130.666707 
L 369.934678 125.848097 
L 375.483682 128.803482 
L 381.110147 131.384481 
L 386.766383 133.802253 
L 391.112202 139.775 
L 400.706194 131.6739 
" style="fill:none;stroke:#00d9ff;stroke-dasharray:3.7,1.6;stroke-dashoffset:0;"/>
   </g>
   <g id="line2d_18">
    <path clip-path="url(#pac79c19451)" d="M 99.084019 286.164386 
L 102.877641 283.844985 
L 104.321823 278.962741 
L 108.193669 276.731585 
L 111.81544 274.248899 
L 114.521332 270.658833 
L 120.130027 270.722552 
L 123.339477 267.805553 
L 127.475031 266.139583 
L 128.688157 260.365861 
L 131.885914 257.28269 
L 134.677716 253.52519 
L 137.995155 250.501468 
L 140.773301 246.525569 
L 142.993432 241.445134 
L 144.34192 234.555364 
L 145.872715 227.609048 
L 147.617491 220.666396 
L 149.82487 214.242744 
L 152.255252 207.900395 
L 153.385718 198.233248 
L 155.445287 190.007079 
L 158.116466 182.664122 
L 161.572272 176.799528 
L 165.188145 170.942348 
L 168.998288 165.191868 
L 173.141463 159.992317 
L 177.274782 154.323011 
L 181.566024 148.67093 
L 185.8197 142.305445 
L 190.665058 137.584785 
L 195.458967 132.112434 
L 200.377282 126.511238 
L 205.329345 120.268489 
L 210.118673 112.060958 
L 215.620438 106.733642 
L 220.733136 97.534176 
L 226.491705 91.189514 
L 232.545444 85.784695 
L 238.770402 80.437626 
L 245.14478 74.833461 
L 251.833563 71.796532 
L 258.628404 69.113615 
L 265.508256 66.412627 
L 272.47818 64.408916 
L 279.512384 62.730044 
L 286.592914 61.526185 
L 293.658013 61.584014 
L 300.655791 62.760684 
L 307.585471 64.441129 
L 314.384056 67.011515 
L 321.060469 70.048306 
L 327.525054 74.040435 
L 333.63739 79.575238 
L 339.720018 84.371885 
L 345.398456 90.577 
L 350.651677 97.941908 
L 356.118787 103.432027 
L 361.43658 108.926641 
L 367.18507 112.268372 
L 372.84817 115.687542 
L 378.451001 119.097817 
L 384.33792 121.450415 
L 389.992062 124.434202 
L 396.569857 124.780216 
L 402.474338 127.067726 
L 407.188751 132.298932 
L 421.28086 115.162151 
" style="fill:none;stroke:#0000ff;stroke-dasharray:3.7,1.6;stroke-dashoffset:0;"/>
   </g>
   <g id="line2d_19">
    <path clip-path="url(#pac79c19451)" d="M 66.529341 286.690701 
L 69.94785 283.360168 
L 73.220093 279.908124 
L 76.39543 276.364386 
L 79.652881 272.893997 
L 83.271506 269.790049 
L 86.957673 266.772909 
L 90.632566 263.759281 
L 94.298642 260.747185 
L 97.958335 257.734644 
L 101.614061 254.719681 
L 105.268225 251.700314 
L 108.92323 248.674547 
L 112.581481 245.640371 
L 116.245392 242.595752 
L 119.917393 239.538628 
L 123.599937 236.466905 
L 127.352882 233.47027 
L 129.044865 227.006174 
L 132.227964 222.798796 
L 135.751465 219.057772 
L 135.443375 207.994311 
L 135.364212 196.617983 
L 133.525425 180.823929 
L 135.749419 172.503522 
L 136.786275 160.950288 
L 139.287846 151.942532 
L 142.743829 144.615509 
L 146.310513 137.041287 
L 150.07918 129.430809 
L 154.481685 123.032592 
L 159.212447 117.123214 
L 164.255779 111.739774 
L 169.465256 106.470538 
L 174.677078 100.720615 
L 179.975307 94.710535 
L 185.560675 89.238219 
L 191.160023 83.147445 
L 197.135986 78.117309 
L 203.43246 74.141561 
L 210.046922 71.543845 
L 216.876507 70.092833 
L 223.702767 68.475437 
L 230.574204 67.029598 
L 237.507248 65.999714 
L 244.512342 65.789183 
L 251.535763 66.114181 
L 258.547676 66.801846 
L 265.526383 67.451112 
L 272.47818 67.893424 
L 279.411824 68.491104 
L 286.293595 70.09757 
L 293.093514 72.355299 
L 299.771462 75.407176 
L 306.315008 78.962586 
L 312.63513 83.651441 
L 318.807388 88.398179 
L 324.492566 95.617706 
L 330.249898 100.963027 
L 335.876178 106.171381 
L 341.449014 110.895114 
L 346.934598 115.429391 
L 352.486886 119.163516 
L 357.899646 123.112511 
L 363.131457 127.396661 
L 367.176219 135.467988 
L 372.026274 140.112151 
L 377.054485 143.866524 
L 382.014033 147.60408 
L 386.249803 153.134332 
L 391.093662 156.715401 
L 402.625329 143.5938 
L 420.722782 116.476899 
" style="fill:none;stroke:#b20000;stroke-linecap:round;"/>
   </g>
   <g id="patch_11">
    <path d="M 36.25065 321.621875 
L 36.25065 10.8 
" style="fill:none;stroke:#262626;stroke-linecap:square;stroke-linejoin:miter;stroke-width:1.25;"/>
   </g>
   <g id="patch_12">
    <path d="M 441.805598 321.621875 
L 441.805598 10.8 
" style="fill:none;stroke:#262626;stroke-linecap:square;stroke-linejoin:miter;stroke-width:1.25;"/>
   </g>
   <g id="patch_13">
    <path d="M 36.25065 321.621875 
L 441.805598 321.621875 
" style="fill:none;stroke:#262626;stroke-linecap:square;stroke-linejoin:miter;stroke-width:1.25;"/>
   </g>
   <g id="patch_14">
    <path d="M 36.25065 10.8 
L 441.805598 10.8 
" style="fill:none;stroke:#262626;stroke-linecap:square;stroke-linejoin:miter;stroke-width:1.25;"/>
   </g>
   <g id="legend_1">
    <g id="line2d_20">
     <path d="M 336.835285 263.007812 
L 356.835285 263.007812 
" style="fill:none;stroke:#b20000;stroke-dasharray:3.7,1.6;stroke-dashoffset:0;"/>
    </g>
    <g id="line2d_21"/>
    <g id="text_12">
     <!-- u -->
     <defs>
      <path d="M 8.5 21.578125 
L 8.5 54.6875 
L 17.484375 54.6875 
L 17.484375 21.921875 
Q 17.484375 14.15625 20.5 10.265625 
Q 23.53125 6.390625 29.59375 6.390625 
Q 36.859375 6.390625 41.078125 11.03125 
Q 45.3125 15.671875 45.3125 23.6875 
L 45.3125 54.6875 
L 54.296875 54.6875 
L 54.296875 0 
L 45.3125 0 
L 45.3125 8.40625 
Q 42.046875 3.421875 37.71875 1 
Q 33.40625 -1.421875 27.6875 -1.421875 
Q 18.265625 -1.421875 13.375 4.4375 
Q 8.5 10.296875 8.5 21.578125 
z
M 31.109375 56 
z
" id="DejaVuSans-117"/>
     </defs>
     <g style="fill:#262626;" transform="translate(364.835285 266.507812)scale(0.1 -0.1)">
      <use xlink:href="#DejaVuSans-117"/>
     </g>
    </g>
    <g id="line2d_22">
     <path d="M 336.835285 277.685937 
L 356.835285 277.685937 
" style="fill:none;stroke:#b20000;stroke-linecap:round;"/>
    </g>
    <g id="line2d_23"/>
    <g id="text_13">
     <!-- ɯ -->
     <defs>
      <path d="M 46 10.546875 
Q 42.71875 4.640625 37.9375 1.65625 
Q 33.25 -1.265625 26.90625 -1.265625 
Q 18.359375 -1.265625 13.71875 4.734375 
Q 9.078125 10.75 9.078125 21.78125 
L 9.078125 54.78125 
L 18.109375 54.78125 
L 18.109375 22.078125 
Q 18.109375 14.15625 20.890625 10.34375 
Q 23.6875 6.546875 29.390625 6.546875 
Q 36.375 6.546875 40.4375 11.234375 
Q 44.484375 15.828125 44.484375 23.828125 
L 44.484375 54.78125 
L 53.515625 54.78125 
L 53.515625 22.078125 
Q 53.515625 14.15625 56.296875 10.34375 
Q 59.078125 6.546875 64.890625 6.546875 
Q 71.78125 6.546875 75.828125 11.234375 
Q 79.890625 15.921875 79.890625 23.828125 
L 79.890625 54.78125 
L 88.921875 54.78125 
L 88.921875 0 
L 79.890625 0 
L 79.890625 8.59375 
Q 76.90625 3.65625 72.515625 1.171875 
Q 68.21875 -1.265625 62.3125 -1.265625 
Q 56.34375 -1.265625 52.15625 1.765625 
Q 48 4.78125 46 10.546875 
z
" id="DejaVuSans-623"/>
     </defs>
     <g style="fill:#262626;" transform="translate(364.835285 281.185937)scale(0.1 -0.1)">
      <use xlink:href="#DejaVuSans-623"/>
     </g>
    </g>
    <g id="line2d_24">
     <path d="M 336.835285 292.364062 
L 356.835285 292.364062 
" style="fill:none;stroke:#ff69b5;stroke-dasharray:3.7,1.6;stroke-dashoffset:0;"/>
    </g>
    <g id="line2d_25"/>
    <g id="text_14">
     <!-- o -->
     <defs>
      <path d="M 30.609375 48.390625 
Q 23.390625 48.390625 19.1875 42.75 
Q 14.984375 37.109375 14.984375 27.296875 
Q 14.984375 17.484375 19.15625 11.84375 
Q 23.34375 6.203125 30.609375 6.203125 
Q 37.796875 6.203125 41.984375 11.859375 
Q 46.1875 17.53125 46.1875 27.296875 
Q 46.1875 37.015625 41.984375 42.703125 
Q 37.796875 48.390625 30.609375 48.390625 
z
M 30.609375 56 
Q 42.328125 56 49.015625 48.375 
Q 55.71875 40.765625 55.71875 27.296875 
Q 55.71875 13.875 49.015625 6.21875 
Q 42.328125 -1.421875 30.609375 -1.421875 
Q 18.84375 -1.421875 12.171875 6.21875 
Q 5.515625 13.875 5.515625 27.296875 
Q 5.515625 40.765625 12.171875 48.375 
Q 18.84375 56 30.609375 56 
z
" id="DejaVuSans-111"/>
     </defs>
     <g style="fill:#262626;" transform="translate(364.835285 295.864062)scale(0.1 -0.1)">
      <use xlink:href="#DejaVuSans-111"/>
     </g>
    </g>
    <g id="line2d_26">
     <path d="M 336.835285 307.042187 
L 356.835285 307.042187 
" style="fill:none;stroke:#ff69b5;stroke-linecap:round;"/>
    </g>
    <g id="line2d_27"/>
    <g id="text_15">
     <!-- a -->
     <defs>
      <path d="M 34.28125 27.484375 
Q 23.390625 27.484375 19.1875 25 
Q 14.984375 22.515625 14.984375 16.5 
Q 14.984375 11.71875 18.140625 8.90625 
Q 21.296875 6.109375 26.703125 6.109375 
Q 34.1875 6.109375 38.703125 11.40625 
Q 43.21875 16.703125 43.21875 25.484375 
L 43.21875 27.484375 
z
M 52.203125 31.203125 
L 52.203125 0 
L 43.21875 0 
L 43.21875 8.296875 
Q 40.140625 3.328125 35.546875 0.953125 
Q 30.953125 -1.421875 24.3125 -1.421875 
Q 15.921875 -1.421875 10.953125 3.296875 
Q 6 8.015625 6 15.921875 
Q 6 25.140625 12.171875 29.828125 
Q 18.359375 34.515625 30.609375 34.515625 
L 43.21875 34.515625 
L 43.21875 35.40625 
Q 43.21875 41.609375 39.140625 45 
Q 35.0625 48.390625 27.6875 48.390625 
Q 23 48.390625 18.546875 47.265625 
Q 14.109375 46.140625 10.015625 43.890625 
L 10.015625 52.203125 
Q 14.9375 54.109375 19.578125 55.046875 
Q 24.21875 56 28.609375 56 
Q 40.484375 56 46.34375 49.84375 
Q 52.203125 43.703125 52.203125 31.203125 
z
" id="DejaVuSans-97"/>
     </defs>
     <g style="fill:#262626;" transform="translate(364.835285 310.542187)scale(0.1 -0.1)">
      <use xlink:href="#DejaVuSans-97"/>
     </g>
    </g>
    <g id="line2d_28">
     <path d="M 394.57591 263.007812 
L 414.57591 263.007812 
" style="fill:none;stroke:#0000ff;stroke-linecap:round;"/>
    </g>
    <g id="line2d_29"/>
    <g id="text_16">
     <!-- i -->
     <defs>
      <path d="M 9.421875 54.6875 
L 18.40625 54.6875 
L 18.40625 0 
L 9.421875 0 
z
M 9.421875 75.984375 
L 18.40625 75.984375 
L 18.40625 64.59375 
L 9.421875 64.59375 
z
" id="DejaVuSans-105"/>
     </defs>
     <g style="fill:#262626;" transform="translate(422.57591 266.507812)scale(0.1 -0.1)">
      <use xlink:href="#DejaVuSans-105"/>
     </g>
    </g>
    <g id="line2d_30">
     <path d="M 394.57591 277.685937 
L 414.57591 277.685937 
" style="fill:none;stroke:#0000ff;stroke-dasharray:3.7,1.6;stroke-dashoffset:0;"/>
    </g>
    <g id="line2d_31"/>
    <g id="text_17">
     <!-- y -->
     <defs>
      <path d="M 32.171875 -5.078125 
Q 28.375 -14.84375 24.75 -17.8125 
Q 21.140625 -20.796875 15.09375 -20.796875 
L 7.90625 -20.796875 
L 7.90625 -13.28125 
L 13.1875 -13.28125 
Q 16.890625 -13.28125 18.9375 -11.515625 
Q 21 -9.765625 23.484375 -3.21875 
L 25.09375 0.875 
L 2.984375 54.6875 
L 12.5 54.6875 
L 29.59375 11.921875 
L 46.6875 54.6875 
L 56.203125 54.6875 
z
" id="DejaVuSans-121"/>
     </defs>
     <g style="fill:#262626;" transform="translate(422.57591 281.185937)scale(0.1 -0.1)">
      <use xlink:href="#DejaVuSans-121"/>
     </g>
    </g>
    <g id="line2d_32">
     <path d="M 394.57591 292.364062 
L 414.57591 292.364062 
" style="fill:none;stroke:#00d9ff;stroke-linecap:round;"/>
    </g>
    <g id="line2d_33"/>
    <g id="text_18">
     <!-- e -->
     <defs>
      <path d="M 56.203125 29.59375 
L 56.203125 25.203125 
L 14.890625 25.203125 
Q 15.484375 15.921875 20.484375 11.0625 
Q 25.484375 6.203125 34.421875 6.203125 
Q 39.59375 6.203125 44.453125 7.46875 
Q 49.3125 8.734375 54.109375 11.28125 
L 54.109375 2.78125 
Q 49.265625 0.734375 44.1875 -0.34375 
Q 39.109375 -1.421875 33.890625 -1.421875 
Q 20.796875 -1.421875 13.15625 6.1875 
Q 5.515625 13.8125 5.515625 26.8125 
Q 5.515625 40.234375 12.765625 48.109375 
Q 20.015625 56 32.328125 56 
Q 43.359375 56 49.78125 48.890625 
Q 56.203125 41.796875 56.203125 29.59375 
z
M 47.21875 32.234375 
Q 47.125 39.59375 43.09375 43.984375 
Q 39.0625 48.390625 32.421875 48.390625 
Q 24.90625 48.390625 20.390625 44.140625 
Q 15.875 39.890625 15.1875 32.171875 
z
" id="DejaVuSans-101"/>
     </defs>
     <g style="fill:#262626;" transform="translate(422.57591 295.864062)scale(0.1 -0.1)">
      <use xlink:href="#DejaVuSans-101"/>
     </g>
    </g>
    <g id="line2d_34">
     <path d="M 394.57591 307.042187 
L 414.57591 307.042187 
" style="fill:none;stroke:#00d9ff;stroke-dasharray:3.7,1.6;stroke-dashoffset:0;"/>
    </g>
    <g id="line2d_35"/>
    <g id="text_19">
     <!-- œ -->
     <defs>
      <path d="M 87.984375 32.234375 
Q 87.890625 39.65625 83.890625 44.015625 
Q 79.890625 48.390625 73.1875 48.390625 
Q 65.71875 48.390625 61.203125 44.140625 
Q 56.6875 39.890625 56 32.171875 
z
M 97.015625 29.59375 
L 97.015625 25.203125 
L 55.71875 25.203125 
Q 56.296875 15.921875 61.28125 11.0625 
Q 66.265625 6.203125 75.203125 6.203125 
Q 80.375 6.203125 85.25 7.46875 
Q 90.140625 8.734375 94.921875 11.28125 
L 94.921875 2.78125 
Q 90.046875 0.734375 84.96875 -0.34375 
Q 79.890625 -1.421875 74.703125 -1.421875 
Q 66.890625 -1.421875 60.984375 1.265625 
Q 55.078125 3.953125 51.125 9.28125 
Q 47.65625 3.90625 42.546875 1.234375 
Q 37.453125 -1.421875 30.609375 -1.421875 
Q 18.84375 -1.421875 12.171875 6.21875 
Q 5.515625 13.875 5.515625 27.296875 
Q 5.515625 40.765625 12.171875 48.375 
Q 18.84375 56 30.609375 56 
Q 37.453125 56 42.59375 53.296875 
Q 47.75 50.59375 50.984375 45.3125 
Q 54.78125 50.53125 60.4375 53.265625 
Q 66.109375 56 73.09375 56 
Q 84.125 56 90.5625 48.890625 
Q 97.015625 41.796875 97.015625 29.59375 
z
M 30.609375 48.390625 
Q 23.390625 48.390625 19.1875 42.75 
Q 14.984375 37.109375 14.984375 27.296875 
Q 14.984375 17.484375 19.15625 11.84375 
Q 23.34375 6.203125 30.609375 6.203125 
Q 37.796875 6.203125 41.984375 11.859375 
Q 46.1875 17.53125 46.1875 27.296875 
Q 46.1875 37.015625 41.984375 42.703125 
Q 37.796875 48.390625 30.609375 48.390625 
z
" id="DejaVuSans-339"/>
     </defs>
     <g style="fill:#262626;" transform="translate(422.57591 310.542187)scale(0.1 -0.1)">
      <use xlink:href="#DejaVuSans-339"/>
     </g>
    </g>
   </g>
  </g>
 </g>
 <defs>
  <clipPath id="pac79c19451">
   <rect height="310.821875" width="405.554948" x="36.25065" y="10.8"/>
  </clipPath>
 </defs>
</svg>
