<?xml version="1.0" encoding="utf-8" standalone="no"?>
<!DOCTYPE svg PUBLIC "-//W3C//DTD SVG 1.1//EN"
  "http://www.w3.org/Graphics/SVG/1.1/DTD/svg11.dtd">
<!-- Created with matplotlib (https://matplotlib.org/) -->
<svg height="345.6pt" version="1.1" viewBox="0 0 460.8 345.6" width="460.8pt" xmlns="http://www.w3.org/2000/svg" xmlns:xlink="http://www.w3.org/1999/xlink">
 <defs>
  <style type="text/css">
*{stroke-linecap:butt;stroke-linejoin:round;}
  </style>
 </defs>
 <g id="figure_1">
  <g id="patch_1">
   <path d="M 0 345.6 
L 460.8 345.6 
L 460.8 0 
L 0 0 
z
" style="fill:#ffffff;"/>
  </g>
  <g id="axes_1">
   <g id="patch_2">
    <path d="M 35.466005 321.621875 
L 441.342844 321.621875 
L 441.342844 10.8 
L 35.466005 10.8 
z
" style="fill:#ffffff;"/>
   </g>
   <g id="matplotlib.axis_1">
    <g id="xtick_1">
     <g id="line2d_1"/>
     <g id="text_1">
      <!-- 100 -->
      <defs>
       <path d="M 12.40625 8.296875 
L 28.515625 8.296875 
L 28.515625 63.921875 
L 10.984375 60.40625 
L 10.984375 69.390625 
L 28.421875 72.90625 
L 38.28125 72.90625 
L 38.28125 8.296875 
L 54.390625 8.296875 
L 54.390625 0 
L 12.40625 0 
z
" id="DejaVuSans-49"/>
       <path d="M 31.78125 66.40625 
Q 24.171875 66.40625 20.328125 58.90625 
Q 16.5 51.421875 16.5 36.375 
Q 16.5 21.390625 20.328125 13.890625 
Q 24.171875 6.390625 31.78125 6.390625 
Q 39.453125 6.390625 43.28125 13.890625 
Q 47.125 21.390625 47.125 36.375 
Q 47.125 51.421875 43.28125 58.90625 
Q 39.453125 66.40625 31.78125 66.40625 
z
M 31.78125 74.21875 
Q 44.046875 74.21875 50.515625 64.515625 
Q 56.984375 54.828125 56.984375 36.375 
Q 56.984375 17.96875 50.515625 8.265625 
Q 44.046875 -1.421875 31.78125 -1.421875 
Q 19.53125 -1.421875 13.0625 8.265625 
Q 6.59375 17.96875 6.59375 36.375 
Q 6.59375 54.828125 13.0625 64.515625 
Q 19.53125 74.21875 31.78125 74.21875 
z
" id="DejaVuSans-48"/>
      </defs>
      <g style="fill:#262626;" transform="translate(92.021063 332.720312)scale(0.1 -0.1)">
       <use xlink:href="#DejaVuSans-49"/>
       <use x="63.623047" xlink:href="#DejaVuSans-48"/>
       <use x="127.246094" xlink:href="#DejaVuSans-48"/>
      </g>
     </g>
    </g>
    <g id="xtick_2">
     <g id="line2d_2"/>
     <g id="text_2">
      <!-- 150 -->
      <defs>
       <path d="M 10.796875 72.90625 
L 49.515625 72.90625 
L 49.515625 64.59375 
L 19.828125 64.59375 
L 19.828125 46.734375 
Q 21.96875 47.46875 24.109375 47.828125 
Q 26.265625 48.1875 28.421875 48.1875 
Q 40.625 48.1875 47.75 41.5 
Q 54.890625 34.8125 54.890625 23.390625 
Q 54.890625 11.625 47.5625 5.09375 
Q 40.234375 -1.421875 26.90625 -1.421875 
Q 22.3125 -1.421875 17.546875 -0.640625 
Q 12.796875 0.140625 7.71875 1.703125 
L 7.71875 11.625 
Q 12.109375 9.234375 16.796875 8.0625 
Q 21.484375 6.890625 26.703125 6.890625 
Q 35.15625 6.890625 40.078125 11.328125 
Q 45.015625 15.765625 45.015625 23.390625 
Q 45.015625 31 40.078125 35.4375 
Q 35.15625 39.890625 26.703125 39.890625 
Q 22.75 39.890625 18.8125 39.015625 
Q 14.890625 38.140625 10.796875 36.28125 
z
" id="DejaVuSans-53"/>
      </defs>
      <g style="fill:#262626;" transform="translate(165.131617 332.720312)scale(0.1 -0.1)">
       <use xlink:href="#DejaVuSans-49"/>
       <use x="63.623047" xlink:href="#DejaVuSans-53"/>
       <use x="127.246094" xlink:href="#DejaVuSans-48"/>
      </g>
     </g>
    </g>
    <g id="xtick_3">
     <g id="line2d_3"/>
     <g id="text_3">
      <!-- 200 -->
      <defs>
       <path d="M 19.1875 8.296875 
L 53.609375 8.296875 
L 53.609375 0 
L 7.328125 0 
L 7.328125 8.296875 
Q 12.9375 14.109375 22.625 23.890625 
Q 32.328125 33.6875 34.8125 36.53125 
Q 39.546875 41.84375 41.421875 45.53125 
Q 43.3125 49.21875 43.3125 52.78125 
Q 43.3125 58.59375 39.234375 62.25 
Q 35.15625 65.921875 28.609375 65.921875 
Q 23.96875 65.921875 18.8125 64.3125 
Q 13.671875 62.703125 7.8125 59.421875 
L 7.8125 69.390625 
Q 13.765625 71.78125 18.9375 73 
Q 24.125 74.21875 28.421875 74.21875 
Q 39.75 74.21875 46.484375 68.546875 
Q 53.21875 62.890625 53.21875 53.421875 
Q 53.21875 48.921875 51.53125 44.890625 
Q 49.859375 40.875 45.40625 35.40625 
Q 44.1875 33.984375 37.640625 27.21875 
Q 31.109375 20.453125 19.1875 8.296875 
z
" id="DejaVuSans-50"/>
      </defs>
      <g style="fill:#262626;" transform="translate(238.242172 332.720312)scale(0.1 -0.1)">
       <use xlink:href="#DejaVuSans-50"/>
       <use x="63.623047" xlink:href="#DejaVuSans-48"/>
       <use x="127.246094" xlink:href="#DejaVuSans-48"/>
      </g>
     </g>
    </g>
    <g id="xtick_4">
     <g id="line2d_4"/>
     <g id="text_4">
      <!-- 250 -->
      <g style="fill:#262626;" transform="translate(311.352726 332.720312)scale(0.1 -0.1)">
       <use xlink:href="#DejaVuSans-50"/>
       <use x="63.623047" xlink:href="#DejaVuSans-53"/>
       <use x="127.246094" xlink:href="#DejaVuSans-48"/>
      </g>
     </g>
    </g>
    <g id="xtick_5">
     <g id="line2d_5"/>
     <g id="text_5">
      <!-- 300 -->
      <defs>
       <path d="M 40.578125 39.3125 
Q 47.65625 37.796875 51.625 33 
Q 55.609375 28.21875 55.609375 21.1875 
Q 55.609375 10.40625 48.1875 4.484375 
Q 40.765625 -1.421875 27.09375 -1.421875 
Q 22.515625 -1.421875 17.65625 -0.515625 
Q 12.796875 0.390625 7.625 2.203125 
L 7.625 11.71875 
Q 11.71875 9.328125 16.59375 8.109375 
Q 21.484375 6.890625 26.8125 6.890625 
Q 36.078125 6.890625 40.9375 10.546875 
Q 45.796875 14.203125 45.796875 21.1875 
Q 45.796875 27.640625 41.28125 31.265625 
Q 36.765625 34.90625 28.71875 34.90625 
L 20.21875 34.90625 
L 20.21875 43.015625 
L 29.109375 43.015625 
Q 36.375 43.015625 40.234375 45.921875 
Q 44.09375 48.828125 44.09375 54.296875 
Q 44.09375 59.90625 40.109375 62.90625 
Q 36.140625 65.921875 28.71875 65.921875 
Q 24.65625 65.921875 20.015625 65.03125 
Q 15.375 64.15625 9.8125 62.3125 
L 9.8125 71.09375 
Q 15.4375 72.65625 20.34375 73.4375 
Q 25.25 74.21875 29.59375 74.21875 
Q 40.828125 74.21875 47.359375 69.109375 
Q 53.90625 64.015625 53.90625 55.328125 
Q 53.90625 49.265625 50.4375 45.09375 
Q 46.96875 40.921875 40.578125 39.3125 
z
" id="DejaVuSans-51"/>
      </defs>
      <g style="fill:#262626;" transform="translate(384.463281 332.720312)scale(0.1 -0.1)">
       <use xlink:href="#DejaVuSans-51"/>
       <use x="63.623047" xlink:href="#DejaVuSans-48"/>
       <use x="127.246094" xlink:href="#DejaVuSans-48"/>
      </g>
     </g>
    </g>
   </g>
   <g id="matplotlib.axis_2">
    <g id="ytick_1">
     <g id="line2d_6"/>
     <g id="text_6">
      <!-- 300 -->
      <g style="fill:#262626;" transform="translate(12.878505 50.733082)scale(0.1 -0.1)">
       <use xlink:href="#DejaVuSans-51"/>
       <use x="63.623047" xlink:href="#DejaVuSans-48"/>
       <use x="127.246094" xlink:href="#DejaVuSans-48"/>
      </g>
     </g>
    </g>
    <g id="ytick_2">
     <g id="line2d_7"/>
     <g id="text_7">
      <!-- 325 -->
      <g style="fill:#262626;" transform="translate(12.878505 87.288359)scale(0.1 -0.1)">
       <use xlink:href="#DejaVuSans-51"/>
       <use x="63.623047" xlink:href="#DejaVuSans-50"/>
       <use x="127.246094" xlink:href="#DejaVuSans-53"/>
      </g>
     </g>
    </g>
    <g id="ytick_3">
     <g id="line2d_8"/>
     <g id="text_8">
      <!-- 350 -->
      <g style="fill:#262626;" transform="translate(12.878505 123.843637)scale(0.1 -0.1)">
       <use xlink:href="#DejaVuSans-51"/>
       <use x="63.623047" xlink:href="#DejaVuSans-53"/>
       <use x="127.246094" xlink:href="#DejaVuSans-48"/>
      </g>
     </g>
    </g>
    <g id="ytick_4">
     <g id="line2d_9"/>
     <g id="text_9">
      <!-- 375 -->
      <defs>
       <path d="M 8.203125 72.90625 
L 55.078125 72.90625 
L 55.078125 68.703125 
L 28.609375 0 
L 18.3125 0 
L 43.21875 64.59375 
L 8.203125 64.59375 
z
" id="DejaVuSans-55"/>
      </defs>
      <g style="fill:#262626;" transform="translate(12.878505 160.398914)scale(0.1 -0.1)">
       <use xlink:href="#DejaVuSans-51"/>
       <use x="63.623047" xlink:href="#DejaVuSans-55"/>
       <use x="127.246094" xlink:href="#DejaVuSans-53"/>
      </g>
     </g>
    </g>
    <g id="ytick_5">
     <g id="line2d_10"/>
     <g id="text_10">
      <!-- 400 -->
      <defs>
       <path d="M 37.796875 64.3125 
L 12.890625 25.390625 
L 37.796875 25.390625 
z
M 35.203125 72.90625 
L 47.609375 72.90625 
L 47.609375 25.390625 
L 58.015625 25.390625 
L 58.015625 17.1875 
L 47.609375 17.1875 
L 47.609375 0 
L 37.796875 0 
L 37.796875 17.1875 
L 4.890625 17.1875 
L 4.890625 26.703125 
z
" id="DejaVuSans-52"/>
      </defs>
      <g style="fill:#262626;" transform="translate(12.878505 196.954191)scale(0.1 -0.1)">
       <use xlink:href="#DejaVuSans-52"/>
       <use x="63.623047" xlink:href="#DejaVuSans-48"/>
       <use x="127.246094" xlink:href="#DejaVuSans-48"/>
      </g>
     </g>
    </g>
    <g id="ytick_6">
     <g id="line2d_11"/>
     <g id="text_11">
      <!-- 425 -->
      <g style="fill:#262626;" transform="translate(12.878505 233.509468)scale(0.1 -0.1)">
       <use xlink:href="#DejaVuSans-52"/>
       <use x="63.623047" xlink:href="#DejaVuSans-50"/>
       <use x="127.246094" xlink:href="#DejaVuSans-53"/>
      </g>
     </g>
    </g>
    <g id="ytick_7">
     <g id="line2d_12"/>
     <g id="text_12">
      <!-- 450 -->
      <g style="fill:#262626;" transform="translate(12.878505 270.064746)scale(0.1 -0.1)">
       <use xlink:href="#DejaVuSans-52"/>
       <use x="63.623047" xlink:href="#DejaVuSans-53"/>
       <use x="127.246094" xlink:href="#DejaVuSans-48"/>
      </g>
     </g>
    </g>
    <g id="ytick_8">
     <g id="line2d_13"/>
     <g id="text_13">
      <!-- 475 -->
      <g style="fill:#262626;" transform="translate(12.878505 306.620023)scale(0.1 -0.1)">
       <use xlink:href="#DejaVuSans-52"/>
       <use x="63.623047" xlink:href="#DejaVuSans-55"/>
       <use x="127.246094" xlink:href="#DejaVuSans-53"/>
      </g>
     </g>
    </g>
   </g>
   <g id="patch_3">
    <path clip-path="url(#p7ee9e02137)" d="M 68.874201 205.551346 
L 72.487757 199.730395 
L 77.857459 195.959611 
L 83.462023 192.514884 
L 87.980698 187.671823 
L 91.823975 181.830956 
L 95.502081 175.604114 
L 97.240373 166.314677 
L 101.405918 160.331619 
L 105.208337 153.58636 
L 108.194044 145.230748 
L 112.495007 138.760587 
L 116.617814 131.720432 
L 120.907776 124.685455 
L 124.493806 115.946212 
L 128.866854 108.330215 
L 134.068799 102.084763 
L 139.473255 95.997075 
L 145.970115 92.182487 
L 153.251387 90.218742 
L 160.679936 88.726995 
L 168.236515 87.716566 
L 175.883653 87.144428 
L 183.523214 86.769089 
L 191.001274 86.104724 
L 198.459821 85.568722 
L 205.905933 85.194082 
L 213.475785 85.541584 
L 221.293705 87.300062 
L 229.252877 90.305976 
L 237.079868 93.472455 
L 244.9671 97.905565 
L 252.410375 100.815364 
L 259.865818 104.824569 
L 267.391877 110.84318 
L 274.660591 116.714387 
L 281.883049 124.699635 
L 288.681945 130.923106 
L 295.26157 137.419504 
L 301.42871 138.936747 
L 307.538246 140.616976 
L 313.585421 142.975145 
L 319.564597 144.512609 
L 325.506075 145.696535 
L 331.39775 147.179903 
L 337.279469 148.218718 
L 343.172738 148.874822 
L 349.021339 149.909162 
L 354.662044 152.517153 
L 360.359717 154.242987 
L 366.152067 155.166659 
L 371.718232 157.371846 
L 377.32706 159.137095 
L 383.122689 159.912273 
L 388.752144 161.476552 
L 395.146614 159.935324 
L 401.061299 160.594979 
L 410.232609 126.367185 
L 406.030369 116.282966 
L 399.596666 114.503766 
L 392.580798 115.415372 
L 386.177502 113.605515 
L 379.808145 111.491668 
L 373.543626 108.49819 
L 367.36049 104.429899 
L 361.237247 98.966421 
L 354.931281 93.679816 
L 348.299959 90.270412 
L 341.625178 86.072189 
L 334.856217 81.188436 
L 327.921208 76.536166 
L 320.845499 71.129818 
L 313.585421 66.13705 
L 306.199574 63.924504 
L 298.745366 62.095839 
L 291.220908 60.31908 
L 283.658915 59.090436 
L 276.031106 57.811623 
L 268.281188 56.018422 
L 260.480209 54.552158 
L 252.552867 52.790215 
L 244.490499 50.811233 
L 236.411792 49.386006 
L 228.035222 46.941781 
L 219.846678 46.053291 
L 211.662998 45.584887 
L 203.426367 45.235568 
L 195.354587 45.815921 
L 187.368918 46.890148 
L 179.335012 47.946099 
L 171.624872 50.149757 
L 164.098871 52.918939 
L 156.505163 55.48494 
L 148.900209 58.039757 
L 142.301799 63.117562 
L 136.492675 69.855036 
L 130.661072 76.204587 
L 124.28862 81.111103 
L 117.921004 85.887896 
L 112.725538 92.849685 
L 107.039661 98.603325 
L 101.761566 104.919052 
L 98.091182 113.812431 
L 93.518236 120.806101 
L 89.55669 128.538487 
L 84.921798 134.9483 
L 79.394141 139.85655 
L 76.198403 148.035605 
L 71.713182 154.150825 
L 67.053531 159.900534 
L 70.570097 176.013971 
L 66.911121 182.44201 
L 63.074573 188.512199 
L 60.820703 196.286856 
z
" style="fill:#ff69b5;opacity:0.2;stroke:#ff69b5;stroke-linecap:round;stroke-linejoin:miter;stroke-width:0.5;"/>
   </g>
   <g id="patch_4">
    <path clip-path="url(#p7ee9e02137)" d="M 74.566813 286.498976 
L 77.752072 282.052599 
L 81.022096 277.658443 
L 81.026922 270.195093 
L 81.04277 262.495573 
L 81.231139 254.705119 
L 84.515826 249.850892 
L 87.836423 244.973239 
L 91.195507 240.07038 
L 94.595757 235.140611 
L 98.793644 231.08053 
L 100.569743 224.006946 
L 104.942009 220.008013 
L 109.271187 215.925255 
L 113.575765 211.769727 
L 117.430547 206.921209 
L 120.660427 201.036336 
L 123.978259 195.089976 
L 130.307633 193.753629 
L 135.223895 190.215973 
L 140.005002 186.409296 
L 144.707372 182.395336 
L 148.866001 177.267229 
L 152.803042 171.506217 
L 156.5913 165.173753 
L 160.371098 158.490227 
L 164.360918 151.895681 
L 169.048968 146.552857 
L 174.077601 141.76543 
L 179.323064 137.294003 
L 185.465218 135.052037 
L 191.712728 133.115402 
L 197.91042 131.048354 
L 203.745974 127.790758 
L 209.489753 124.034665 
L 215.31609 120.313265 
L 221.25745 116.752136 
L 227.304251 113.334596 
L 233.644356 110.966262 
L 240.045806 108.730879 
L 246.513918 106.678007 
L 253.04968 104.851774 
L 259.619702 103.073359 
L 266.216947 101.274139 
L 272.896384 99.92908 
L 279.687826 99.608118 
L 286.517261 99.966682 
L 293.311883 100.217248 
L 300.085653 100.476645 
L 306.846336 100.977469 
L 313.585421 101.543088 
L 320.298905 102.444125 
L 326.982101 103.428662 
L 333.636461 104.462755 
L 340.242848 105.840428 
L 346.804269 107.366233 
L 353.329896 108.915976 
L 359.816307 110.53905 
L 366.393172 111.312729 
L 372.987127 112.011789 
L 379.640702 112.441283 
L 386.305305 112.948027 
L 392.769379 114.528168 
L 399.155417 116.415025 
L 405.615472 117.947027 
L 412.184705 119.081864 
L 414.307926 111.157894 
L 412.930994 88.606072 
L 406.517774 84.525153 
L 399.724909 81.804973 
L 392.731986 79.885621 
L 385.815878 77.420119 
L 378.962177 74.286809 
L 372.051741 71.049912 
L 364.834248 69.671202 
L 357.520887 69.041364 
L 350.184199 68.733456 
L 342.814514 69.063896 
L 335.478104 69.322117 
L 328.196217 68.660929 
L 320.909961 67.436762 
L 313.585421 67.114705 
L 306.249233 66.769507 
L 298.915865 66.978295 
L 291.582652 67.221564 
L 284.241599 67.423199 
L 276.967411 68.513633 
L 269.765648 70.142118 
L 262.558976 71.482358 
L 255.394326 73.008248 
L 248.459146 75.868285 
L 241.726926 79.529625 
L 235.062669 83.094863 
L 228.556257 87.028639 
L 222.145604 90.99004 
L 215.771226 94.748095 
L 209.439049 98.37985 
L 202.999832 101.401624 
L 196.46698 103.982243 
L 190.187722 107.280337 
L 184.548246 112.308235 
L 178.904021 117.025298 
L 173.131705 121.164962 
L 166.303048 122.522736 
L 160.281915 125.898974 
L 155.316931 131.582553 
L 150.724965 137.804028 
L 146.067489 143.596742 
L 141.517665 149.357416 
L 137.059934 155.063247 
L 132.387764 160.170176 
L 127.55935 164.852795 
L 122.848946 169.6206 
L 118.272041 174.492656 
L 121.015126 190.527151 
L 115.992031 194.115154 
L 110.947174 197.661993 
L 105.930693 201.247188 
L 101.153918 205.153276 
L 96.251865 208.885136 
L 91.198086 212.433914 
L 85.849849 215.654715 
L 81.313306 219.860899 
L 81.230805 229.003457 
L 81.163459 237.817362 
L 81.110261 246.324327 
L 81.070304 254.544284 
L 77.979876 259.537772 
L 74.759639 264.350757 
L 71.568106 269.146032 
L 68.965036 274.414145 
L 65.700912 279.059601 
z
" style="fill:#00d9ff;opacity:0.2;stroke:#00d9ff;stroke-linecap:round;stroke-linejoin:miter;stroke-width:0.5;"/>
   </g>
   <g id="patch_5">
    <path clip-path="url(#p7ee9e02137)" d="M 107.018605 307.493608 
L 108.211157 302.139583 
L 111.754965 298.849457 
L 123.298341 303.301304 
L 126.367386 299.841367 
L 129.473165 296.405579 
L 132.838885 293.232471 
L 136.275085 290.136323 
L 139.651165 286.970929 
L 142.117013 282.711311 
L 144.396457 278.128432 
L 146.894951 273.705329 
L 150.089135 270.092502 
L 154.311912 267.838224 
L 158.727017 265.89868 
L 161.966266 262.27476 
L 164.602275 257.645474 
L 166.442989 251.582286 
L 168.10951 244.946828 
L 170.38808 239.034331 
L 173.427089 234.207077 
L 175.705993 227.745912 
L 178.433602 221.809022 
L 181.604142 216.457678 
L 185.089292 211.498564 
L 188.215377 205.473674 
L 191.102141 198.506877 
L 194.016098 191.114942 
L 197.157185 183.753477 
L 200.870011 177.376357 
L 205.372773 172.787052 
L 209.527664 166.802558 
L 213.231466 158.816406 
L 217.075273 150.488519 
L 221.482672 143.327264 
L 226.346405 137.162822 
L 231.486071 131.448049 
L 236.650968 125.111257 
L 242.001052 118.789752 
L 247.583945 112.746434 
L 253.44114 107.323359 
L 259.463188 101.959702 
L 265.798596 97.866944 
L 272.323479 94.478251 
L 278.857217 90.114221 
L 285.531011 85.862651 
L 292.394962 82.721354 
L 299.296442 77.876599 
L 306.387209 74.674117 
L 313.585421 72.499547 
L 320.850161 70.862727 
L 328.171681 69.363551 
L 335.499004 68.923329 
L 342.806852 69.17346 
L 350.01718 70.642492 
L 357.040603 73.610956 
L 364.376672 73.397854 
L 371.666123 73.79373 
L 378.824826 75.154006 
L 386.051337 76.084765 
L 393.226847 77.339783 
L 400.128809 79.904769 
L 406.696111 83.752693 
L 412.917944 88.65841 
L 420.81881 86.858943 
L 422.49737 80.594473 
L 418.965209 64.404154 
L 412.688454 57.797006 
L 405.678016 53.797805 
L 398.751547 48.917663 
L 391.749676 43.767883 
L 384.661429 38.303148 
L 376.832129 37.035688 
L 368.978017 35.922904 
L 361.072735 35.247788 
L 352.953102 37.084742 
L 345.107909 36.266813 
L 337.36804 33.259988 
L 329.483711 31.791931 
L 321.537018 31.51271 
L 313.585421 32.573265 
L 305.67932 34.119169 
L 297.84776 36.391769 
L 290.114961 39.216343 
L 282.409692 41.225712 
L 274.838549 44.180628 
L 267.379077 47.435412 
L 260.041989 50.983145 
L 252.688086 53.752351 
L 245.440353 56.808375 
L 238.31987 60.207253 
L 231.158261 63.008427 
L 224.103324 66.079233 
L 217.186695 69.510648 
L 210.755227 74.630021 
L 204.726049 80.790696 
L 198.681757 86.342704 
L 192.18413 89.973673 
L 185.843979 93.911669 
L 181.220943 102.645044 
L 177.56135 113.336339 
L 172.187997 118.70652 
L 167.314104 125.025188 
L 162.400745 130.890625 
L 157.742696 137.030911 
L 154.933361 146.828961 
L 151.902845 155.560995 
L 147.06458 160.24385 
L 142.265234 164.852991 
L 138.089443 170.456276 
L 137.720248 182.451987 
L 133.784589 187.820566 
L 129.581473 192.591531 
L 125.855555 197.980758 
L 122.407676 203.626739 
L 118.601067 208.592885 
L 116.01599 215.128409 
L 113.527744 221.573898 
L 111.333351 228.188557 
L 108.989538 234.404528 
L 106.870763 240.706465 
L 104.63778 246.692637 
L 101.953858 252.018739 
L 99.321432 257.289404 
L 96.443918 262.202793 
L 93.364199 266.83818 
L 90.26413 271.400537 
L 84.578726 273.507204 
L 80.810911 277.468291 
L 84.27939 287.72671 
z
" style="fill:#0000ff;opacity:0.2;stroke:#0000ff;stroke-linecap:round;stroke-linejoin:miter;stroke-width:0.5;"/>
   </g>
   <g id="patch_6">
    <path clip-path="url(#p7ee9e02137)" d="M 88.079566 227.64459 
L 89.960223 220.553269 
L 87.713793 208.131171 
L 90.134077 201.054724 
L 92.593264 193.792904 
L 95.503376 186.895218 
L 98.947756 180.525049 
L 102.261549 173.758878 
L 105.792969 167.087086 
L 109.963218 161.195759 
L 112.150125 151.814772 
L 115.027124 143.146343 
L 119.826283 137.508664 
L 124.48457 131.412427 
L 129.05893 124.905771 
L 132.966947 116.736651 
L 137.383464 109.193086 
L 141.055563 99.550997 
L 145.138793 90.224015 
L 151.353107 85.520335 
L 157.842532 81.335304 
L 164.986276 78.786605 
L 172.25549 76.60748 
L 179.588485 74.659238 
L 187.100974 73.347416 
L 195.185792 74.150826 
L 203.431492 75.959343 
L 211.656563 78.245082 
L 219.502446 79.541264 
L 227.260104 80.930717 
L 235.036045 82.957893 
L 243.053412 87.052504 
L 250.937019 91.51296 
L 258.570036 95.604601 
L 266.206439 101.188558 
L 274.13029 111.66891 
L 281.202986 116.926475 
L 288.020069 121.457833 
L 294.718324 127.053751 
L 301.244152 133.651697 
L 307.512222 139.126087 
L 313.585421 143.371744 
L 319.507727 147.770682 
L 325.255827 152.862687 
L 330.965637 155.42512 
L 336.650302 157.216227 
L 342.34626 158.321505 
L 348.019191 159.443965 
L 353.675528 160.55168 
L 359.352167 161.412081 
L 365.024845 162.283659 
L 371.009063 161.393744 
L 376.915211 161.255875 
L 382.861297 161.142026 
L 388.825727 161.157831 
L 394.599689 162.12892 
L 399.604083 166.033382 
L 403.866723 150.124994 
L 399.710561 141.63033 
L 393.726941 139.928341 
L 387.815264 137.835447 
L 381.846571 135.886228 
L 375.890885 133.707553 
L 369.914007 131.414702 
L 363.71229 130.388193 
L 357.516106 129.27268 
L 351.348915 127.76375 
L 345.298755 124.57433 
L 339.157068 121.367801 
L 332.932735 117.890662 
L 326.60731 114.16127 
L 320.169201 109.874888 
L 313.585421 106.511407 
L 306.82159 99.559807 
L 299.823838 92.979246 
L 292.633991 87.282313 
L 285.375 83.631589 
L 278.007689 80.404071 
L 270.396168 76.141113 
L 262.748881 73.029013 
L 254.726126 68.253754 
L 246.501642 63.50909 
L 238.750876 62.651611 
L 230.908899 61.725571 
L 223.056926 61.156321 
L 215.265053 61.187101 
L 207.532904 61.705989 
L 199.874011 62.682644 
L 192.317837 64.149077 
L 184.578885 65.098036 
L 176.608875 65.488943 
L 169.046448 67.287745 
L 161.50996 69.235506 
L 153.884343 71.023869 
L 146.586964 73.723715 
L 139.494692 76.927345 
L 132.343573 79.983547 
L 125.88298 84.530218 
L 120.170995 90.501062 
L 114.301404 95.942496 
L 108.993453 102.277874 
L 103.324289 107.738279 
L 98.396666 114.341546 
L 92.990632 119.928021 
L 90.0236 129.2857 
L 87.476089 138.881563 
L 85.324232 148.648272 
L 82.163257 156.5543 
L 77.283207 161.817307 
L 71.726533 166.101816 
L 65.725751 169.813491 
L 59.619329 173.437396 
L 58.511294 183.073894 
L 53.914952 188.342698 
z
" style="fill:#ff69b5;opacity:0.2;stroke:#ff69b5;stroke-linecap:round;stroke-linejoin:miter;stroke-width:0.5;"/>
   </g>
   <g id="patch_7">
    <path clip-path="url(#p7ee9e02137)" d="M 95.983965 297.901341 
L 99.416471 294.220813 
L 102.820626 290.51805 
L 105.813121 286.416024 
L 115.197404 288.671385 
L 118.478257 285.020019 
L 122.152948 281.773208 
L 121.281026 273.483734 
L 129.313075 275.078316 
L 133.386041 272.306143 
L 136.423105 268.282161 
L 135.846152 259.563512 
L 139.37676 255.8767 
L 141.659715 250.423968 
L 144.084014 244.986305 
L 144.375248 236.195003 
L 143.13494 224.588679 
L 142.188486 212.766969 
L 146.000219 208.150788 
L 142.153441 190.130501 
L 137.699434 169.752682 
L 137.96369 156.762965 
L 140.670932 147.695609 
L 143.314519 137.952318 
L 146.507887 128.760474 
L 150.042449 119.735872 
L 154.067811 111.259463 
L 159.234529 105.027538 
L 164.528753 98.753507 
L 169.508403 91.211049 
L 174.640263 83.533362 
L 179.968567 75.829012 
L 185.783549 69.038315 
L 191.904362 62.70712 
L 198.761772 58.53171 
L 206.061222 55.803396 
L 213.567356 53.833567 
L 221.33072 53.03516 
L 229.123819 52.542127 
L 236.835511 51.789036 
L 244.664393 51.909158 
L 252.434365 51.947033 
L 260.255737 52.723981 
L 268.147427 54.745767 
L 276.022899 57.717812 
L 283.803277 61.154906 
L 291.469677 65.065869 
L 299.019807 69.954788 
L 306.406917 75.803192 
L 313.585421 82.478756 
L 320.51559 90.030275 
L 327.201878 97.135086 
L 333.716723 102.931265 
L 339.999245 109.324115 
L 346.083689 115.602493 
L 352.028771 121.295356 
L 357.893743 126.197071 
L 363.686725 130.5701 
L 369.582447 133.508089 
L 375.525425 135.780183 
L 381.584747 137.233196 
L 387.662801 138.552726 
L 393.751541 139.821786 
L 399.852165 141.062388 
L 406.752418 139.355433 
L 414.451 110.623935 
L 408.02274 108.292 
L 401.793429 104.988543 
L 395.437452 101.975869 
L 389.035458 98.902607 
L 382.569956 95.828658 
L 376.179984 91.852885 
L 369.799847 87.072976 
L 363.243315 82.628309 
L 356.5913 77.885794 
L 349.824819 72.841178 
L 342.896335 67.893792 
L 335.818018 62.836179 
L 328.551012 58.500944 
L 321.107168 56.138801 
L 313.585421 51.815867 
L 305.888371 46.095707 
L 298.05008 42.185436 
L 290.104893 39.024235 
L 282.025769 35.73535 
L 273.877941 33.200837 
L 265.697904 31.440116 
L 257.350921 29.066156 
L 249.047598 27.848929 
L 240.555611 25.967332 
L 232.099233 24.928267 
L 223.897991 25.657572 
L 216.32513 29.485709 
L 208.538001 32.049036 
L 200.860638 34.944992 
L 193.239271 37.921455 
L 185.685832 41.020527 
L 178.092897 43.883324 
L 170.437538 46.495518 
L 162.86675 49.340598 
L 156.199898 54.646231 
L 149.856946 60.532142 
L 145.117178 70.085868 
L 140.140966 78.449872 
L 134.938599 85.81207 
L 129.049884 91.321665 
L 123.210781 96.733545 
L 118.064341 103.327677 
L 113.036462 109.881667 
L 112.894162 125.002786 
L 112.169367 138.196563 
L 110.679749 149.367656 
L 108.635627 159.07117 
L 106.474741 168.136922 
L 102.649821 174.334515 
L 97.367833 178.268684 
L 92.239576 182.402983 
L 86.951887 186.306544 
L 81.896296 190.510845 
L 83.312703 202.696276 
L 78.172482 206.505186 
L 96.068674 236.835008 
L 94.649937 243.906914 
L 99.301979 257.268544 
L 100.996663 266.917298 
L 97.746759 271.22074 
L 92.089888 273.163651 
L 87.948294 276.649377 
L 83.957562 280.301549 
L 80.11227 284.104288 
z
" style="fill:#b20000;opacity:0.2;stroke:#b20000;stroke-linecap:round;stroke-linejoin:miter;stroke-width:0.5;"/>
   </g>
   <g id="patch_8">
    <path clip-path="url(#p7ee9e02137)" d="M 91.113524 293.667532 
L 93.688528 289.06335 
L 92.836815 281.207996 
L 91.881947 272.962845 
L 90.882575 264.356556 
L 93.909137 259.57795 
L 99.542811 257.526804 
L 103.363245 253.584022 
L 106.88577 249.278653 
L 110.341484 244.842709 
L 112.575188 238.832437 
L 115.952371 234.100633 
L 119.639691 229.684724 
L 123.094031 224.870496 
L 125.655129 218.66713 
L 129.514523 214.163073 
L 133.282107 209.416646 
L 135.550239 202.143553 
L 139.09765 196.662984 
L 143.034829 191.657112 
L 147.118737 186.745555 
L 151.127277 181.520071 
L 154.479045 174.795557 
L 157.773599 167.597825 
L 161.784815 161.521951 
L 166.50658 156.714916 
L 171.373857 152.029952 
L 176.185625 146.982972 
L 181.025038 141.727797 
L 186.0057 136.536998 
L 191.222635 131.692067 
L 197.060683 128.433133 
L 202.795651 124.682392 
L 208.440341 120.374932 
L 214.133314 115.899087 
L 220.248386 112.705001 
L 226.738863 110.885631 
L 233.111786 108.460714 
L 239.351875 105.160917 
L 245.66043 101.837639 
L 252.099233 98.850887 
L 258.614157 95.918536 
L 265.261101 93.489402 
L 272.031917 91.704225 
L 278.863429 90.185215 
L 285.79555 89.645741 
L 292.741757 89.338597 
L 299.700576 89.449472 
L 306.645456 89.469076 
L 313.585421 89.651983 
L 320.525582 89.457799 
L 327.369677 92.329935 
L 334.290626 91.98055 
L 341.237447 91.616996 
L 348.212741 91.267314 
L 354.859305 94.364624 
L 361.722067 95.017882 
L 368.466364 96.561197 
L 375.091506 98.725261 
L 381.603902 101.307424 
L 388.10108 103.709566 
L 393.392512 111.596558 
L 399.755661 113.815084 
L 406.027751 116.293463 
L 410.629267 124.886836 
L 422.893896 79.114616 
L 419.750683 61.25379 
L 413.598111 53.856846 
L 407.20393 46.618941 
L 399.638054 44.356982 
L 392.326461 40.496769 
L 384.940664 36.540123 
L 377.608994 31.508006 
L 369.694105 30.090842 
L 361.629281 29.952608 
L 352.522324 42.008565 
L 344.715834 41.873745 
L 336.941164 41.405277 
L 329.154304 41.224916 
L 321.332932 43.204775 
L 313.585421 43.289624 
L 305.842489 43.467113 
L 298.114068 44.017815 
L 290.434894 45.321035 
L 282.820001 47.093397 
L 275.242222 48.794636 
L 267.670819 50.211148 
L 260.277994 52.905254 
L 253.162918 57.130953 
L 246.248436 61.910414 
L 239.351785 66.059531 
L 232.470385 69.75872 
L 225.639887 73.308195 
L 218.894146 76.906428 
L 212.101595 80.030009 
L 205.534409 83.807538 
L 199.307707 88.525653 
L 193.429948 94.048557 
L 187.486189 98.965872 
L 181.365002 103.063422 
L 175.458856 107.559784 
L 169.61255 111.997249 
L 164.132064 117.149363 
L 158.914217 122.67688 
L 154.186922 129.044511 
L 149.648245 135.494993 
L 145.237539 141.895093 
L 140.339929 147.045978 
L 135.177636 151.523159 
L 131.262611 158.140345 
L 127.522926 164.789707 
L 123.954028 171.459765 
L 121.47194 179.613565 
L 118.588512 186.790494 
L 114.685251 192.177773 
L 110.749248 197.379325 
L 108.427497 204.683744 
L 105.361345 210.73672 
L 103.295017 217.899958 
L 100.979873 224.513414 
L 99.418023 231.824635 
L 95.944072 236.691669 
L 92.352512 241.355364 
L 88.319425 245.491196 
L 90.871836 256.432733 
L 89.222381 262.696362 
L 84.685917 266.01372 
L 80.19902 269.423062 
L 75.879261 273.027814 
L 72.546531 277.527491 
z
" style="fill:#00d9ff;opacity:0.2;stroke:#00d9ff;stroke-linecap:round;stroke-linejoin:miter;stroke-width:0.5;"/>
   </g>
   <g id="patch_9">
    <path clip-path="url(#p7ee9e02137)" d="M 82.688986 293.314288 
L 87.520523 290.544184 
L 91.218652 286.839463 
L 94.727472 282.971062 
L 98.333522 279.193059 
L 114.2739 287.747881 
L 117.931497 284.453833 
L 123.111918 282.801577 
L 127.304828 280.173844 
L 130.404668 276.334051 
L 134.019792 273.061419 
L 137.793123 269.973993 
L 141.431542 266.712484 
L 144.935765 263.253749 
L 144.992973 255.011804 
L 146.026413 247.760339 
L 147.728391 241.166243 
L 149.555979 234.476211 
L 150.283388 225.72152 
L 152.502346 218.972145 
L 155.376697 213.033854 
L 158.336879 206.983618 
L 161.266446 200.589075 
L 164.504863 194.472333 
L 168.405431 189.39631 
L 171.953192 183.328107 
L 175.569845 177.071342 
L 179.394238 170.924787 
L 182.815759 163.393131 
L 186.987537 157.260639 
L 191.400188 151.358234 
L 196.081325 145.802727 
L 200.857144 140.117441 
L 205.808514 134.537022 
L 211.061257 129.515153 
L 216.400074 124.35875 
L 221.649463 118.324414 
L 227.541675 114.362993 
L 233.788628 111.645009 
L 240.09098 108.963281 
L 246.457858 106.360077 
L 252.868909 103.710435 
L 259.34072 101.088297 
L 265.885491 98.574646 
L 272.553882 96.670391 
L 279.341647 95.651278 
L 286.179794 95.140683 
L 293.015529 94.56248 
L 299.862436 94.084533 
L 306.725572 94.058945 
L 313.585421 94.850782 
L 320.42126 95.434402 
L 327.245358 95.889988 
L 334.04364 96.693322 
L 340.817994 97.615453 
L 347.641257 97.799414 
L 354.412145 98.619063 
L 361.110695 99.997105 
L 367.882025 100.718989 
L 374.822079 100.426358 
L 381.554229 101.589134 
L 388.217912 103.108516 
L 394.829508 104.836022 
L 401.475922 106.363816 
L 407.943398 108.610227 
L 413.550208 113.985737 
L 419.633846 91.281289 
L 415.665521 77.638483 
L 412.101764 60.338239 
L 405.858192 52.950141 
L 399.017139 47.551313 
L 391.648555 44.341367 
L 384.071593 42.027221 
L 376.170168 41.745782 
L 368.372611 40.853546 
L 360.449732 41.175259 
L 352.391416 43.504847 
L 344.506879 44.861953 
L 336.718445 45.654995 
L 328.978972 46.245775 
L 321.269843 46.819145 
L 313.585421 48.199854 
L 305.954055 49.858777 
L 298.360047 51.061751 
L 290.807526 52.431285 
L 283.358182 54.789748 
L 276.112858 58.746052 
L 268.966104 62.534964 
L 261.945828 66.488671 
L 255.140056 71.199023 
L 248.511802 76.200742 
L 241.905841 80.544304 
L 235.332936 84.485267 
L 229.155738 89.848975 
L 223.062431 94.961254 
L 216.814309 98.931672 
L 210.575805 102.622283 
L 204.66777 107.218413 
L 198.86797 111.835527 
L 193.407377 117.189413 
L 188.088012 122.588462 
L 183.062985 128.451955 
L 178.131162 134.188993 
L 173.543071 140.442422 
L 169.858798 148.460696 
L 165.514481 154.486626 
L 161.163517 160.189575 
L 155.919509 163.796377 
L 150.602729 167.187859 
L 145.970159 171.820943 
L 141.747861 177.056237 
L 137.2775 181.685125 
L 132.706298 186.025989 
L 128.292628 190.528946 
L 126.505391 198.981418 
L 123.881577 205.811887 
L 121.258724 212.388413 
L 118.45934 218.491391 
L 115.228534 223.830922 
L 112.785527 230.047258 
L 110.203097 235.903147 
L 107.252959 241.161948 
L 104.12291 246.100346 
L 100.88171 250.827999 
L 95.816132 253.53043 
L 90.154612 255.690025 
L 86.558756 260.032736 
L 85.225892 266.535168 
L 82.20158 271.290479 
L 78.818727 275.67452 
L 74.352097 279.097046 
L 68.053707 281.033831 
z
" style="fill:#0000ff;opacity:0.2;stroke:#0000ff;stroke-linecap:round;stroke-linejoin:miter;stroke-width:0.5;"/>
   </g>
   <g id="patch_10">
    <path clip-path="url(#p7ee9e02137)" d="M 93.104748 295.398477 
L 96.587685 291.673763 
L 100.300153 288.167671 
L 103.607401 284.285985 
L 111.827649 285.30163 
L 117.951285 284.474324 
L 125.018359 284.845984 
L 131.885494 285.261188 
L 139.73555 287.068002 
L 143.450517 284.300518 
L 145.778572 279.835201 
L 148.242172 275.429693 
L 151.228188 271.604076 
L 154.676633 268.340219 
L 147.31188 249.596176 
L 142.913441 234.027786 
L 138.115627 216.859614 
L 137.310003 204.959764 
L 135.506119 190.685674 
L 135.181315 178.054426 
L 132.263905 159.946728 
L 136.448742 153.913762 
L 139.585221 145.564781 
L 143.001107 137.309727 
L 146.708238 129.190127 
L 150.983994 121.850616 
L 155.698709 115.101617 
L 160.809566 108.925891 
L 164.375761 98.354948 
L 169.334696 90.733791 
L 174.749327 83.850108 
L 180.295197 76.834274 
L 186.403406 71.065775 
L 193.073188 66.783298 
L 199.919862 62.853763 
L 207.024888 59.66845 
L 214.248492 56.783889 
L 221.576356 54.190786 
L 229.111398 52.478231 
L 236.683417 50.926466 
L 244.403325 50.260837 
L 252.214795 50.384712 
L 260.029567 50.881978 
L 267.807756 51.514013 
L 275.551529 52.330025 
L 283.250413 53.248579 
L 290.930491 54.777595 
L 298.590282 57.65481 
L 306.143686 60.72268 
L 313.585421 63.295468 
L 320.926447 66.492313 
L 328.163768 69.59015 
L 335.29812 72.756421 
L 342.278339 76.731557 
L 349.022023 82.017186 
L 355.530083 87.982595 
L 361.99488 92.795991 
L 368.27031 97.956195 
L 374.586249 101.915328 
L 381.062164 104.379772 
L 387.430644 107.158661 
L 393.792934 109.712718 
L 400.207757 111.856842 
L 406.579299 114.081329 
L 411.442159 121.853084 
L 419.267122 92.649922 
L 411.69242 93.573718 
L 405.277568 89.897079 
L 398.65586 86.834453 
L 391.718671 85.098675 
L 385.123026 81.349483 
L 378.521279 77.070527 
L 371.877547 72.289373 
L 365.040648 67.990208 
L 358.030647 64.191324 
L 350.998008 59.431567 
L 343.845027 54.326867 
L 336.534092 49.172658 
L 329.052862 44.129844 
L 321.412961 38.619931 
L 313.585421 33.971109 
L 305.594237 29.24477 
L 297.498954 26.403274 
L 289.246511 22.645329 
L 280.867805 19.175701 
L 272.368326 15.945856 
L 263.866448 14.014977 
L 255.626435 15.021342 
L 247.372503 15.930013 
L 239.061449 16.533563 
L 230.93921 18.349447 
L 222.794732 19.981798 
L 214.498196 20.890662 
L 206.150818 21.709011 
L 197.785468 22.61116 
L 189.654101 24.54142 
L 181.593378 26.748444 
L 173.43977 28.663633 
L 165.157769 30.246061 
L 156.692552 31.409426 
L 148.450409 33.354686 
L 141.199477 37.978664 
L 133.786653 42.041835 
L 126.771595 46.953607 
L 120.959769 54.415105 
L 116.381366 64.153941 
L 110.646991 70.97396 
L 105.863189 79.381567 
L 103.166604 91.319165 
L 99.520597 100.876237 
L 96.468018 111.001029 
L 92.371792 118.898097 
L 86.947005 124.362118 
L 91.189974 144.600445 
L 85.871009 149.458903 
L 80.400699 154.037106 
L 89.123548 178.114137 
L 87.036748 186.419158 
L 83.070048 192.013179 
L 79.021147 197.396646 
L 74.71787 202.38814 
L 70.543031 207.471114 
L 109.496397 260.395577 
L 108.540115 267.175231 
L 107.659631 273.817004 
L 100.120138 273.594118 
L 103.564201 284.244267 
L 96.311865 284.448533 
L 91.536185 287.125371 
L 88.367167 291.28016 
z
" style="fill:#b20000;opacity:0.2;stroke:#b20000;stroke-linecap:round;stroke-linejoin:miter;stroke-width:0.5;"/>
   </g>
   <g id="line2d_14">
    <path clip-path="url(#p7ee9e02137)" d="M 64.847452 200.919101 
L 67.781165 194.121297 
L 72.38429 189.200811 
L 77.01606 184.264427 
L 77.517115 173.786178 
L 81.768579 167.990891 
L 85.850242 161.81986 
L 88.317257 153.085614 
L 93.163858 147.63996 
L 97.382514 141.062424 
L 100.85614 133.018424 
L 105.293094 126.286509 
L 109.18969 118.319742 
L 113.973718 111.64439 
L 118.609672 104.397948 
L 123.393929 97.109056 
L 129.17871 91.597933 
L 135.067164 86.100831 
L 141.231395 81.018762 
L 147.776593 76.668152 
L 154.790072 73.383376 
L 162.370839 71.600753 
L 169.991262 70.031683 
L 177.574043 68.459423 
L 185.168143 67.025412 
L 192.91437 66.229435 
L 200.63026 65.505002 
L 208.451076 65.388576 
L 216.478352 66.442475 
L 224.549778 68.179634 
L 232.557545 70.207118 
L 240.689446 73.645785 
L 248.450437 75.813298 
L 256.209343 78.807392 
L 263.936043 82.697669 
L 271.47089 86.366404 
L 278.957078 91.255629 
L 286.17043 95.006771 
L 293.241239 98.869292 
L 300.087038 100.516293 
L 306.86891 102.27074 
L 313.585421 104.556097 
L 320.205048 107.821214 
L 326.713641 111.11635 
L 333.126984 114.18417 
L 339.452324 117.145453 
L 345.736348 119.572617 
L 351.97631 121.794489 
L 357.949645 125.741787 
L 363.860104 129.336443 
L 369.847847 131.832425 
L 375.763189 134.431757 
L 381.752281 136.371305 
L 387.851744 137.663823 
L 394.174405 137.990159 
L 400.588491 138.109145 
L 405.646954 143.481082 
" style="fill:none;stroke:#ff69b5;stroke-linecap:round;"/>
   </g>
   <g id="line2d_15">
    <path clip-path="url(#p7ee9e02137)" d="M 70.133863 282.779289 
L 73.358554 278.233372 
L 76.295101 273.402238 
L 77.89328 267.272925 
L 79.511323 261.016672 
L 81.150721 254.624702 
L 82.813044 248.087609 
L 84.499941 241.395301 
L 86.213156 234.536919 
L 87.954532 227.500755 
L 92.321746 223.367623 
L 95.883915 218.22043 
L 100.596937 214.446574 
L 105.212552 210.539265 
L 109.753229 206.508457 
L 114.188861 202.291601 
L 118.326229 197.575745 
L 122.496692 192.808563 
L 124.289837 184.123142 
L 129.03642 179.918287 
L 133.782176 175.631046 
L 138.547568 171.282756 
L 142.962968 166.165238 
L 147.160354 160.431816 
L 151.329394 154.385247 
L 155.548032 148.147127 
L 159.838924 141.739117 
L 164.665441 136.225916 
L 170.190324 132.144083 
L 176.227384 129.229482 
L 182.18462 126.038668 
L 188.130487 122.711819 
L 194.049071 119.164346 
L 200.106477 115.8865 
L 206.244793 112.718145 
L 212.377569 109.346558 
L 218.514338 105.750116 
L 224.724927 102.162318 
L 231.100307 98.99745 
L 237.554237 95.912871 
L 244.120422 93.103816 
L 250.754413 90.36003 
L 257.507014 88.040804 
L 264.387961 86.378248 
L 271.331016 85.035599 
L 278.327618 84.060875 
L 285.37943 83.694941 
L 292.447267 83.719406 
L 299.500759 83.72747 
L 306.547784 83.873488 
L 313.585421 84.328897 
L 320.604433 84.940444 
L 327.589159 86.044796 
L 334.557283 86.892436 
L 341.528681 87.452162 
L 348.494234 88.049845 
L 355.425392 88.97867 
L 362.325277 90.105126 
L 369.222457 91.181321 
L 375.974652 93.149299 
L 382.72829 94.930701 
L 389.518646 96.416824 
L 396.247144 98.16657 
L 402.836596 100.470089 
L 409.273233 103.276549 
L 413.246315 115.119879 
" style="fill:none;stroke:#00d9ff;stroke-linecap:round;"/>
   </g>
   <g id="line2d_16">
    <path clip-path="url(#p7ee9e02137)" d="M 81.922996 292.671546 
L 95.648997 297.610159 
L 94.511034 289.803937 
L 98.166846 286.17833 
L 106.781235 287.350921 
L 109.865793 283.339773 
L 112.958541 279.304186 
L 116.080158 275.260937 
L 119.114471 271.077531 
L 122.144473 266.831783 
L 124.493888 261.708888 
L 126.692998 256.26648 
L 129.114151 250.946943 
L 131.80844 245.8332 
L 135.163951 241.483317 
L 138.664042 237.245783 
L 142.186971 232.950749 
L 145.228915 227.813116 
L 148.012231 222.086908 
L 150.947049 216.383697 
L 154.054164 210.743159 
L 155.758266 202.331676 
L 158.985613 196.299452 
L 162.749091 191.026436 
L 166.753493 186.009337 
L 170.011326 179.163762 
L 172.979037 171.252292 
L 176.751443 164.698751 
L 180.665101 158.070065 
L 184.672591 151.229998 
L 189.21568 145.356348 
L 193.296858 137.716048 
L 197.685822 130.357113 
L 202.707798 124.39504 
L 207.878515 118.415611 
L 213.104361 112.05898 
L 218.550816 105.896421 
L 224.336383 100.479349 
L 230.377146 95.595245 
L 236.579657 90.899089 
L 242.951908 86.476843 
L 249.440746 82.065867 
L 256.075637 77.856026 
L 262.920292 74.425044 
L 269.851278 70.956831 
L 276.847883 67.147424 
L 283.970352 63.544181 
L 291.254961 60.968849 
L 298.572101 57.134184 
L 306.033264 54.396643 
L 313.585421 52.536406 
L 321.193589 51.187719 
L 328.827696 50.577741 
L 336.433522 51.091659 
L 343.957381 52.720136 
L 351.485141 53.863617 
L 359.056669 54.429372 
L 366.677345 54.660379 
L 374.249126 55.414709 
L 381.743127 56.728577 
L 388.900507 59.926324 
L 395.989197 63.128723 
L 402.903413 66.851287 
L 409.692282 70.774849 
L 415.941577 76.531282 
L 421.65809 83.726708 
" style="fill:none;stroke:#0000ff;stroke-linecap:round;"/>
   </g>
   <g id="line2d_17">
    <path clip-path="url(#p7ee9e02137)" d="M 72.106335 284.43439 
L 75.028836 279.685326 
L 77.92365 274.86859 
L 80.636293 269.830825 
L 82.989252 264.37527 
L 84.464378 257.938359 
L 85.972156 251.358965 
L 87.514632 244.628161 
L 89.093991 237.73641 
L 70.997259 207.993644 
L 74.235758 201.813581 
L 73.666561 190.784283 
L 77.929914 185.434107 
L 82.159898 179.94736 
L 86.393292 174.356262 
L 90.555507 168.539674 
L 93.79289 161.203575 
L 96.634529 152.984325 
L 99.993409 145.24073 
L 102.570379 135.871396 
L 106.711895 128.743944 
L 111.575286 122.623472 
L 116.739012 116.845151 
L 121.680167 110.424133 
L 126.568971 103.618857 
L 131.633222 96.861652 
L 136.699568 89.767272 
L 142.316742 83.57568 
L 148.970035 79.622025 
L 155.863437 76.179587 
L 163.248118 74.011055 
L 170.650969 71.947613 
L 178.09868 70.07409 
L 185.839929 69.222726 
L 193.751814 69.149951 
L 201.652752 69.320994 
L 209.594733 69.975536 
L 217.383749 70.364183 
L 225.158515 71.043519 
L 232.972472 72.341732 
L 240.902144 74.852058 
L 248.71933 77.511025 
L 256.648081 81.929178 
L 264.47766 87.108785 
L 272.263229 93.905012 
L 279.605338 98.665273 
L 286.697534 102.544711 
L 293.676158 107.168032 
L 300.533995 113.315471 
L 307.166906 119.342947 
L 313.585421 124.941575 
L 319.838464 128.822785 
L 325.931569 133.511978 
L 331.949186 136.657891 
L 337.903685 139.292014 
L 343.822508 141.447918 
L 349.684053 143.603858 
L 355.595817 144.91218 
L 361.532228 145.900137 
L 367.469426 146.849181 
L 373.449974 147.550649 
L 379.380891 148.571052 
L 385.338281 149.488736 
L 391.276334 150.543086 
L 397.155125 151.879625 
L 401.735403 158.079188 
" style="fill:none;stroke:#ff69b5;stroke-dasharray:3.7,1.6;stroke-dashoffset:0;"/>
   </g>
   <g id="line2d_18">
    <path clip-path="url(#p7ee9e02137)" d="M 90.161615 299.584568 
L 88.048117 291.002815 
L 91.687017 287.261181 
L 95.38446 283.583714 
L 98.951505 279.789838 
L 106.472082 279.946062 
L 109.73746 275.968659 
L 110.727464 269.520876 
L 107.965482 258.695324 
L 112.690874 255.956662 
L 105.779262 239.405664 
L 109.867904 235.489219 
L 108.871224 225.037178 
L 113.164324 221.091622 
L 116.949645 216.413475 
L 120.725923 211.627495 
L 123.512534 205.264759 
L 124.804841 196.3628 
L 125.412057 185.91907 
L 128.339984 178.759222 
L 127.161404 164.163532 
L 125.296798 147.377734 
L 125.500076 133.322316 
L 129.367637 125.511643 
L 133.26265 117.342932 
L 137.778886 110.04107 
L 142.490524 102.773971 
L 147.104389 94.854668 
L 152.175853 87.556703 
L 157.19285 79.642824 
L 162.85415 72.92864 
L 168.753506 66.43698 
L 175.203053 61.162265 
L 181.938223 56.460819 
L 188.795097 51.863824 
L 196.000521 48.226582 
L 203.46093 45.374194 
L 211.052678 42.941301 
L 218.827925 41.260435 
L 226.510905 39.09985 
L 234.467372 38.358652 
L 242.610002 38.938245 
L 250.740981 39.897981 
L 258.803329 40.895068 
L 266.922665 43.092941 
L 274.95042 45.459324 
L 282.914523 48.445128 
L 290.787285 52.045052 
L 298.534943 56.070112 
L 306.147644 60.949449 
L 313.585421 67.147311 
L 320.811379 73.084538 
L 327.876445 77.818015 
L 334.76737 82.883722 
L 341.44779 88.608953 
L 347.954254 94.221835 
L 354.310035 99.590575 
L 360.568529 104.41269 
L 366.743286 108.821538 
L 372.881215 112.680487 
L 379.047691 115.80442 
L 385.310102 118.067902 
L 391.550127 120.264298 
L 397.772485 122.405164 
L 403.937453 124.677194 
L 410.601709 124.989684 
" style="fill:none;stroke:#b20000;stroke-dasharray:3.7,1.6;stroke-dashoffset:0;"/>
   </g>
   <g id="line2d_19">
    <path clip-path="url(#p7ee9e02137)" d="M 72.219679 284.529497 
L 81.830027 285.597511 
L 84.783894 281.045582 
L 86.517918 275.315529 
L 88.283932 269.488282 
L 90.052478 263.526459 
L 92.390487 258.005342 
L 93.931118 251.509 
L 97.857878 247.469693 
L 101.414921 242.985161 
L 104.879753 238.333672 
L 106.77753 231.672926 
L 109.623694 226.000296 
L 112.500518 220.210722 
L 115.760764 214.77712 
L 118.202188 208.023227 
L 122.099887 203.170423 
L 125.93531 198.10357 
L 128.51109 190.878559 
L 131.525839 184.061375 
L 135.278878 178.223409 
L 139.190674 172.44295 
L 143.152457 166.521615 
L 147.409487 160.920768 
L 151.505569 154.746459 
L 155.71653 148.508472 
L 160.346751 142.879713 
L 165.144037 137.353416 
L 170.158844 132.066168 
L 175.318794 126.862523 
L 180.732278 122.048391 
L 186.293818 117.377745 
L 192.273436 113.699502 
L 198.112799 109.365475 
L 203.874024 104.450293 
L 209.833862 99.853312 
L 216.17499 96.367505 
L 222.816504 93.89603 
L 229.375836 90.884454 
L 235.91113 87.459819 
L 242.506108 83.948585 
L 249.173834 80.380651 
L 255.888537 76.524744 
L 262.769548 73.197328 
L 269.851368 70.957686 
L 277.052825 69.489925 
L 284.307776 68.369569 
L 291.588325 67.329816 
L 298.907322 66.733644 
L 306.243972 66.468094 
L 313.585421 66.470803 
L 320.929257 66.331287 
L 328.261991 66.777425 
L 335.615895 66.692914 
L 342.976641 66.745371 
L 350.367533 66.63794 
L 358.244293 62.158616 
L 365.708086 62.554362 
L 373.037679 64.034601 
L 380.016085 67.632692 
L 386.965182 70.902096 
L 393.869567 74.033274 
L 400.298221 79.10775 
L 406.676886 83.835965 
L 412.889217 88.773627 
L 416.761582 102.000726 
" style="fill:none;stroke:#00d9ff;stroke-dasharray:3.7,1.6;stroke-dashoffset:0;"/>
   </g>
   <g id="line2d_20">
    <path clip-path="url(#p7ee9e02137)" d="M 75.371347 287.17406 
L 80.93631 284.820615 
L 85.018689 281.256992 
L 88.464526 277.130771 
L 91.779707 272.864113 
L 100.416328 273.890309 
L 104.043055 270.071929 
L 109.464025 268.166003 
L 114.093269 265.500921 
L 117.263789 261.217199 
L 120.636376 257.111684 
L 123.99811 252.93857 
L 127.108535 248.379871 
L 130.08215 243.542336 
L 131.726156 236.751598 
L 133.642569 230.074376 
L 135.804984 223.489065 
L 138.030685 216.728814 
L 139.288008 208.125233 
L 142.604322 202.499067 
L 146.327099 197.35949 
L 150.04237 192.019927 
L 153.618303 186.205009 
L 157.553796 180.830096 
L 162.16247 176.596343 
L 166.558355 171.758841 
L 170.542163 165.778984 
L 174.626518 159.692742 
L 178.179415 151.917777 
L 182.55935 145.724816 
L 187.231586 139.905094 
L 192.084668 134.195595 
L 197.13226 128.653427 
L 202.338242 123.186275 
L 207.864514 118.366783 
L 213.48794 113.490517 
L 219.231886 108.628043 
L 225.302053 104.662124 
L 231.472183 100.746992 
L 237.711958 96.724274 
L 244.18185 93.45219 
L 250.690356 89.955588 
L 257.240388 86.14366 
L 263.915659 82.531658 
L 270.759993 79.602678 
L 277.727253 77.198665 
L 284.768988 74.965215 
L 291.911528 73.496883 
L 299.111242 72.573142 
L 306.339814 71.958861 
L 313.585421 71.525318 
L 320.845552 71.126773 
L 328.112165 71.067882 
L 335.381043 71.174158 
L 342.662436 71.238703 
L 350.016336 70.65213 
L 357.430939 69.897161 
L 364.741653 70.425326 
L 372.026097 71.232385 
L 379.446836 71.22679 
L 386.601392 72.96525 
L 393.617526 75.329914 
L 400.34385 78.893081 
L 406.788843 83.351028 
L 411.804459 93.124355 
L 416.592027 102.633513 
" style="fill:none;stroke:#0000ff;stroke-dasharray:3.7,1.6;stroke-dashoffset:0;"/>
   </g>
   <g id="line2d_21">
    <path clip-path="url(#p7ee9e02137)" d="M 90.735957 293.339318 
L 94.061935 289.399567 
L 98.306009 286.308102 
L 103.585801 284.265126 
L 105.973893 279.447874 
L 112.805458 279.145664 
L 116.779237 276.010608 
L 120.690945 272.828383 
L 105.13929 247.269558 
L 109.084193 243.344329 
L 112.399859 238.615923 
L 115.65611 233.721436 
L 119.132468 229.011617 
L 121.90009 223.227178 
L 113.85629 201.816641 
L 114.392225 191.743344 
L 114.652801 180.730029 
L 112.128504 164.660941 
L 113.938955 154.791885 
L 115.824667 144.527728 
L 115.892251 130.411482 
L 119.807673 122.616463 
L 122.724205 112.473174 
L 126.824049 104.141843 
L 131.544802 96.672034 
L 135.971881 88.132861 
L 141.235152 81.027612 
L 147.298109 75.483863 
L 152.787619 68.166806 
L 158.892552 62.044239 
L 165.72094 57.629767 
L 172.726483 53.540167 
L 179.921588 49.864704 
L 187.333283 46.765871 
L 194.786982 43.697591 
L 202.405178 41.139805 
L 210.199655 39.24645 
L 218.037276 37.540724 
L 225.953065 36.230014 
L 233.811313 34.637956 
L 241.732387 33.3972 
L 249.793649 33.157363 
L 257.828001 32.95166 
L 265.837102 32.764495 
L 273.959927 34.137941 
L 282.059109 36.21214 
L 290.088501 38.711462 
L 298.044618 42.029042 
L 305.868961 44.983725 
L 313.585421 48.633288 
L 321.169704 52.556122 
L 328.608315 56.859997 
L 335.916106 60.964539 
L 343.061683 65.529212 
L 350.010016 70.724376 
L 356.780365 76.08696 
L 363.517764 80.3931 
L 370.073928 85.122784 
L 376.553764 89.492927 
L 383.092595 92.864627 
L 389.574657 96.128668 
L 396.224397 98.273585 
L 402.742662 100.876961 
L 409.135859 103.827523 
L 415.35464 107.251503 
" style="fill:none;stroke:#b20000;stroke-linecap:round;"/>
   </g>
   <g id="patch_11">
    <path d="M 35.466005 321.621875 
L 35.466005 10.8 
" style="fill:none;stroke:#262626;stroke-linecap:square;stroke-linejoin:miter;stroke-width:1.25;"/>
   </g>
   <g id="patch_12">
    <path d="M 441.342844 321.621875 
L 441.342844 10.8 
" style="fill:none;stroke:#262626;stroke-linecap:square;stroke-linejoin:miter;stroke-width:1.25;"/>
   </g>
   <g id="patch_13">
    <path d="M 35.466005 321.621875 
L 441.342844 321.621875 
" style="fill:none;stroke:#262626;stroke-linecap:square;stroke-linejoin:miter;stroke-width:1.25;"/>
   </g>
   <g id="patch_14">
    <path d="M 35.466005 10.8 
L 441.342844 10.8 
" style="fill:none;stroke:#262626;stroke-linecap:square;stroke-linejoin:miter;stroke-width:1.25;"/>
   </g>
   <g id="legend_1">
    <g id="line2d_22">
     <path d="M 336.372531 263.007812 
L 356.372531 263.007812 
" style="fill:none;stroke:#b20000;stroke-dasharray:3.7,1.6;stroke-dashoffset:0;"/>
    </g>
    <g id="line2d_23"/>
    <g id="text_14">
     <!-- u -->
     <defs>
      <path d="M 8.5 21.578125 
L 8.5 54.6875 
L 17.484375 54.6875 
L 17.484375 21.921875 
Q 17.484375 14.15625 20.5 10.265625 
Q 23.53125 6.390625 29.59375 6.390625 
Q 36.859375 6.390625 41.078125 11.03125 
Q 45.3125 15.671875 45.3125 23.6875 
L 45.3125 54.6875 
L 54.296875 54.6875 
L 54.296875 0 
L 45.3125 0 
L 45.3125 8.40625 
Q 42.046875 3.421875 37.71875 1 
Q 33.40625 -1.421875 27.6875 -1.421875 
Q 18.265625 -1.421875 13.375 4.4375 
Q 8.5 10.296875 8.5 21.578125 
z
M 31.109375 56 
z
" id="DejaVuSans-117"/>
     </defs>
     <g style="fill:#262626;" transform="translate(364.372531 266.507812)scale(0.1 -0.1)">
      <use xlink:href="#DejaVuSans-117"/>
     </g>
    </g>
    <g id="line2d_24">
     <path d="M 336.372531 277.685937 
L 356.372531 277.685937 
" style="fill:none;stroke:#b20000;stroke-linecap:round;"/>
    </g>
    <g id="line2d_25"/>
    <g id="text_15">
     <!-- ɯ -->
     <defs>
      <path d="M 46 10.546875 
Q 42.71875 4.640625 37.9375 1.65625 
Q 33.25 -1.265625 26.90625 -1.265625 
Q 18.359375 -1.265625 13.71875 4.734375 
Q 9.078125 10.75 9.078125 21.78125 
L 9.078125 54.78125 
L 18.109375 54.78125 
L 18.109375 22.078125 
Q 18.109375 14.15625 20.890625 10.34375 
Q 23.6875 6.546875 29.390625 6.546875 
Q 36.375 6.546875 40.4375 11.234375 
Q 44.484375 15.828125 44.484375 23.828125 
L 44.484375 54.78125 
L 53.515625 54.78125 
L 53.515625 22.078125 
Q 53.515625 14.15625 56.296875 10.34375 
Q 59.078125 6.546875 64.890625 6.546875 
Q 71.78125 6.546875 75.828125 11.234375 
Q 79.890625 15.921875 79.890625 23.828125 
L 79.890625 54.78125 
L 88.921875 54.78125 
L 88.921875 0 
L 79.890625 0 
L 79.890625 8.59375 
Q 76.90625 3.65625 72.515625 1.171875 
Q 68.21875 -1.265625 62.3125 -1.265625 
Q 56.34375 -1.265625 52.15625 1.765625 
Q 48 4.78125 46 10.546875 
z
" id="DejaVuSans-623"/>
     </defs>
     <g style="fill:#262626;" transform="translate(364.372531 281.185937)scale(0.1 -0.1)">
      <use xlink:href="#DejaVuSans-623"/>
     </g>
    </g>
    <g id="line2d_26">
     <path d="M 336.372531 292.364062 
L 356.372531 292.364062 
" style="fill:none;stroke:#ff69b5;stroke-dasharray:3.7,1.6;stroke-dashoffset:0;"/>
    </g>
    <g id="line2d_27"/>
    <g id="text_16">
     <!-- o -->
     <defs>
      <path d="M 30.609375 48.390625 
Q 23.390625 48.390625 19.1875 42.75 
Q 14.984375 37.109375 14.984375 27.296875 
Q 14.984375 17.484375 19.15625 11.84375 
Q 23.34375 6.203125 30.609375 6.203125 
Q 37.796875 6.203125 41.984375 11.859375 
Q 46.1875 17.53125 46.1875 27.296875 
Q 46.1875 37.015625 41.984375 42.703125 
Q 37.796875 48.390625 30.609375 48.390625 
z
M 30.609375 56 
Q 42.328125 56 49.015625 48.375 
Q 55.71875 40.765625 55.71875 27.296875 
Q 55.71875 13.875 49.015625 6.21875 
Q 42.328125 -1.421875 30.609375 -1.421875 
Q 18.84375 -1.421875 12.171875 6.21875 
Q 5.515625 13.875 5.515625 27.296875 
Q 5.515625 40.765625 12.171875 48.375 
Q 18.84375 56 30.609375 56 
z
" id="DejaVuSans-111"/>
     </defs>
     <g style="fill:#262626;" transform="translate(364.372531 295.864062)scale(0.1 -0.1)">
      <use xlink:href="#DejaVuSans-111"/>
     </g>
    </g>
    <g id="line2d_28">
     <path d="M 336.372531 307.042187 
L 356.372531 307.042187 
" style="fill:none;stroke:#ff69b5;stroke-linecap:round;"/>
    </g>
    <g id="line2d_29"/>
    <g id="text_17">
     <!-- a -->
     <defs>
      <path d="M 34.28125 27.484375 
Q 23.390625 27.484375 19.1875 25 
Q 14.984375 22.515625 14.984375 16.5 
Q 14.984375 11.71875 18.140625 8.90625 
Q 21.296875 6.109375 26.703125 6.109375 
Q 34.1875 6.109375 38.703125 11.40625 
Q 43.21875 16.703125 43.21875 25.484375 
L 43.21875 27.484375 
z
M 52.203125 31.203125 
L 52.203125 0 
L 43.21875 0 
L 43.21875 8.296875 
Q 40.140625 3.328125 35.546875 0.953125 
Q 30.953125 -1.421875 24.3125 -1.421875 
Q 15.921875 -1.421875 10.953125 3.296875 
Q 6 8.015625 6 15.921875 
Q 6 25.140625 12.171875 29.828125 
Q 18.359375 34.515625 30.609375 34.515625 
L 43.21875 34.515625 
L 43.21875 35.40625 
Q 43.21875 41.609375 39.140625 45 
Q 35.0625 48.390625 27.6875 48.390625 
Q 23 48.390625 18.546875 47.265625 
Q 14.109375 46.140625 10.015625 43.890625 
L 10.015625 52.203125 
Q 14.9375 54.109375 19.578125 55.046875 
Q 24.21875 56 28.609375 56 
Q 40.484375 56 46.34375 49.84375 
Q 52.203125 43.703125 52.203125 31.203125 
z
" id="DejaVuSans-97"/>
     </defs>
     <g style="fill:#262626;" transform="translate(364.372531 310.542187)scale(0.1 -0.1)">
      <use xlink:href="#DejaVuSans-97"/>
     </g>
    </g>
    <g id="line2d_30">
     <path d="M 394.113156 263.007812 
L 414.113156 263.007812 
" style="fill:none;stroke:#0000ff;stroke-linecap:round;"/>
    </g>
    <g id="line2d_31"/>
    <g id="text_18">
     <!-- i -->
     <defs>
      <path d="M 9.421875 54.6875 
L 18.40625 54.6875 
L 18.40625 0 
L 9.421875 0 
z
M 9.421875 75.984375 
L 18.40625 75.984375 
L 18.40625 64.59375 
L 9.421875 64.59375 
z
" id="DejaVuSans-105"/>
     </defs>
     <g style="fill:#262626;" transform="translate(422.113156 266.507812)scale(0.1 -0.1)">
      <use xlink:href="#DejaVuSans-105"/>
     </g>
    </g>
    <g id="line2d_32">
     <path d="M 394.113156 277.685937 
L 414.113156 277.685937 
" style="fill:none;stroke:#0000ff;stroke-dasharray:3.7,1.6;stroke-dashoffset:0;"/>
    </g>
    <g id="line2d_33"/>
    <g id="text_19">
     <!-- y -->
     <defs>
      <path d="M 32.171875 -5.078125 
Q 28.375 -14.84375 24.75 -17.8125 
Q 21.140625 -20.796875 15.09375 -20.796875 
L 7.90625 -20.796875 
L 7.90625 -13.28125 
L 13.1875 -13.28125 
Q 16.890625 -13.28125 18.9375 -11.515625 
Q 21 -9.765625 23.484375 -3.21875 
L 25.09375 0.875 
L 2.984375 54.6875 
L 12.5 54.6875 
L 29.59375 11.921875 
L 46.6875 54.6875 
L 56.203125 54.6875 
z
" id="DejaVuSans-121"/>
     </defs>
     <g style="fill:#262626;" transform="translate(422.113156 281.185937)scale(0.1 -0.1)">
      <use xlink:href="#DejaVuSans-121"/>
     </g>
    </g>
    <g id="line2d_34">
     <path d="M 394.113156 292.364062 
L 414.113156 292.364062 
" style="fill:none;stroke:#00d9ff;stroke-linecap:round;"/>
    </g>
    <g id="line2d_35"/>
    <g id="text_20">
     <!-- e -->
     <defs>
      <path d="M 56.203125 29.59375 
L 56.203125 25.203125 
L 14.890625 25.203125 
Q 15.484375 15.921875 20.484375 11.0625 
Q 25.484375 6.203125 34.421875 6.203125 
Q 39.59375 6.203125 44.453125 7.46875 
Q 49.3125 8.734375 54.109375 11.28125 
L 54.109375 2.78125 
Q 49.265625 0.734375 44.1875 -0.34375 
Q 39.109375 -1.421875 33.890625 -1.421875 
Q 20.796875 -1.421875 13.15625 6.1875 
Q 5.515625 13.8125 5.515625 26.8125 
Q 5.515625 40.234375 12.765625 48.109375 
Q 20.015625 56 32.328125 56 
Q 43.359375 56 49.78125 48.890625 
Q 56.203125 41.796875 56.203125 29.59375 
z
M 47.21875 32.234375 
Q 47.125 39.59375 43.09375 43.984375 
Q 39.0625 48.390625 32.421875 48.390625 
Q 24.90625 48.390625 20.390625 44.140625 
Q 15.875 39.890625 15.1875 32.171875 
z
" id="DejaVuSans-101"/>
     </defs>
     <g style="fill:#262626;" transform="translate(422.113156 295.864062)scale(0.1 -0.1)">
      <use xlink:href="#DejaVuSans-101"/>
     </g>
    </g>
    <g id="line2d_36">
     <path d="M 394.113156 307.042187 
L 414.113156 307.042187 
" style="fill:none;stroke:#00d9ff;stroke-dasharray:3.7,1.6;stroke-dashoffset:0;"/>
    </g>
    <g id="line2d_37"/>
    <g id="text_21">
     <!-- œ -->
     <defs>
      <path d="M 87.984375 32.234375 
Q 87.890625 39.65625 83.890625 44.015625 
Q 79.890625 48.390625 73.1875 48.390625 
Q 65.71875 48.390625 61.203125 44.140625 
Q 56.6875 39.890625 56 32.171875 
z
M 97.015625 29.59375 
L 97.015625 25.203125 
L 55.71875 25.203125 
Q 56.296875 15.921875 61.28125 11.0625 
Q 66.265625 6.203125 75.203125 6.203125 
Q 80.375 6.203125 85.25 7.46875 
Q 90.140625 8.734375 94.921875 11.28125 
L 94.921875 2.78125 
Q 90.046875 0.734375 84.96875 -0.34375 
Q 79.890625 -1.421875 74.703125 -1.421875 
Q 66.890625 -1.421875 60.984375 1.265625 
Q 55.078125 3.953125 51.125 9.28125 
Q 47.65625 3.90625 42.546875 1.234375 
Q 37.453125 -1.421875 30.609375 -1.421875 
Q 18.84375 -1.421875 12.171875 6.21875 
Q 5.515625 13.875 5.515625 27.296875 
Q 5.515625 40.765625 12.171875 48.375 
Q 18.84375 56 30.609375 56 
Q 37.453125 56 42.59375 53.296875 
Q 47.75 50.59375 50.984375 45.3125 
Q 54.78125 50.53125 60.4375 53.265625 
Q 66.109375 56 73.09375 56 
Q 84.125 56 90.5625 48.890625 
Q 97.015625 41.796875 97.015625 29.59375 
z
M 30.609375 48.390625 
Q 23.390625 48.390625 19.1875 42.75 
Q 14.984375 37.109375 14.984375 27.296875 
Q 14.984375 17.484375 19.15625 11.84375 
Q 23.34375 6.203125 30.609375 6.203125 
Q 37.796875 6.203125 41.984375 11.859375 
Q 46.1875 17.53125 46.1875 27.296875 
Q 46.1875 37.015625 41.984375 42.703125 
Q 37.796875 48.390625 30.609375 48.390625 
z
" id="DejaVuSans-339"/>
     </defs>
     <g style="fill:#262626;" transform="translate(422.113156 310.542187)scale(0.1 -0.1)">
      <use xlink:href="#DejaVuSans-339"/>
     </g>
    </g>
   </g>
  </g>
 </g>
 <defs>
  <clipPath id="p7ee9e02137">
   <rect height="310.821875" width="405.876838" x="35.466005" y="10.8"/>
  </clipPath>
 </defs>
</svg>
