<?xml version="1.0" encoding="utf-8" standalone="no"?>
<!DOCTYPE svg PUBLIC "-//W3C//DTD SVG 1.1//EN"
  "http://www.w3.org/Graphics/SVG/1.1/DTD/svg11.dtd">
<!-- Created with matplotlib (https://matplotlib.org/) -->
<svg height="345.6pt" version="1.1" viewBox="0 0 460.8 345.6" width="460.8pt" xmlns="http://www.w3.org/2000/svg" xmlns:xlink="http://www.w3.org/1999/xlink">
 <defs>
  <style type="text/css">
*{stroke-linecap:butt;stroke-linejoin:round;}
  </style>
 </defs>
 <g id="figure_1">
  <g id="patch_1">
   <path d="M 0 345.6 
L 460.8 345.6 
L 460.8 0 
L 0 0 
z
" style="fill:#ffffff;"/>
  </g>
  <g id="axes_1">
   <g id="patch_2">
    <path d="M 34.316694 321.621875 
L 441.565716 321.621875 
L 441.565716 10.8 
L 34.316694 10.8 
z
" style="fill:#ffffff;"/>
   </g>
   <g id="matplotlib.axis_1">
    <g id="xtick_1">
     <g id="line2d_1"/>
     <g id="text_1">
      <!-- 100 -->
      <defs>
       <path d="M 12.40625 8.296875 
L 28.515625 8.296875 
L 28.515625 63.921875 
L 10.984375 60.40625 
L 10.984375 69.390625 
L 28.421875 72.90625 
L 38.28125 72.90625 
L 38.28125 8.296875 
L 54.390625 8.296875 
L 54.390625 0 
L 12.40625 0 
z
" id="DejaVuSans-49"/>
       <path d="M 31.78125 66.40625 
Q 24.171875 66.40625 20.328125 58.90625 
Q 16.5 51.421875 16.5 36.375 
Q 16.5 21.390625 20.328125 13.890625 
Q 24.171875 6.390625 31.78125 6.390625 
Q 39.453125 6.390625 43.28125 13.890625 
Q 47.125 21.390625 47.125 36.375 
Q 47.125 51.421875 43.28125 58.90625 
Q 39.453125 66.40625 31.78125 66.40625 
z
M 31.78125 74.21875 
Q 44.046875 74.21875 50.515625 64.515625 
Q 56.984375 54.828125 56.984375 36.375 
Q 56.984375 17.96875 50.515625 8.265625 
Q 44.046875 -1.421875 31.78125 -1.421875 
Q 19.53125 -1.421875 13.0625 8.265625 
Q 6.59375 17.96875 6.59375 36.375 
Q 6.59375 54.828125 13.0625 64.515625 
Q 19.53125 74.21875 31.78125 74.21875 
z
" id="DejaVuSans-48"/>
      </defs>
      <g style="fill:#262626;" transform="translate(91.18597 332.720312)scale(0.1 -0.1)">
       <use xlink:href="#DejaVuSans-49"/>
       <use x="63.623047" xlink:href="#DejaVuSans-48"/>
       <use x="127.246094" xlink:href="#DejaVuSans-48"/>
      </g>
     </g>
    </g>
    <g id="xtick_2">
     <g id="line2d_2"/>
     <g id="text_2">
      <!-- 150 -->
      <defs>
       <path d="M 10.796875 72.90625 
L 49.515625 72.90625 
L 49.515625 64.59375 
L 19.828125 64.59375 
L 19.828125 46.734375 
Q 21.96875 47.46875 24.109375 47.828125 
Q 26.265625 48.1875 28.421875 48.1875 
Q 40.625 48.1875 47.75 41.5 
Q 54.890625 34.8125 54.890625 23.390625 
Q 54.890625 11.625 47.5625 5.09375 
Q 40.234375 -1.421875 26.90625 -1.421875 
Q 22.3125 -1.421875 17.546875 -0.640625 
Q 12.796875 0.140625 7.71875 1.703125 
L 7.71875 11.625 
Q 12.109375 9.234375 16.796875 8.0625 
Q 21.484375 6.890625 26.703125 6.890625 
Q 35.15625 6.890625 40.078125 11.328125 
Q 45.015625 15.765625 45.015625 23.390625 
Q 45.015625 31 40.078125 35.4375 
Q 35.15625 39.890625 26.703125 39.890625 
Q 22.75 39.890625 18.8125 39.015625 
Q 14.890625 38.140625 10.796875 36.28125 
z
" id="DejaVuSans-53"/>
      </defs>
      <g style="fill:#262626;" transform="translate(171.468999 332.720312)scale(0.1 -0.1)">
       <use xlink:href="#DejaVuSans-49"/>
       <use x="63.623047" xlink:href="#DejaVuSans-53"/>
       <use x="127.246094" xlink:href="#DejaVuSans-48"/>
      </g>
     </g>
    </g>
    <g id="xtick_3">
     <g id="line2d_3"/>
     <g id="text_3">
      <!-- 200 -->
      <defs>
       <path d="M 19.1875 8.296875 
L 53.609375 8.296875 
L 53.609375 0 
L 7.328125 0 
L 7.328125 8.296875 
Q 12.9375 14.109375 22.625 23.890625 
Q 32.328125 33.6875 34.8125 36.53125 
Q 39.546875 41.84375 41.421875 45.53125 
Q 43.3125 49.21875 43.3125 52.78125 
Q 43.3125 58.59375 39.234375 62.25 
Q 35.15625 65.921875 28.609375 65.921875 
Q 23.96875 65.921875 18.8125 64.3125 
Q 13.671875 62.703125 7.8125 59.421875 
L 7.8125 69.390625 
Q 13.765625 71.78125 18.9375 73 
Q 24.125 74.21875 28.421875 74.21875 
Q 39.75 74.21875 46.484375 68.546875 
Q 53.21875 62.890625 53.21875 53.421875 
Q 53.21875 48.921875 51.53125 44.890625 
Q 49.859375 40.875 45.40625 35.40625 
Q 44.1875 33.984375 37.640625 27.21875 
Q 31.109375 20.453125 19.1875 8.296875 
z
" id="DejaVuSans-50"/>
      </defs>
      <g style="fill:#262626;" transform="translate(251.752029 332.720312)scale(0.1 -0.1)">
       <use xlink:href="#DejaVuSans-50"/>
       <use x="63.623047" xlink:href="#DejaVuSans-48"/>
       <use x="127.246094" xlink:href="#DejaVuSans-48"/>
      </g>
     </g>
    </g>
    <g id="xtick_4">
     <g id="line2d_4"/>
     <g id="text_4">
      <!-- 250 -->
      <g style="fill:#262626;" transform="translate(332.035058 332.720312)scale(0.1 -0.1)">
       <use xlink:href="#DejaVuSans-50"/>
       <use x="63.623047" xlink:href="#DejaVuSans-53"/>
       <use x="127.246094" xlink:href="#DejaVuSans-48"/>
      </g>
     </g>
    </g>
    <g id="xtick_5">
     <g id="line2d_5"/>
     <g id="text_5">
      <!-- 300 -->
      <defs>
       <path d="M 40.578125 39.3125 
Q 47.65625 37.796875 51.625 33 
Q 55.609375 28.21875 55.609375 21.1875 
Q 55.609375 10.40625 48.1875 4.484375 
Q 40.765625 -1.421875 27.09375 -1.421875 
Q 22.515625 -1.421875 17.65625 -0.515625 
Q 12.796875 0.390625 7.625 2.203125 
L 7.625 11.71875 
Q 11.71875 9.328125 16.59375 8.109375 
Q 21.484375 6.890625 26.8125 6.890625 
Q 36.078125 6.890625 40.9375 10.546875 
Q 45.796875 14.203125 45.796875 21.1875 
Q 45.796875 27.640625 41.28125 31.265625 
Q 36.765625 34.90625 28.71875 34.90625 
L 20.21875 34.90625 
L 20.21875 43.015625 
L 29.109375 43.015625 
Q 36.375 43.015625 40.234375 45.921875 
Q 44.09375 48.828125 44.09375 54.296875 
Q 44.09375 59.90625 40.109375 62.90625 
Q 36.140625 65.921875 28.71875 65.921875 
Q 24.65625 65.921875 20.015625 65.03125 
Q 15.375 64.15625 9.8125 62.3125 
L 9.8125 71.09375 
Q 15.4375 72.65625 20.34375 73.4375 
Q 25.25 74.21875 29.59375 74.21875 
Q 40.828125 74.21875 47.359375 69.109375 
Q 53.90625 64.015625 53.90625 55.328125 
Q 53.90625 49.265625 50.4375 45.09375 
Q 46.96875 40.921875 40.578125 39.3125 
z
" id="DejaVuSans-51"/>
      </defs>
      <g style="fill:#262626;" transform="translate(412.318088 332.720312)scale(0.1 -0.1)">
       <use xlink:href="#DejaVuSans-51"/>
       <use x="63.623047" xlink:href="#DejaVuSans-48"/>
       <use x="127.246094" xlink:href="#DejaVuSans-48"/>
      </g>
     </g>
    </g>
   </g>
   <g id="matplotlib.axis_2">
    <g id="ytick_1">
     <g id="line2d_6"/>
     <g id="text_6">
      <!-- 300 -->
      <g style="fill:#262626;" transform="translate(11.729194 46.700054)scale(0.1 -0.1)">
       <use xlink:href="#DejaVuSans-51"/>
       <use x="63.623047" xlink:href="#DejaVuSans-48"/>
       <use x="127.246094" xlink:href="#DejaVuSans-48"/>
      </g>
     </g>
    </g>
    <g id="ytick_2">
     <g id="line2d_7"/>
     <g id="text_7">
      <!-- 325 -->
      <g style="fill:#262626;" transform="translate(11.729194 86.841568)scale(0.1 -0.1)">
       <use xlink:href="#DejaVuSans-51"/>
       <use x="63.623047" xlink:href="#DejaVuSans-50"/>
       <use x="127.246094" xlink:href="#DejaVuSans-53"/>
      </g>
     </g>
    </g>
    <g id="ytick_3">
     <g id="line2d_8"/>
     <g id="text_8">
      <!-- 350 -->
      <g style="fill:#262626;" transform="translate(11.729194 126.983083)scale(0.1 -0.1)">
       <use xlink:href="#DejaVuSans-51"/>
       <use x="63.623047" xlink:href="#DejaVuSans-53"/>
       <use x="127.246094" xlink:href="#DejaVuSans-48"/>
      </g>
     </g>
    </g>
    <g id="ytick_4">
     <g id="line2d_9"/>
     <g id="text_9">
      <!-- 375 -->
      <defs>
       <path d="M 8.203125 72.90625 
L 55.078125 72.90625 
L 55.078125 68.703125 
L 28.609375 0 
L 18.3125 0 
L 43.21875 64.59375 
L 8.203125 64.59375 
z
" id="DejaVuSans-55"/>
      </defs>
      <g style="fill:#262626;" transform="translate(11.729194 167.124598)scale(0.1 -0.1)">
       <use xlink:href="#DejaVuSans-51"/>
       <use x="63.623047" xlink:href="#DejaVuSans-55"/>
       <use x="127.246094" xlink:href="#DejaVuSans-53"/>
      </g>
     </g>
    </g>
    <g id="ytick_5">
     <g id="line2d_10"/>
     <g id="text_10">
      <!-- 400 -->
      <defs>
       <path d="M 37.796875 64.3125 
L 12.890625 25.390625 
L 37.796875 25.390625 
z
M 35.203125 72.90625 
L 47.609375 72.90625 
L 47.609375 25.390625 
L 58.015625 25.390625 
L 58.015625 17.1875 
L 47.609375 17.1875 
L 47.609375 0 
L 37.796875 0 
L 37.796875 17.1875 
L 4.890625 17.1875 
L 4.890625 26.703125 
z
" id="DejaVuSans-52"/>
      </defs>
      <g style="fill:#262626;" transform="translate(11.729194 207.266113)scale(0.1 -0.1)">
       <use xlink:href="#DejaVuSans-52"/>
       <use x="63.623047" xlink:href="#DejaVuSans-48"/>
       <use x="127.246094" xlink:href="#DejaVuSans-48"/>
      </g>
     </g>
    </g>
    <g id="ytick_6">
     <g id="line2d_11"/>
     <g id="text_11">
      <!-- 425 -->
      <g style="fill:#262626;" transform="translate(11.729194 247.407627)scale(0.1 -0.1)">
       <use xlink:href="#DejaVuSans-52"/>
       <use x="63.623047" xlink:href="#DejaVuSans-50"/>
       <use x="127.246094" xlink:href="#DejaVuSans-53"/>
      </g>
     </g>
    </g>
    <g id="ytick_7">
     <g id="line2d_12"/>
     <g id="text_12">
      <!-- 450 -->
      <g style="fill:#262626;" transform="translate(11.729194 287.549142)scale(0.1 -0.1)">
       <use xlink:href="#DejaVuSans-52"/>
       <use x="63.623047" xlink:href="#DejaVuSans-53"/>
       <use x="127.246094" xlink:href="#DejaVuSans-48"/>
      </g>
     </g>
    </g>
   </g>
   <g id="patch_3">
    <path clip-path="url(#p94f32e173a)" d="M 74.71433 288.170635 
L 78.632692 283.564626 
L 82.58633 278.979311 
L 86.138116 273.975302 
L 88.397694 267.581573 
L 90.259253 260.605964 
L 93.857561 255.359313 
L 98.304392 251.009435 
L 101.563453 245.224179 
L 104.398599 238.785819 
L 108.158203 233.34819 
L 112.206889 228.179914 
L 114.595651 220.62653 
L 117.70192 213.811424 
L 122.085903 208.653354 
L 127.002393 204.198329 
L 132.336267 200.34153 
L 136.745419 194.915631 
L 139.184594 185.911483 
L 143.107297 179.110076 
L 148.010035 173.850966 
L 153.422806 169.412802 
L 159.136179 165.47176 
L 165.400174 162.625832 
L 171.837074 160.174089 
L 178.288145 157.78953 
L 184.37207 154.526594 
L 190.018746 150.051903 
L 195.736292 145.552107 
L 201.782368 141.762749 
L 208.082245 138.572145 
L 214.396994 135.300335 
L 220.664745 131.702204 
L 227.189679 128.830429 
L 234.007837 126.978146 
L 241.24518 126.918621 
L 248.257235 126.062781 
L 254.966873 123.764698 
L 261.851848 122.264891 
L 268.922488 121.874527 
L 275.916873 121.122294 
L 282.924041 120.539623 
L 289.92186 119.96004 
L 296.949381 119.782051 
L 304.02458 120.503636 
L 310.810269 116.510301 
L 317.92511 118.30936 
L 325.049412 124.742955 
L 331.944845 129.239922 
L 338.685041 133.636459 
L 345.277626 137.981118 
L 351.729262 142.272861 
L 357.648032 152.209331 
L 363.169277 162.885133 
L 364.235632 150.696648 
L 358.046476 146.511317 
L 351.799235 140.937702 
L 345.590805 129.012856 
L 338.986429 116.369943 
L 331.944845 102.93539 
L 324.424108 88.919331 
L 316.760008 84.945197 
L 309.255544 86.844381 
L 301.570467 85.408197 
L 293.594472 81.435264 
L 285.428547 77.209016 
L 277.217886 74.066716 
L 268.982156 71.779223 
L 260.95277 71.55571 
L 253.043502 72.31028 
L 245.164537 73.33605 
L 237.319179 74.603274 
L 229.702146 76.920249 
L 222.422927 80.51361 
L 215.101692 83.717449 
L 207.622578 86.218762 
L 200.214972 88.91303 
L 192.930791 91.940764 
L 186.179013 96.447317 
L 179.424709 100.736401 
L 172.45346 104.292768 
L 165.496663 107.808323 
L 158.841349 111.975751 
L 153.019537 117.909208 
L 147.136727 123.459743 
L 141.566656 129.448898 
L 136.132321 135.478315 
L 131.569498 142.930813 
L 127.31519 150.620361 
L 125.293635 161.851635 
L 123.012098 172.059547 
L 121.058078 182.292656 
L 117.010826 188.812666 
L 112.716972 194.763342 
L 108.335116 200.434242 
L 105.868318 208.614387 
L 102.554348 215.37056 
L 98.795838 221.36491 
L 95.226172 227.458815 
L 92.095602 233.940833 
L 90.500905 242.032549 
L 89.144423 250.124844 
L 86.985015 257.094774 
L 83.129089 262.125772 
L 76.260594 264.097779 
L 73.796116 270.490701 
L 68.495508 274.111549 
L 62.442275 277.120826 
z
" style="fill:#ff69b5;opacity:0.2;stroke:#ff69b5;stroke-linecap:round;stroke-linejoin:miter;stroke-width:0.5;"/>
   </g>
   <g id="patch_4">
    <path clip-path="url(#p94f32e173a)" d="M 89.771751 293.951966 
L 93.439868 289.460452 
L 97.28447 285.121656 
L 101.099607 280.734788 
L 104.853365 276.256233 
L 108.86876 272.030939 
L 112.42587 267.254337 
L 115.806948 262.198916 
L 119.284901 257.168871 
L 143.28555 278.309144 
L 147.505677 275.022988 
L 151.735339 271.744925 
L 155.3857 267.629439 
L 158.482154 262.613016 
L 161.226565 256.898933 
L 163.266989 249.841033 
L 166.351351 244.188177 
L 168.845321 237.285368 
L 171.862272 230.985423 
L 175.708324 225.943871 
L 180.348784 222.258009 
L 185.12178 218.750137 
L 189.800458 214.952409 
L 194.493929 211.062219 
L 198.818468 206.15594 
L 203.114606 200.915999 
L 207.510313 195.618993 
L 212.088545 190.479554 
L 216.967966 185.864929 
L 222.011088 181.440718 
L 227.189317 177.142139 
L 232.367532 172.514672 
L 237.888527 168.759074 
L 243.608462 165.484152 
L 249.425803 162.352793 
L 255.385539 159.598817 
L 261.478259 157.262872 
L 267.651303 155.155234 
L 273.943148 153.573728 
L 280.30688 152.358821 
L 286.859839 152.594122 
L 293.325657 152.344998 
L 298.775985 140.660233 
L 304.381426 125.606782 
L 311.194906 123.849612 
L 318.041496 121.642206 
L 324.965567 119.93945 
L 331.944845 113.156745 
L 331.944845 101.703416 
L 324.626991 100.542473 
L 317.291509 100.16539 
L 309.93302 99.7714 
L 302.577457 99.808819 
L 295.26293 100.505828 
L 288.353855 105.041467 
L 281.450444 108.538141 
L 275.307841 116.78881 
L 269.323131 124.404092 
L 263.128702 129.506293 
L 257.005196 134.250957 
L 250.89715 138.482607 
L 244.80292 142.328887 
L 238.883151 146.531962 
L 233.178987 151.18283 
L 228.161022 157.844829 
L 223.183224 164.038797 
L 217.7321 168.271345 
L 212.231238 172.10847 
L 206.662669 175.57208 
L 201.06704 178.833693 
L 195.446081 181.935733 
L 189.597458 184.432602 
L 183.729709 186.885385 
L 178.062542 189.780366 
L 172.621531 193.120829 
L 167.73612 197.504263 
L 162.829833 201.722952 
L 158.514525 206.905452 
L 154.728218 212.833828 
L 149.975968 216.934961 
L 145.096489 220.762155 
L 140.318367 224.70313 
L 132.926011 224.724475 
L 128.7863 229.64156 
L 124.827117 234.708934 
L 121.021869 239.877787 
L 117.242888 244.976058 
L 116.821484 254.126804 
L 112.588816 258.363695 
L 107.877211 262.021704 
L 102.624343 265.095811 
L 97.410986 268.275259 
L 92.145588 271.46263 
L 87.534235 275.37142 
L 83.013231 279.391565 
L 82.844328 287.49204 
z
" style="fill:#00d9ff;opacity:0.2;stroke:#00d9ff;stroke-linecap:round;stroke-linejoin:miter;stroke-width:0.5;"/>
   </g>
   <g id="patch_5">
    <path clip-path="url(#p94f32e173a)" d="M 58.002515 264.326674 
L 61.999586 259.098924 
L 65.931933 253.769118 
L 70.115834 248.650153 
L 73.832102 242.990001 
L 78.09696 237.855392 
L 82.803357 233.177534 
L 87.452042 228.406854 
L 92.093053 223.589734 
L 98.28981 220.717223 
L 103.75013 216.957416 
L 106.904609 210.040718 
L 109.653075 202.316482 
L 111.254906 192.595741 
L 116.218912 187.593225 
L 120.825714 181.920795 
L 126.566038 177.974296 
L 130.227748 170.39777 
L 133.705733 162.149206 
L 134.804583 149.015122 
L 137.795729 138.742937 
L 141.889675 130.111186 
L 146.29746 121.659928 
L 150.98933 113.349291 
L 156.295409 105.977891 
L 162.462272 100.297942 
L 167.967484 92.6064 
L 174.485561 87.166203 
L 181.389448 82.537409 
L 188.298389 77.683699 
L 195.413928 73.209522 
L 202.807578 69.42686 
L 210.470381 66.43316 
L 218.412924 64.430366 
L 226.417737 62.693908 
L 234.38798 60.813065 
L 242.431464 59.275605 
L 250.483876 57.79392 
L 258.751409 57.656865 
L 266.957933 57.376123 
L 275.197342 57.610711 
L 283.47592 58.631017 
L 291.801692 60.94369 
L 300.467469 69.634578 
L 308.715348 76.536822 
L 316.791338 85.84238 
L 324.505774 93.597948 
L 331.944845 120.450412 
L 338.608804 138.004041 
L 345.513111 131.237718 
L 351.503027 146.589683 
L 358.270076 143.313683 
L 365.359171 137.854528 
L 371.572067 142.754196 
L 372.552542 133.425595 
L 366.722054 122.276715 
L 360.223561 115.377552 
L 353.80057 102.749956 
L 346.911578 91.19088 
L 339.58902 81.847515 
L 331.944845 71.409039 
L 323.989801 64.037849 
L 315.506633 49.053226 
L 306.95022 42.856172 
L 298.172157 36.810097 
L 289.163157 30.785097 
L 280.326858 28.669692 
L 271.407346 26.743666 
L 262.626226 26.554427 
L 253.968722 27.460169 
L 245.88033 31.68591 
L 237.420634 33.497121 
L 228.946752 35.214103 
L 220.45667 36.87369 
L 212.58511 41.056283 
L 204.584451 44.466568 
L 196.461801 47.296507 
L 188.419373 50.331366 
L 180.149319 52.603438 
L 172.049228 55.411439 
L 164.260263 59.072427 
L 157.61855 65.646505 
L 151.501119 73.168137 
L 147.544383 85.361765 
L 142.335632 93.912765 
L 136.171506 99.944751 
L 129.382873 104.468441 
L 122.39367 108.514693 
L 116.311169 114.23407 
L 107.065126 114.088278 
L 100.197692 118.384187 
L 93.275271 122.569155 
L 99.50965 147.807963 
L 99.342964 161.606544 
L 90.68811 162.104212 
L 87.836257 171.158837 
L 81.800701 175.488153 
L 80.482577 186.08033 
L 75.100742 191.036569 
L 86.451414 216.62289 
L 81.52214 221.339872 
L 76.550997 225.985016 
L 71.702301 230.753404 
L 66.972951 235.634462 
L 62.363023 240.621882 
L 57.600837 245.438022 
L 52.828013 250.242039 
L 57.967983 264.294473 
z
" style="fill:#ff69b5;opacity:0.2;stroke:#ff69b5;stroke-linecap:round;stroke-linejoin:miter;stroke-width:0.5;"/>
   </g>
   <g id="patch_6">
    <path clip-path="url(#p94f32e173a)" d="M 140.844618 160.374776 
L 148.382372 159.520392 
L 155.505081 158.026904 
L 161.793023 154.890271 
L 167.714029 150.913579 
L 173.364456 146.190045 
L 178.595576 140.22927 
L 183.774548 133.785211 
L 189.110771 127.348639 
L 195.331199 123.027193 
L 201.418717 118.063916 
L 208.141719 114.840251 
L 214.974091 111.856535 
L 221.666417 108.217335 
L 228.324569 104.183804 
L 235.089234 100.25429 
L 241.931668 96.303329 
L 249.016694 93.153677 
L 256.729016 93.21187 
L 264.467302 93.745591 
L 272.357447 95.795664 
L 280.209792 98.433836 
L 288.270705 104.250345 
L 296.01431 109.094135 
L 303.495247 112.933832 
L 310.829669 116.880466 
L 318.000416 120.46584 
L 325.095252 127.369139 
L 331.944845 134.183245 
L 338.542756 141.787935 
L 344.89431 148.957864 
L 351.0959 154.358137 
L 357.190014 158.759291 
L 363.360218 160.702668 
L 369.368501 163.719728 
L 375.387873 165.966958 
L 381.320876 168.453309 
L 387.216471 170.810719 
L 393.222451 172.259455 
L 399.209629 173.734713 
L 405.200054 175.143369 
L 411.191769 176.525889 
L 411.50899 175.151855 
L 405.652438 173.015069 
L 399.765981 170.872531 
L 393.84485 168.729656 
L 387.914895 166.401041 
L 381.944933 164.012915 
L 376.083009 160.305528 
L 370.307033 154.790186 
L 364.627989 146.21198 
L 359.245234 129.368271 
L 353.006485 117.901988 
L 346.212541 111.20868 
L 339.192317 104.574624 
L 331.944845 97.753812 
L 324.490531 92.724707 
L 316.870541 88.110444 
L 309.118769 84.234558 
L 301.329958 81.968751 
L 293.462326 79.924833 
L 285.582959 78.678155 
L 278.104462 81.287297 
L 270.608025 83.347879 
L 263.31086 86.444103 
L 256.084187 89.554858 
L 248.969754 92.912193 
L 241.449377 94.034327 
L 233.820995 94.760944 
L 226.13784 95.413314 
L 218.541525 96.555079 
L 211.269716 98.937845 
L 203.608611 100.013125 
L 195.726259 100.544331 
L 187.884496 101.400398 
L 181.445547 106.288609 
L 174.883227 110.622528 
L 167.984779 113.966628 
L 161.049077 117.176832 
L 154.09625 120.327546 
L 147.450522 124.132678 
L 141.147789 128.590093 
L 138.327623 139.786836 
L 134.081386 147.654988 
z
" style="fill:#b20000;opacity:0.2;stroke:#b20000;stroke-linecap:round;stroke-linejoin:miter;stroke-width:0.5;"/>
   </g>
   <g id="patch_7">
    <path clip-path="url(#p94f32e173a)" d="M 104.403431 228.542301 
L 109.647529 224.783529 
L 114.784731 220.886775 
L 119.598456 216.519958 
L 124.179675 211.757498 
L 129.707825 208.364329 
L 143.741306 218.593408 
L 147.943013 213.551557 
L 153.073266 209.967367 
L 158.331083 206.574514 
L 162.242877 200.619049 
L 165.459883 193.036894 
L 167.989337 183.623422 
L 171.788105 176.324794 
L 176.644851 170.972532 
L 181.73816 165.917257 
L 186.685753 160.253161 
L 191.464457 153.818108 
L 196.631391 148.011372 
L 199.838279 136.116704 
L 203.02247 122.999759 
L 208.763818 116.875048 
L 214.730127 111.005729 
L 221.465366 107.467001 
L 228.39218 104.454976 
L 235.381971 101.52227 
L 242.479171 98.879129 
L 249.629565 96.306628 
L 256.905575 94.213185 
L 263.716933 89.007951 
L 270.807922 84.770224 
L 278.4685 84.252154 
L 286.129733 83.880356 
L 293.706373 82.714298 
L 301.291186 81.41428 
L 308.903943 80.135443 
L 316.530014 78.359029 
L 324.324954 83.238791 
L 331.944845 99.812737 
L 339.193964 104.480277 
L 346.249795 110.141848 
L 352.495895 127.644628 
L 358.830415 135.300469 
L 365.038597 141.518707 
L 371.379222 144.588991 
L 377.535496 148.47597 
L 383.245491 154.758965 
L 388.543153 162.434373 
L 393.954956 168.105213 
L 399.413614 172.685304 
L 402.39837 157.330064 
L 396.264867 155.005057 
L 390.062673 152.840506 
L 383.917655 149.976273 
L 378.252391 142.637336 
L 372.486218 134.056632 
L 366.916238 120.057173 
L 361.0369 103.746251 
L 354.742266 84.781315 
L 347.562293 72.556817 
L 339.848622 66.97495 
L 331.944845 62.100393 
L 323.964034 62.561698 
L 315.962577 62.109755 
L 307.812193 59.303611 
L 299.629835 57.655862 
L 291.462449 57.066132 
L 283.27868 56.754405 
L 275.215645 57.759778 
L 267.180423 58.959222 
L 258.937775 58.83353 
L 250.753503 59.32305 
L 242.706363 60.68984 
L 234.781894 62.666285 
L 226.967852 65.076719 
L 218.998902 66.780594 
L 211.115176 68.839566 
L 204.450259 75.155572 
L 198.185204 82.273959 
L 191.973362 88.994101 
L 187.717008 100.913977 
L 183.217665 111.157461 
L 177.83103 118.301817 
L 171.240385 122.024534 
L 165.474768 127.603106 
L 161.009612 135.855211 
L 156.910155 144.418926 
L 153.901512 154.739102 
L 148.188549 159.139994 
L 142.549933 163.582007 
L 136.153288 166.564711 
L 130.328405 170.572113 
L 125.351843 175.953537 
L 122.119779 183.991732 
L 114.875812 185.525032 
L 109.74706 190.360268 
L 104.332731 194.718244 
L 98.329067 198.237497 
L 92.386873 201.877864 
L 87.052252 206.333805 
z
" style="fill:#0000ff;opacity:0.2;stroke:#0000ff;stroke-linecap:round;stroke-linejoin:miter;stroke-width:0.5;"/>
   </g>
   <g id="patch_8">
    <path clip-path="url(#p94f32e173a)" d="M 110.206398 214.58524 
L 115.054414 210.030394 
L 119.882466 205.386625 
L 124.54207 200.409764 
L 129.249742 195.402058 
L 134.052662 190.434131 
L 138.937463 185.483439 
L 143.870732 180.487349 
L 148.908825 175.541344 
L 154.142376 170.825036 
L 159.367896 165.94685 
L 164.681537 161.08471 
L 169.564715 155.070288 
L 172.179936 143.399493 
L 176.326796 134.613843 
L 182.865203 131.416286 
L 189.49168 128.395176 
L 196.002739 124.977487 
L 202.001918 119.858822 
L 208.076046 114.625447 
L 214.345211 109.663369 
L 220.931559 105.474806 
L 227.662779 101.52951 
L 234.656827 98.381328 
L 241.62183 94.845654 
L 248.633217 91.18086 
L 255.719449 87.486328 
L 262.904449 83.878126 
L 268.280778 66.788654 
L 275.906201 63.383903 
L 283.751417 61.252194 
L 291.716378 59.96855 
L 299.743735 59.284711 
L 307.746491 58.049926 
L 315.776981 56.794986 
L 323.852627 56.179165 
L 331.944845 55.903705 
L 340.18499 47.704441 
L 348.42391 47.883349 
L 349.225519 24.928267 
L 340.567109 25.812839 
L 331.944845 28.690244 
L 323.378778 29.032406 
L 314.817032 29.305641 
L 306.249055 29.477152 
L 297.669746 29.625283 
L 289.091523 29.966322 
L 280.682347 32.051943 
L 272.300793 34.020208 
L 263.865498 35.372311 
L 255.028341 34.150336 
L 246.739533 36.558695 
L 238.622298 39.679146 
L 231.488285 47.171075 
L 224.291405 53.483753 
L 221.713245 77.667231 
L 215.091961 83.68113 
L 208.527082 89.373142 
L 202.693125 97.018705 
L 196.950297 104.311532 
L 191.264781 111.21746 
L 185.727178 118.052293 
L 180.369932 124.915882 
L 175.183566 131.78425 
L 168.531323 134.803898 
L 164.242923 143.117346 
L 158.961054 148.817093 
L 153.564372 154.047862 
L 148.03322 158.835144 
L 142.900504 164.241336 
L 138.799141 171.337957 
L 134.774943 178.273743 
L 130.831987 185.074028 
L 126.81593 191.507145 
L 122.627256 197.461209 
L 118.453145 203.267568 
L 114.271495 208.912269 
L 109.859453 214.107712 
z
" style="fill:#0000ff;opacity:0.2;stroke:#0000ff;stroke-linecap:round;stroke-linejoin:miter;stroke-width:0.5;"/>
   </g>
   <g id="patch_9">
    <path clip-path="url(#p94f32e173a)" d="M 100.501612 201.227748 
L 105.938147 197.011016 
L 111.335603 192.715379 
L 113.032882 182.687169 
L 118.067174 177.506209 
L 122.788223 171.686957 
L 127.25249 165.244472 
L 130.400378 156.186187 
L 133.44552 146.459098 
L 136.71943 136.630581 
L 136.967566 120.019367 
L 142.305734 113.099646 
L 149.168669 109.260019 
L 156.120135 105.564972 
L 162.537801 100.484884 
L 169.072208 95.484306 
L 176.023352 91.391249 
L 182.621882 86.116657 
L 189.750902 82.154073 
L 197.315453 79.42913 
L 205.067836 77.309317 
L 212.821065 75.206033 
L 220.664644 73.461521 
L 228.509326 71.753575 
L 236.441083 70.472158 
L 244.445329 69.636046 
L 252.616755 69.890079 
L 260.850949 70.91284 
L 269.07862 72.465601 
L 277.271029 74.499532 
L 285.259087 75.596715 
L 293.289826 77.953143 
L 301.386308 82.77459 
L 309.266028 87.04442 
L 317.016968 92.303579 
L 324.615104 99.861469 
L 331.944845 112.861156 
L 338.828277 125.430478 
L 345.044922 144.644892 
L 351.310279 150.267533 
L 357.464207 154.838152 
L 363.550567 158.52697 
L 369.669829 160.852777 
L 375.727936 163.197368 
L 381.69653 165.780398 
L 382.981585 156.636751 
L 377.323213 150.204876 
L 371.641487 142.093709 
L 365.734539 133.564053 
L 359.729175 122.447591 
L 353.434472 109.735519 
L 346.73695 96.191569 
L 340.010848 57.681043 
L 331.944845 54.245708 
L 323.498144 35.870879 
L 315.062601 36.337829 
L 306.495712 34.183646 
L 297.899614 32.91254 
L 289.40755 33.578531 
L 280.970095 34.789686 
L 272.4695 35.394222 
L 263.922431 35.777404 
L 255.399167 36.491641 
L 247.082185 38.501969 
L 238.957747 41.404882 
L 231.031468 45.021918 
L 223.146128 48.523013 
L 215.276931 51.852587 
L 207.590233 55.684302 
L 200.109331 60.016954 
L 192.565083 63.891372 
L 185.091649 67.814367 
L 177.764853 72.01082 
L 170.51863 76.267151 
L 163.634746 81.319233 
L 156.759657 86.183474 
L 149.75121 90.560726 
L 142.840473 95.046656 
L 136.51113 100.673077 
L 133.999952 113.934855 
L 127.76688 119.060212 
L 121.326845 123.667184 
L 115.124431 128.627649 
L 108.33782 132.483302 
L 102.222909 137.460526 
L 97.032076 143.843015 
L 91.625254 149.722312 
L 86.187453 155.431714 
L 79.739673 159.595717 
L 73.57131 164.161368 
z
" style="fill:#b20000;opacity:0.2;stroke:#b20000;stroke-linecap:round;stroke-linejoin:miter;stroke-width:0.5;"/>
   </g>
   <g id="patch_10">
    <path clip-path="url(#p94f32e173a)" d="M 68.48368 274.10052 
L 72.771959 269.501684 
L 77.462536 265.299722 
L 81.362774 260.2967 
L 85.073996 255.045456 
L 88.933694 249.890805 
L 94.691799 246.853622 
L 99.188656 242.394005 
L 103.932052 238.209681 
L 107.707891 232.771818 
L 112.130749 228.078873 
L 120.955428 229.380012 
L 126.176443 225.914297 
L 131.157781 222.102967 
L 135.036108 216.569166 
L 139.613939 211.988241 
L 144.397818 207.651362 
L 149.600475 203.952317 
L 155.12767 200.795403 
L 160.730894 197.775421 
L 163.542556 189.27393 
L 167.938091 183.518354 
L 172.983881 178.889144 
L 178.06931 174.17192 
L 182.738423 168.273729 
L 186.954893 160.919305 
L 191.374278 153.583183 
L 196.734787 148.295449 
L 202.388155 143.522083 
L 208.153535 138.791553 
L 214.199468 134.654256 
L 220.259229 130.287999 
L 226.538881 126.401618 
L 232.612639 121.382314 
L 238.470006 114.898023 
L 244.519856 108.479795 
L 250.659641 101.60591 
L 257.37615 96.881945 
L 264.338135 92.930064 
L 271.435344 89.234558 
L 278.636961 85.624157 
L 286.096633 83.565437 
L 293.710422 82.760579 
L 300.977699 76.931215 
L 308.467244 71.802729 
L 316.194811 68.760065 
L 324.035366 66.648276 
L 331.944845 65.272337 
L 339.956025 60.821842 
L 347.994877 60.169233 
L 355.962308 61.501541 
L 363.703777 65.608133 
L 371.036969 72.957006 
L 378.156268 80.109711 
L 379.639057 66.00191 
L 371.815075 64.063209 
L 364.202765 58.472278 
L 356.131703 58.269282 
L 348.167736 55.219206 
L 340.106422 52.205576 
L 331.944845 51.875911 
L 323.800529 53.194516 
L 315.689834 54.299435 
L 307.641885 56.053939 
L 299.772116 59.690571 
L 292.063278 63.93364 
L 284.486659 68.247559 
L 276.993607 72.240114 
L 269.47863 75.311816 
L 261.930519 77.728973 
L 254.392243 79.959369 
L 247.084678 83.21432 
L 239.869512 86.601649 
L 232.760944 90.169356 
L 225.736162 93.802268 
L 219.409526 99.794501 
L 213.669873 107.308184 
L 207.774014 113.637544 
L 201.543415 118.447695 
L 195.023739 122.134265 
L 188.475651 125.603659 
L 182.244061 129.798154 
L 176.516401 135.083132 
L 170.639885 139.77136 
L 165.577131 146.114027 
L 160.625381 152.386254 
L 155.475015 157.965261 
L 150.15739 163.004062 
L 144.214972 166.71349 
L 139.556346 172.70399 
L 134.709108 178.159712 
L 129.416777 182.718723 
L 123.589764 186.3442 
L 117.86026 190.120678 
L 112.197328 193.992938 
L 108.609323 200.82585 
L 105.688265 208.366565 
L 102.342517 215.08945 
L 99.074091 221.721058 
L 95.095671 227.297659 
L 90.637939 232.203659 
L 86.002647 236.857896 
L 80.247398 240.243695 
L 75.121655 244.372877 
L 69.888396 248.414633 
L 63.34628 251.183465 
L 58.993261 256.19575 
L 54.590031 261.144482 
z
" style="fill:#b200cc;opacity:0.2;stroke:#b200cc;stroke-linecap:round;stroke-linejoin:miter;stroke-width:0.5;"/>
   </g>
   <g id="patch_11">
    <path clip-path="url(#p94f32e173a)" d="M 104.293383 307.493608 
L 106.392187 301.96836 
L 107.475012 295.312198 
L 110.341577 290.305129 
L 117.676248 290.007091 
L 120.55297 285.007568 
L 120.862035 276.959035 
L 123.055076 270.836898 
L 125.187397 264.457846 
L 126.396887 256.692642 
L 128.066961 249.226941 
L 133.419767 246.535702 
L 135.107408 238.669036 
L 139.799114 234.914269 
L 144.135878 230.581583 
L 146.841617 223.554943 
L 150.921454 218.508515 
L 154.600261 212.612201 
L 157.904396 205.804748 
L 160.714487 197.744566 
L 160.395124 183.096747 
L 164.001215 175.446562 
L 169.353017 171.102731 
L 173.260691 163.371584 
L 177.813916 156.672316 
L 182.8133 150.668505 
L 188.366204 145.746883 
L 194.132135 141.144721 
L 199.339444 134.667983 
L 204.413143 127.279811 
L 210.473642 122.467628 
L 214.578704 110.477657 
L 221.890229 109.052611 
L 229.4075 108.527204 
L 235.484584 101.966739 
L 242.423708 98.618195 
L 249.426701 95.26298 
L 256.592902 92.439926 
L 263.740614 89.157466 
L 271.017058 86.258302 
L 278.345148 83.247531 
L 286.019506 82.831621 
L 293.175593 76.647456 
L 301.131033 79.12399 
L 309.013506 82.22602 
L 316.843187 87.327134 
L 324.471972 91.661428 
L 331.944845 95.70111 
L 339.374172 94.156144 
L 346.713102 96.87448 
L 354.040822 98.165672 
L 361.290257 100.12309 
L 367.94085 108.345808 
L 374.142771 118.295583 
L 379.799406 130.037906 
L 384.736224 144.151848 
L 387.096577 171.5677 
L 390.926908 185.278127 
L 396.536376 187.487407 
L 409.817529 119.161801 
L 404.045016 110.881639 
L 396.052673 115.02113 
L 389.770413 108.331732 
L 383.261348 101.842648 
L 376.546585 95.424821 
L 369.598635 89.39724 
L 362.421888 83.94 
L 355.022758 79.429204 
L 347.465583 75.326226 
L 339.764898 71.771479 
L 331.944845 41.010527 
L 323.568785 39.917882 
L 315.179404 39.68261 
L 306.517949 34.607959 
L 297.576332 28.289406 
L 289.116694 30.254028 
L 281.385782 38.744682 
L 273.141368 40.866144 
L 265.182188 44.741043 
L 257.047587 46.899355 
L 248.916494 48.904855 
L 240.830575 51.039746 
L 232.823274 53.451702 
L 224.887569 56.066022 
L 218.908135 66.41655 
L 211.375527 69.811211 
L 204.30488 74.648572 
L 200.44059 89.650993 
L 192.254522 89.859423 
L 187.923886 101.514794 
L 181.536211 106.537704 
L 175.233715 111.535581 
L 169.205417 116.987812 
L 163.097916 122.003595 
L 156.980635 126.805981 
L 150.957049 131.652449 
L 145.34352 137.192618 
L 140.041477 143.150464 
L 135.233946 149.822636 
L 130.104499 155.652408 
L 124.888342 161.149648 
L 119.233179 165.77037 
L 113.699288 170.51613 
L 110.361717 178.573935 
L 105.865729 184.605958 
L 101.413879 190.549691 
L 97.190897 196.67094 
L 92.744806 202.352857 
L 88.4542 208.128217 
L 83.855809 213.417585 
L 84.195032 224.525301 
L 80.455607 230.476757 
L 77.304027 236.974751 
L 73.781435 242.935667 
L 67.319569 245.754535 
L 62.795341 250.632527 
L 65.357539 262.341662 
L 70.536976 276.015249 
z
" style="fill:#00d9ff;opacity:0.2;stroke:#00d9ff;stroke-linecap:round;stroke-linejoin:miter;stroke-width:0.5;"/>
   </g>
   <g id="line2d_13">
    <path clip-path="url(#p94f32e173a)" d="M 67.705785 298.059133 
L 71.623661 293.488278 
L 68.578303 282.64573 
L 73.5641 278.838088 
L 78.191223 274.735006 
L 81.199355 269.03654 
L 85.763391 264.853673 
L 88.622134 258.850369 
L 91.500992 252.742078 
L 94.402648 246.520992 
L 96.829527 239.582506 
L 99.812386 233.122317 
L 103.47702 227.35655 
L 107.380619 221.775237 
L 110.231985 214.620458 
L 113.018518 207.122833 
L 117.401437 201.708348 
L 122.00661 196.505498 
L 126.697172 191.317093 
L 129.878759 183.487589 
L 132.239115 173.881559 
L 135.211243 164.865218 
L 139.789767 158.390889 
L 144.777564 152.445559 
L 150.351418 147.460329 
L 156.268451 143.042787 
L 162.428305 139.041648 
L 168.564747 134.88264 
L 174.934366 131.167459 
L 181.236103 127.172336 
L 187.5805 123.144254 
L 193.980691 119.105033 
L 200.506518 115.256455 
L 207.305983 112.106683 
L 214.143662 108.960483 
L 221.145686 106.273939 
L 228.215382 103.745878 
L 235.473663 101.919435 
L 242.788207 100.333028 
L 250.065705 98.550374 
L 257.447675 97.287585 
L 264.937629 96.715119 
L 272.449514 96.450758 
L 280.070963 97.303169 
L 287.675203 98.584528 
L 295.271927 100.608658 
L 302.797524 102.955917 
L 310.032907 101.677341 
L 317.342559 101.627279 
L 324.73676 106.831143 
L 331.944845 116.087656 
L 338.835735 125.003201 
L 345.434216 133.496987 
L 351.764248 141.605281 
L 357.847254 149.360324 
L 363.702454 156.79089 
L 369.867766 158.969534 
L 375.359768 166.195852 
L 380.658321 173.167633 
" style="fill:none;stroke:#ff69b5;stroke-linecap:round;"/>
   </g>
   <g id="line2d_14">
    <path clip-path="url(#p94f32e173a)" d="M 86.308039 290.722003 
L 88.22655 284.426008 
L 92.409353 280.246538 
L 96.622597 276.098709 
L 101.132176 272.265746 
L 105.746552 268.563375 
L 110.151541 264.63802 
L 114.197882 260.281305 
L 118.053193 255.647837 
L 130.264219 261.642601 
L 134.263773 257.450387 
L 138.281228 253.22693 
L 142.086 248.6355 
L 145.704083 243.668746 
L 150.772466 240.801031 
L 154.181739 235.301594 
L 158.16366 230.561569 
L 161.786769 225.059598 
L 165.188399 218.945438 
L 169.269079 213.833411 
L 174.042452 209.881136 
L 178.871656 205.935483 
L 183.9315 202.366387 
L 189.111819 198.973802 
L 194.207963 195.294271 
L 199.280343 191.425866 
L 204.288677 187.226343 
L 209.375607 183.025817 
L 214.599602 178.986699 
L 219.871594 174.856032 
L 225.186271 170.590468 
L 230.264277 165.179751 
L 235.533757 159.970952 
L 241.245807 156.008057 
L 247.114362 152.34084 
L 253.141345 149.040712 
L 259.241727 145.756915 
L 265.390003 142.330763 
L 271.63314 138.98891 
L 277.807361 134.573816 
L 284.155142 130.566131 
L 290.839756 128.693233 
L 297.019458 120.58303 
L 303.479442 112.7078 
L 310.563963 111.810506 
L 317.666502 110.903798 
L 324.796279 110.240961 
L 331.944845 107.43008 
L 339.091707 110.33858 
L 346.242925 110.33858 
" style="fill:none;stroke:#00d9ff;stroke-linecap:round;"/>
   </g>
   <g id="line2d_15">
    <path clip-path="url(#p94f32e173a)" d="M 57.985249 264.310574 
L 57.4138 254.670481 
L 61.766385 249.60357 
L 66.239429 244.636018 
L 70.402527 239.312232 
L 74.89963 234.304398 
L 79.677177 229.581275 
L 84.487091 224.873363 
L 89.272233 220.106312 
L 86.695276 205.876896 
L 92.116354 201.518873 
L 94.352655 192.764435 
L 98.744666 186.73766 
L 100.971508 177.349977 
L 107.780938 174.599884 
L 110.167682 164.864379 
L 109.920654 150.271725 
L 115.21272 144.390979 
L 120.385429 138.118742 
L 125.557876 131.624596 
L 130.0947 123.628815 
L 135.636274 117.289814 
L 141.234483 110.80234 
L 146.662481 103.631028 
L 151.919896 95.669828 
L 156.981695 86.733039 
L 162.793017 79.126452 
L 169.372912 73.119315 
L 176.719338 68.974424 
L 184.223854 65.143568 
L 191.916651 61.770444 
L 199.63469 58.361684 
L 207.527416 55.449864 
L 215.499017 52.743324 
L 223.437203 49.783799 
L 231.667366 48.013584 
L 239.926049 46.386363 
L 248.182103 44.739915 
L 256.360066 42.558517 
L 264.792079 41.965275 
L 273.302344 42.177189 
L 281.901389 43.650354 
L 290.482424 45.864393 
L 299.319813 53.222338 
L 307.832784 59.696497 
L 316.148985 67.447803 
L 324.247787 78.817899 
L 331.944845 95.929725 
L 339.098912 109.925778 
L 346.212344 111.214299 
L 352.651798 124.669819 
L 359.246818 129.345617 
L 366.040612 130.065622 
L 372.062305 138.089896 
L 377.730657 146.886514 
" style="fill:none;stroke:#ff69b5;stroke-dasharray:3.7,1.6;stroke-dashoffset:0;"/>
   </g>
   <g id="line2d_16">
    <path clip-path="url(#p94f32e173a)" d="M 95.030267 181.432949 
L 100.042667 175.972913 
L 105.178514 170.592502 
L 110.357027 165.167394 
L 115.702503 159.894337 
L 122.508971 157.028456 
L 129.285629 154.175126 
L 137.463002 154.014882 
L 143.354997 149.653614 
L 148.326435 143.308499 
L 154.621772 139.511474 
L 160.905139 135.620562 
L 167.206766 131.683439 
L 173.290178 127.097949 
L 179.328888 122.203869 
L 185.278159 116.818624 
L 191.607847 112.213796 
L 198.572488 109.304124 
L 205.875165 107.426688 
L 213.121904 105.39719 
L 220.103971 102.386207 
L 227.231205 99.798559 
L 234.455115 97.507617 
L 241.690522 95.168828 
L 248.993224 93.032935 
L 256.406601 91.383364 
L 263.889081 90.094847 
L 271.482736 89.571772 
L 279.157127 89.860567 
L 286.926832 91.46425 
L 294.738318 94.509484 
L 302.412603 97.451291 
L 309.974219 100.557512 
L 317.435478 104.288142 
L 324.792892 110.046923 
L 331.944845 115.968529 
L 338.867537 123.18128 
L 345.553425 130.083272 
L 352.051192 136.130063 
L 358.217624 144.063781 
L 363.994104 153.457324 
L 369.837767 159.254957 
L 375.735441 163.136243 
L 381.632905 166.233112 
L 387.565683 168.60588 
L 393.533651 170.494556 
L 399.487805 172.303622 
L 405.426246 174.079219 
L 411.35038 175.838872 
L 417.282378 177.511881 
L 423.054396 179.756554 
" style="fill:none;stroke:#b20000;stroke-linecap:round;"/>
   </g>
   <g id="line2d_17">
    <path clip-path="url(#p94f32e173a)" d="M 60.496064 257.646989 
L 64.725313 252.562498 
L 70.089664 248.623052 
L 75.42873 244.702175 
L 80.745922 240.797363 
L 86.044594 236.90615 
L 91.328056 233.026108 
L 96.59958 229.154832 
L 95.727841 217.438053 
L 101.017201 213.330697 
L 106.556899 209.562136 
L 111.965594 205.619101 
L 116.963367 201.058883 
L 122.291818 196.94468 
L 132.930542 201.29257 
L 136.647428 194.752547 
L 141.700835 190.26974 
L 147.242185 186.569612 
L 152.396405 182.100528 
L 156.824216 176.088444 
L 160.945425 169.181262 
L 164.34913 160.37186 
L 168.827231 153.413871 
L 173.606464 146.760181 
L 178.963069 141.138848 
L 184.647744 136.059963 
L 189.924528 129.584417 
L 193.777643 118.515341 
L 197.497916 105.99693 
L 203.474511 99.574504 
L 209.590193 93.080651 
L 216.290271 88.153283 
L 223.695541 85.617785 
L 231.174911 83.299494 
L 238.630533 80.772707 
L 246.167964 78.498234 
L 253.829539 76.768118 
L 261.327354 73.920741 
L 268.994173 71.864723 
L 276.842073 71.005966 
L 284.704207 70.317381 
L 292.584411 69.890215 
L 300.46051 69.535071 
L 308.358068 69.719527 
L 316.246295 70.234392 
L 324.144494 72.900245 
L 331.944845 80.956565 
L 339.521293 85.727613 
L 346.906044 91.349332 
L 353.619081 106.212972 
L 359.933658 119.52336 
L 365.977418 130.78794 
L 371.93272 139.322812 
L 377.893943 145.556653 
L 383.581573 152.367619 
L 389.302913 157.637439 
L 395.109912 161.555135 
L 400.905992 165.007684 
L 405.413033 174.14138 
L 411.316372 175.986173 
" style="fill:none;stroke:#0000ff;stroke-linecap:round;"/>
   </g>
   <g id="line2d_18">
    <path clip-path="url(#p94f32e173a)" d="M 64.693512 270.56613 
L 69.697561 266.532772 
L 73.634197 261.471383 
L 77.58805 256.387858 
L 81.561657 251.278934 
L 85.557609 246.141282 
L 89.57855 240.971501 
L 93.627189 235.766108 
L 97.706308 230.521527 
L 101.818766 225.234081 
L 105.967511 219.89998 
L 110.032925 214.346476 
L 114.662954 209.471331 
L 119.167806 204.327097 
L 123.584663 198.935486 
L 128.032836 193.454602 
L 132.442325 187.754079 
L 136.856203 181.878591 
L 141.334936 175.912653 
L 145.904665 169.89134 
L 151.087798 164.83009 
L 156.466134 159.997356 
L 161.821295 154.950901 
L 166.903819 149.093817 
L 170.35563 139.101695 
L 175.755181 133.199046 
L 181.617567 128.166084 
L 187.609429 123.223734 
L 193.63376 118.097473 
L 199.476107 112.085177 
L 205.384586 105.822076 
L 211.436147 99.518255 
L 218.01176 94.577968 
L 224.688012 89.59837 
L 229.474116 75.932541 
L 236.555057 71.008365 
L 243.627757 65.430003 
L 251.229491 62.022512 
L 258.966395 59.014231 
L 266.073138 51.080482 
L 274.103497 48.702056 
L 282.216882 46.652068 
L 290.40395 44.967436 
L 298.706741 44.454997 
L 306.997773 43.763539 
L 315.297006 43.050313 
L 323.615702 42.605785 
L 331.944845 42.296974 
L 340.376049 36.75864 
L 348.824714 36.405808 
L 356.554239 50.206821 
L 364.731022 50.917845 
L 372.299515 58.526035 
L 379.637175 66.019815 
L 386.765916 73.300232 
L 393.6987 80.380521 
L 400.447551 87.272965 
" style="fill:none;stroke:#0000ff;stroke-dasharray:3.7,1.6;stroke-dashoffset:0;"/>
   </g>
   <g id="line2d_19">
    <path clip-path="url(#p94f32e173a)" d="M 56.153523 243.990709 
L 62.088991 240.338113 
L 67.225814 235.905624 
L 71.805478 230.867994 
L 76.401202 225.812697 
L 81.015887 220.736543 
L 85.652481 215.63629 
L 90.816331 211.151607 
L 96.904717 207.873246 
L 87.036461 182.694558 
L 92.83891 178.303367 
L 98.761528 174.073547 
L 102.329068 166.20474 
L 107.549625 160.674612 
L 112.505566 154.573741 
L 117.795155 148.863887 
L 122.762404 142.406918 
L 127.386183 135.063141 
L 132.243155 127.845397 
L 135.483759 116.977111 
L 139.408432 106.886361 
L 146.004571 102.153337 
L 152.935673 98.062849 
L 159.648729 93.334179 
L 166.353477 88.40177 
L 173.270991 83.8292 
L 180.193367 79.063738 
L 187.421275 74.98422 
L 194.940268 71.660251 
L 202.588583 68.663135 
L 210.205649 65.445168 
L 217.970787 62.657054 
L 225.827727 60.138294 
L 233.736275 57.747038 
L 241.701538 55.520464 
L 249.84947 54.196024 
L 258.125058 53.70224 
L 266.500526 54.121503 
L 274.870265 54.946877 
L 283.114591 55.193201 
L 291.348688 55.765837 
L 299.642961 57.843565 
L 307.88087 60.614033 
L 316.039785 64.320704 
L 324.056624 67.866174 
L 331.944845 83.553432 
L 339.419562 91.55576 
L 345.890936 120.418231 
L 352.372375 130.001526 
L 358.596691 138.642871 
L 364.642553 146.045512 
L 370.655658 151.473243 
L 376.525575 156.701122 
L 382.339058 161.208575 
L 388.36661 163.549024 
L 393.80024 168.982653 
" style="fill:none;stroke:#b20000;stroke-dasharray:3.7,1.6;stroke-dashoffset:0;"/>
   </g>
   <g id="line2d_20">
    <path clip-path="url(#p94f32e173a)" d="M 61.536856 267.622501 
L 65.88261 262.848717 
L 70.404408 258.241594 
L 75.625585 254.355667 
L 80.097825 249.709167 
L 84.590546 245.06725 
L 90.347223 241.855759 
L 94.913297 237.298832 
L 99.513862 232.75367 
L 103.390991 227.246438 
L 107.236633 221.584161 
L 113.321847 218.873288 
L 117.392883 213.370073 
L 121.677555 208.047953 
L 126.448184 203.344922 
L 131.601852 199.166221 
L 136.907298 195.185042 
L 142.154791 191.056015 
L 147.342008 186.749697 
L 152.472933 182.244456 
L 156.849973 176.138996 
L 161.706553 170.741807 
L 166.804631 165.637699 
L 171.82322 160.142974 
L 176.689154 154.022545 
L 181.735647 148.001219 
L 186.809169 141.690668 
L 192.605219 136.949554 
L 198.705947 132.828174 
L 204.848475 128.619624 
L 210.986741 124.1459 
L 216.964551 118.798092 
L 222.974203 113.09806 
L 229.1744 107.592291 
L 235.615475 102.53369 
L 242.194684 97.540722 
L 248.87216 92.410115 
L 255.884196 88.420657 
L 263.134327 85.329518 
L 270.456987 82.273187 
L 277.815284 78.932136 
L 285.291646 75.906498 
L 292.88685 73.347109 
L 300.374907 68.310893 
L 308.054565 63.928334 
L 315.942323 61.52975 
L 323.917948 59.921396 
L 331.944845 58.574124 
L 340.031223 56.513709 
L 348.081307 57.69422 
L 356.047005 59.885411 
L 363.953271 62.040205 
L 371.426022 68.510107 
L 378.897662 73.05581 
L 385.409258 84.349328 
L 392.142111 91.456228 
L 398.690246 98.368149 
L 405.361255 103.41688 
L 411.952688 108.17736 
" style="fill:none;stroke:#b200cc;stroke-linecap:round;"/>
   </g>
   <g id="line2d_21">
    <path clip-path="url(#p94f32e173a)" d="M 87.41518 291.754429 
L 85.874863 282.155011 
L 85.135177 272.972362 
L 88.830573 268.029832 
L 95.728841 266.471379 
L 98.928498 260.991159 
L 100.658821 253.717896 
L 103.625054 247.681099 
L 104.521603 238.937716 
L 107.425543 232.410429 
L 110.405884 225.789899 
L 115.305332 221.603321 
L 118.260643 214.609364 
L 122.832422 209.760114 
L 127.248798 204.577759 
L 130.270453 197.035537 
L 135.077317 192.139443 
L 139.744302 186.880924 
L 144.004447 180.728578 
L 147.974216 173.783601 
L 150.218301 163.123606 
L 154.672368 156.31959 
L 160.155033 151.37759 
L 165.120663 145.088783 
L 170.455916 139.337955 
L 176.009359 133.828159 
L 181.79996 128.641232 
L 187.834173 123.841213 
L 193.631665 118.091388 
L 198.333832 108.569617 
L 205.457116 106.05931 
L 209.441792 92.563114 
L 216.632878 89.431911 
L 224.157818 87.471877 
L 230.186076 79.01638 
L 237.623491 76.034949 
L 245.128638 73.151363 
L 252.754698 70.67239 
L 260.394101 68.02841 
L 268.099623 65.499672 
L 275.743258 62.056838 
L 283.702644 60.788151 
L 291.146144 53.450742 
L 299.353683 53.706698 
L 307.765728 58.416989 
L 316.011295 63.504872 
L 324.020378 65.789655 
L 331.944845 68.355818 
L 339.569535 82.963812 
L 347.089343 86.100353 
L 354.53179 88.797438 
L 361.856073 92.031545 
L 368.769742 98.871524 
L 375.344678 106.860202 
L 381.530377 115.940277 
L 387.253319 126.24179 
L 391.574625 143.294415 
L 397.485962 148.079883 
L 403.176953 153.324604 
" style="fill:none;stroke:#00d9ff;stroke-dasharray:3.7,1.6;stroke-dashoffset:0;"/>
   </g>
   <g id="patch_12">
    <path d="M 34.316694 321.621875 
L 34.316694 10.8 
" style="fill:none;stroke:#262626;stroke-linecap:square;stroke-linejoin:miter;stroke-width:1.25;"/>
   </g>
   <g id="patch_13">
    <path d="M 441.565716 321.621875 
L 441.565716 10.8 
" style="fill:none;stroke:#262626;stroke-linecap:square;stroke-linejoin:miter;stroke-width:1.25;"/>
   </g>
   <g id="patch_14">
    <path d="M 34.316694 321.621875 
L 441.565716 321.621875 
" style="fill:none;stroke:#262626;stroke-linecap:square;stroke-linejoin:miter;stroke-width:1.25;"/>
   </g>
   <g id="patch_15">
    <path d="M 34.316694 10.8 
L 441.565716 10.8 
" style="fill:none;stroke:#262626;stroke-linecap:square;stroke-linejoin:miter;stroke-width:1.25;"/>
   </g>
   <g id="legend_1">
    <g id="line2d_22">
     <path d="M 331.795403 248.329687 
L 351.795403 248.329687 
" style="fill:none;stroke:#b20000;stroke-dasharray:3.7,1.6;stroke-dashoffset:0;"/>
    </g>
    <g id="line2d_23"/>
    <g id="text_13">
     <!-- ʊ -->
     <defs>
      <path d="M 56.453125 46.6875 
L 44.921875 46.6875 
Q 49.65625 43.171875 52.75 37.421875 
Q 55.859375 31.6875 55.859375 24.265625 
Q 55.859375 12.796875 48.921875 5.65625 
Q 42 -1.46875 31 -1.46875 
Q 20.015625 -1.46875 13.078125 5.65625 
Q 6.15625 12.796875 6.15625 24.265625 
Q 6.15625 31.6875 9.25 37.421875 
Q 12.359375 43.171875 17.09375 46.6875 
L 5.515625 46.6875 
L 5.515625 54.6875 
L 27.09375 54.6875 
L 27.09375 43.953125 
Q 22.125 40.71875 18.796875 35.46875 
Q 15.484375 30.21875 15.484375 23.4375 
Q 15.484375 15.671875 19.78125 10.9375 
Q 24.078125 6.203125 31.109375 6.203125 
Q 38.140625 6.203125 42.4375 10.9375 
Q 46.734375 15.671875 46.734375 23.4375 
Q 46.734375 30.21875 43.40625 35.46875 
Q 40.09375 40.71875 35.109375 43.953125 
L 35.15625 54.6875 
L 56.453125 54.6875 
z
" id="DejaVuSans-650"/>
     </defs>
     <g style="fill:#262626;" transform="translate(359.795403 251.829687)scale(0.1 -0.1)">
      <use xlink:href="#DejaVuSans-650"/>
     </g>
    </g>
    <g id="line2d_24">
     <path d="M 331.795403 263.007812 
L 351.795403 263.007812 
" style="fill:none;stroke:#b20000;stroke-linecap:round;"/>
    </g>
    <g id="line2d_25"/>
    <g id="text_14">
     <!-- ə -->
     <defs>
      <path d="M 5.515625 25 
L 5.515625 29.390625 
L 46.828125 29.390625 
Q 46.234375 38.671875 41.234375 43.53125 
Q 36.234375 48.390625 27.296875 48.390625 
Q 22.125 48.390625 17.265625 47.109375 
Q 12.40625 45.84375 7.625 43.3125 
L 7.625 51.8125 
Q 12.453125 53.859375 17.53125 54.921875 
Q 22.609375 56 27.828125 56 
Q 40.921875 56 48.5625 48.375 
Q 56.203125 40.765625 56.203125 27.78125 
Q 56.203125 14.359375 48.953125 6.46875 
Q 41.703125 -1.421875 29.390625 -1.421875 
Q 18.359375 -1.421875 11.9375 5.6875 
Q 5.515625 12.796875 5.515625 25 
z
M 14.5 22.359375 
Q 14.59375 14.984375 18.625 10.59375 
Q 22.65625 6.203125 29.296875 6.203125 
Q 36.8125 6.203125 41.328125 10.453125 
Q 45.84375 14.703125 46.53125 22.40625 
z
" id="DejaVuSans-601"/>
     </defs>
     <g style="fill:#262626;" transform="translate(359.795403 266.507812)scale(0.1 -0.1)">
      <use xlink:href="#DejaVuSans-601"/>
     </g>
    </g>
    <g id="line2d_26">
     <path d="M 331.795403 277.685937 
L 351.795403 277.685937 
" style="fill:none;stroke:#ff69b5;stroke-dasharray:3.7,1.6;stroke-dashoffset:0;"/>
    </g>
    <g id="line2d_27"/>
    <g id="text_15">
     <!-- uʊ -->
     <defs>
      <path d="M 8.5 21.578125 
L 8.5 54.6875 
L 17.484375 54.6875 
L 17.484375 21.921875 
Q 17.484375 14.15625 20.5 10.265625 
Q 23.53125 6.390625 29.59375 6.390625 
Q 36.859375 6.390625 41.078125 11.03125 
Q 45.3125 15.671875 45.3125 23.6875 
L 45.3125 54.6875 
L 54.296875 54.6875 
L 54.296875 0 
L 45.3125 0 
L 45.3125 8.40625 
Q 42.046875 3.421875 37.71875 1 
Q 33.40625 -1.421875 27.6875 -1.421875 
Q 18.265625 -1.421875 13.375 4.4375 
Q 8.5 10.296875 8.5 21.578125 
z
M 31.109375 56 
z
" id="DejaVuSans-117"/>
     </defs>
     <g style="fill:#262626;" transform="translate(359.795403 281.185937)scale(0.1 -0.1)">
      <use xlink:href="#DejaVuSans-117"/>
      <use x="63.378906" xlink:href="#DejaVuSans-650"/>
     </g>
    </g>
    <g id="line2d_28">
     <path d="M 331.795403 292.364062 
L 351.795403 292.364062 
" style="fill:none;stroke:#ff69b5;stroke-linecap:round;"/>
    </g>
    <g id="line2d_29"/>
    <g id="text_16">
     <!-- ɑ -->
     <defs>
      <path d="M 45.40625 46.390625 
L 45.40625 54.6875 
L 54.390625 54.6875 
L 54.390625 0 
L 45.40625 0 
L 45.40625 8.203125 
Q 42.578125 3.328125 38.25 0.953125 
Q 33.9375 -1.421875 27.875 -1.421875 
Q 17.96875 -1.421875 11.734375 6.484375 
Q 5.515625 14.40625 5.515625 27.296875 
Q 5.515625 40.1875 11.734375 48.09375 
Q 17.96875 56 27.875 56 
Q 33.9375 56 38.25 53.625 
Q 42.578125 51.265625 45.40625 46.390625 
z
M 14.796875 27.296875 
Q 14.796875 17.390625 18.875 11.75 
Q 22.953125 6.109375 30.078125 6.109375 
Q 37.203125 6.109375 41.296875 11.75 
Q 45.40625 17.390625 45.40625 27.296875 
Q 45.40625 37.203125 41.296875 42.84375 
Q 37.203125 48.484375 30.078125 48.484375 
Q 22.953125 48.484375 18.875 42.84375 
Q 14.796875 37.203125 14.796875 27.296875 
z
" id="DejaVuSans-593"/>
     </defs>
     <g style="fill:#262626;" transform="translate(359.795403 295.864062)scale(0.1 -0.1)">
      <use xlink:href="#DejaVuSans-593"/>
     </g>
    </g>
    <g id="line2d_30">
     <path d="M 331.795403 307.042187 
L 351.795403 307.042187 
" style="fill:none;stroke:#b200cc;stroke-linecap:round;"/>
    </g>
    <g id="line2d_31"/>
    <g id="text_17">
     <!-- æ -->
     <defs>
      <path d="M 83.890625 32.234375 
Q 83.84375 39.59375 79.8125 43.984375 
Q 75.78125 48.390625 69.09375 48.390625 
Q 61.625 48.390625 57.109375 44.140625 
Q 52.59375 39.890625 51.90625 32.171875 
z
M 48.578125 47.015625 
Q 52.203125 51.421875 57.375 53.703125 
Q 62.546875 56 69 56 
Q 80.03125 56 86.46875 48.890625 
Q 92.921875 41.796875 92.921875 29.59375 
L 92.921875 25.203125 
L 51.609375 25.203125 
Q 52.203125 15.875 57.171875 10.984375 
Q 62.15625 6.109375 71.09375 6.109375 
Q 76.171875 6.109375 81.046875 7.390625 
Q 85.9375 8.6875 90.828125 11.28125 
L 90.828125 2.78125 
Q 85.9375 0.734375 80.859375 -0.34375 
Q 75.78125 -1.421875 70.609375 -1.421875 
Q 62.453125 -1.421875 56.390625 1.53125 
Q 50.34375 4.5 46.578125 10.296875 
Q 43.015625 4.4375 37.734375 1.5 
Q 32.46875 -1.421875 25.484375 -1.421875 
Q 16.265625 -1.421875 11.125 3.140625 
Q 6 7.71875 6 15.921875 
Q 6 25.140625 12.171875 29.828125 
Q 18.359375 34.515625 30.609375 34.515625 
L 43.21875 34.515625 
L 43.21875 35.40625 
Q 43.21875 41.609375 39.140625 45 
Q 35.0625 48.390625 27.6875 48.390625 
Q 23 48.390625 18.546875 47.265625 
Q 14.109375 46.140625 10.015625 43.890625 
L 10.015625 52.203125 
Q 14.9375 54.109375 19.578125 55.046875 
Q 24.21875 56 28.609375 56 
Q 35.546875 56 40.75 53.65625 
Q 45.953125 51.3125 48.578125 47.015625 
z
M 34.28125 27.484375 
Q 23.390625 27.484375 19.1875 25 
Q 14.984375 22.515625 14.984375 16.5 
Q 14.984375 11.71875 18.140625 8.90625 
Q 21.296875 6.109375 26.703125 6.109375 
Q 34.1875 6.109375 38.703125 11.40625 
Q 43.21875 16.703125 43.21875 25.484375 
L 43.21875 27.484375 
z
" id="DejaVuSans-230"/>
     </defs>
     <g style="fill:#262626;" transform="translate(359.795403 310.542187)scale(0.1 -0.1)">
      <use xlink:href="#DejaVuSans-230"/>
     </g>
    </g>
    <g id="line2d_32">
     <path d="M 392.309466 248.329687 
L 412.309466 248.329687 
" style="fill:none;stroke:#0000ff;stroke-linecap:round;"/>
    </g>
    <g id="line2d_33"/>
    <g id="text_18">
     <!-- ɘ -->
     <defs>
      <path d="M 5.515625 29.59375 
Q 5.515625 41.796875 11.921875 48.921875 
Q 18.359375 56 29.390625 56 
Q 41.703125 56 48.921875 48.140625 
Q 56.203125 40.234375 56.203125 26.8125 
Q 56.203125 13.8125 48.53125 6.203125 
Q 40.921875 -1.421875 27.828125 -1.421875 
Q 22.609375 -1.421875 17.53125 -0.34375 
Q 12.453125 0.734375 7.625 2.78125 
L 7.625 11.28125 
Q 12.40625 8.734375 17.28125 7.46875 
Q 22.125 6.203125 27.296875 6.203125 
Q 36.234375 6.203125 41.21875 11.03125 
Q 46.234375 15.921875 46.828125 25.203125 
L 5.515625 25.203125 
z
M 14.5 32.234375 
L 46.53125 32.171875 
Q 45.84375 39.890625 41.3125 44.140625 
Q 36.8125 48.390625 29.296875 48.390625 
Q 22.65625 48.390625 18.65625 44 
Q 14.59375 39.59375 14.5 32.234375 
z
" id="DejaVuSans-600"/>
     </defs>
     <g style="fill:#262626;" transform="translate(420.309466 251.829687)scale(0.1 -0.1)">
      <use xlink:href="#DejaVuSans-600"/>
     </g>
    </g>
    <g id="line2d_34">
     <path d="M 392.309466 263.007812 
L 412.309466 263.007812 
" style="fill:none;stroke:#0000ff;stroke-dasharray:3.7,1.6;stroke-dashoffset:0;"/>
    </g>
    <g id="line2d_35"/>
    <g id="text_19">
     <!-- ʉ -->
     <defs>
      <path d="M 8.5 30.078125 
L 8.5 54.6875 
L 17.484375 54.6875 
L 17.484375 30.078125 
L 45.3125 30.078125 
L 45.3125 54.6875 
L 54.296875 54.6875 
L 54.296875 30.078125 
L 63.375 30.078125 
L 63.375 22.078125 
L 54.296875 22.078125 
L 54.296875 0 
L 45.3125 0 
L 45.3125 8.40625 
Q 42.046875 3.421875 37.71875 1 
Q 33.40625 -1.421875 27.6875 -1.421875 
Q 18.265625 -1.421875 13.375 4.4375 
Q 8.5 10.296875 8.5 21.578125 
L 8.5 22.078125 
L 0 22.078125 
L 0 30.078125 
z
M 45.265625 22.015625 
L 17.484375 22.015625 
L 17.484375 21.921875 
Q 17.484375 14.15625 20.5 10.265625 
Q 23.53125 6.390625 29.59375 6.390625 
Q 36.578125 6.390625 40.921875 10.9375 
Q 45.265625 15.484375 45.265625 22.015625 
z
" id="DejaVuSans-649"/>
     </defs>
     <g style="fill:#262626;" transform="translate(420.309466 266.507812)scale(0.1 -0.1)">
      <use xlink:href="#DejaVuSans-649"/>
     </g>
    </g>
    <g id="line2d_36">
     <path d="M 392.309466 277.685937 
L 412.309466 277.685937 
" style="fill:none;stroke:#00d9ff;stroke-linecap:round;"/>
    </g>
    <g id="line2d_37"/>
    <g id="text_20">
     <!-- iɘ -->
     <defs>
      <path d="M 9.421875 54.6875 
L 18.40625 54.6875 
L 18.40625 0 
L 9.421875 0 
z
M 9.421875 75.984375 
L 18.40625 75.984375 
L 18.40625 64.59375 
L 9.421875 64.59375 
z
" id="DejaVuSans-105"/>
     </defs>
     <g style="fill:#262626;" transform="translate(420.309466 281.185937)scale(0.1 -0.1)">
      <use xlink:href="#DejaVuSans-105"/>
      <use x="27.783203" xlink:href="#DejaVuSans-600"/>
     </g>
    </g>
    <g id="line2d_38">
     <path d="M 392.309466 292.364062 
L 412.309466 292.364062 
" style="fill:none;stroke:#00d9ff;stroke-dasharray:3.7,1.6;stroke-dashoffset:0;"/>
    </g>
    <g id="line2d_39"/>
    <g id="text_21">
     <!-- yʉ -->
     <defs>
      <path d="M 32.171875 -5.078125 
Q 28.375 -14.84375 24.75 -17.8125 
Q 21.140625 -20.796875 15.09375 -20.796875 
L 7.90625 -20.796875 
L 7.90625 -13.28125 
L 13.1875 -13.28125 
Q 16.890625 -13.28125 18.9375 -11.515625 
Q 21 -9.765625 23.484375 -3.21875 
L 25.09375 0.875 
L 2.984375 54.6875 
L 12.5 54.6875 
L 29.59375 11.921875 
L 46.6875 54.6875 
L 56.203125 54.6875 
z
" id="DejaVuSans-121"/>
     </defs>
     <g style="fill:#262626;" transform="translate(420.309466 295.864062)scale(0.1 -0.1)">
      <use xlink:href="#DejaVuSans-121"/>
      <use x="59.179688" xlink:href="#DejaVuSans-649"/>
     </g>
    </g>
   </g>
  </g>
 </g>
 <defs>
  <clipPath id="p94f32e173a">
   <rect height="310.821875" width="407.249021" x="34.316694" y="10.8"/>
  </clipPath>
 </defs>
</svg>
