<?xml version="1.0" encoding="utf-8" standalone="no"?>
<!DOCTYPE svg PUBLIC "-//W3C//DTD SVG 1.1//EN"
  "http://www.w3.org/Graphics/SVG/1.1/DTD/svg11.dtd">
<!-- Created with matplotlib (https://matplotlib.org/) -->
<svg height="345.6pt" version="1.1" viewBox="0 0 460.8 345.6" width="460.8pt" xmlns="http://www.w3.org/2000/svg" xmlns:xlink="http://www.w3.org/1999/xlink">
 <defs>
  <style type="text/css">
*{stroke-linecap:butt;stroke-linejoin:round;}
  </style>
 </defs>
 <g id="figure_1">
  <g id="patch_1">
   <path d="M 0 345.6 
L 460.8 345.6 
L 460.8 0 
L 0 0 
z
" style="fill:#ffffff;"/>
  </g>
  <g id="axes_1">
   <g id="patch_2">
    <path d="M 92.000203 321.621875 
L 368.799797 321.621875 
L 368.799797 10.8 
L 92.000203 10.8 
z
" style="fill:#ffffff;"/>
   </g>
   <g id="matplotlib.axis_1">
    <g id="xtick_1">
     <g id="line2d_1"/>
     <g id="text_1">
      <!-- 75 -->
      <defs>
       <path d="M 8.203125 72.90625 
L 55.078125 72.90625 
L 55.078125 68.703125 
L 28.609375 0 
L 18.3125 0 
L 43.21875 64.59375 
L 8.203125 64.59375 
z
" id="DejaVuSans-55"/>
       <path d="M 10.796875 72.90625 
L 49.515625 72.90625 
L 49.515625 64.59375 
L 19.828125 64.59375 
L 19.828125 46.734375 
Q 21.96875 47.46875 24.109375 47.828125 
Q 26.265625 48.1875 28.421875 48.1875 
Q 40.625 48.1875 47.75 41.5 
Q 54.890625 34.8125 54.890625 23.390625 
Q 54.890625 11.625 47.5625 5.09375 
Q 40.234375 -1.421875 26.90625 -1.421875 
Q 22.3125 -1.421875 17.546875 -0.640625 
Q 12.796875 0.140625 7.71875 1.703125 
L 7.71875 11.625 
Q 12.109375 9.234375 16.796875 8.0625 
Q 21.484375 6.890625 26.703125 6.890625 
Q 35.15625 6.890625 40.078125 11.328125 
Q 45.015625 15.765625 45.015625 23.390625 
Q 45.015625 31 40.078125 35.4375 
Q 35.15625 39.890625 26.703125 39.890625 
Q 22.75 39.890625 18.8125 39.015625 
Q 14.890625 38.140625 10.796875 36.28125 
z
" id="DejaVuSans-53"/>
      </defs>
      <g style="fill:#262626;" transform="translate(107.129969 332.720312)scale(0.1 -0.1)">
       <use xlink:href="#DejaVuSans-55"/>
       <use x="63.623047" xlink:href="#DejaVuSans-53"/>
      </g>
     </g>
    </g>
    <g id="xtick_2">
     <g id="line2d_2"/>
     <g id="text_2">
      <!-- 100 -->
      <defs>
       <path d="M 12.40625 8.296875 
L 28.515625 8.296875 
L 28.515625 63.921875 
L 10.984375 60.40625 
L 10.984375 69.390625 
L 28.421875 72.90625 
L 38.28125 72.90625 
L 38.28125 8.296875 
L 54.390625 8.296875 
L 54.390625 0 
L 12.40625 0 
z
" id="DejaVuSans-49"/>
       <path d="M 31.78125 66.40625 
Q 24.171875 66.40625 20.328125 58.90625 
Q 16.5 51.421875 16.5 36.375 
Q 16.5 21.390625 20.328125 13.890625 
Q 24.171875 6.390625 31.78125 6.390625 
Q 39.453125 6.390625 43.28125 13.890625 
Q 47.125 21.390625 47.125 36.375 
Q 47.125 51.421875 43.28125 58.90625 
Q 39.453125 66.40625 31.78125 66.40625 
z
M 31.78125 74.21875 
Q 44.046875 74.21875 50.515625 64.515625 
Q 56.984375 54.828125 56.984375 36.375 
Q 56.984375 17.96875 50.515625 8.265625 
Q 44.046875 -1.421875 31.78125 -1.421875 
Q 19.53125 -1.421875 13.0625 8.265625 
Q 6.59375 17.96875 6.59375 36.375 
Q 6.59375 54.828125 13.0625 64.515625 
Q 19.53125 74.21875 31.78125 74.21875 
z
" id="DejaVuSans-48"/>
      </defs>
      <g style="fill:#262626;" transform="translate(138.094609 332.720312)scale(0.1 -0.1)">
       <use xlink:href="#DejaVuSans-49"/>
       <use x="63.623047" xlink:href="#DejaVuSans-48"/>
       <use x="127.246094" xlink:href="#DejaVuSans-48"/>
      </g>
     </g>
    </g>
    <g id="xtick_3">
     <g id="line2d_3"/>
     <g id="text_3">
      <!-- 125 -->
      <defs>
       <path d="M 19.1875 8.296875 
L 53.609375 8.296875 
L 53.609375 0 
L 7.328125 0 
L 7.328125 8.296875 
Q 12.9375 14.109375 22.625 23.890625 
Q 32.328125 33.6875 34.8125 36.53125 
Q 39.546875 41.84375 41.421875 45.53125 
Q 43.3125 49.21875 43.3125 52.78125 
Q 43.3125 58.59375 39.234375 62.25 
Q 35.15625 65.921875 28.609375 65.921875 
Q 23.96875 65.921875 18.8125 64.3125 
Q 13.671875 62.703125 7.8125 59.421875 
L 7.8125 69.390625 
Q 13.765625 71.78125 18.9375 73 
Q 24.125 74.21875 28.421875 74.21875 
Q 39.75 74.21875 46.484375 68.546875 
Q 53.21875 62.890625 53.21875 53.421875 
Q 53.21875 48.921875 51.53125 44.890625 
Q 49.859375 40.875 45.40625 35.40625 
Q 44.1875 33.984375 37.640625 27.21875 
Q 31.109375 20.453125 19.1875 8.296875 
z
" id="DejaVuSans-50"/>
      </defs>
      <g style="fill:#262626;" transform="translate(172.240498 332.720312)scale(0.1 -0.1)">
       <use xlink:href="#DejaVuSans-49"/>
       <use x="63.623047" xlink:href="#DejaVuSans-50"/>
       <use x="127.246094" xlink:href="#DejaVuSans-53"/>
      </g>
     </g>
    </g>
    <g id="xtick_4">
     <g id="line2d_4"/>
     <g id="text_4">
      <!-- 150 -->
      <g style="fill:#262626;" transform="translate(206.386388 332.720312)scale(0.1 -0.1)">
       <use xlink:href="#DejaVuSans-49"/>
       <use x="63.623047" xlink:href="#DejaVuSans-53"/>
       <use x="127.246094" xlink:href="#DejaVuSans-48"/>
      </g>
     </g>
    </g>
    <g id="xtick_5">
     <g id="line2d_5"/>
     <g id="text_5">
      <!-- 175 -->
      <g style="fill:#262626;" transform="translate(240.532278 332.720312)scale(0.1 -0.1)">
       <use xlink:href="#DejaVuSans-49"/>
       <use x="63.623047" xlink:href="#DejaVuSans-55"/>
       <use x="127.246094" xlink:href="#DejaVuSans-53"/>
      </g>
     </g>
    </g>
    <g id="xtick_6">
     <g id="line2d_6"/>
     <g id="text_6">
      <!-- 200 -->
      <g style="fill:#262626;" transform="translate(274.678167 332.720312)scale(0.1 -0.1)">
       <use xlink:href="#DejaVuSans-50"/>
       <use x="63.623047" xlink:href="#DejaVuSans-48"/>
       <use x="127.246094" xlink:href="#DejaVuSans-48"/>
      </g>
     </g>
    </g>
    <g id="xtick_7">
     <g id="line2d_7"/>
     <g id="text_7">
      <!-- 225 -->
      <g style="fill:#262626;" transform="translate(308.824057 332.720312)scale(0.1 -0.1)">
       <use xlink:href="#DejaVuSans-50"/>
       <use x="63.623047" xlink:href="#DejaVuSans-50"/>
       <use x="127.246094" xlink:href="#DejaVuSans-53"/>
      </g>
     </g>
    </g>
    <g id="xtick_8">
     <g id="line2d_8"/>
     <g id="text_8">
      <!-- 250 -->
      <g style="fill:#262626;" transform="translate(342.969947 332.720312)scale(0.1 -0.1)">
       <use xlink:href="#DejaVuSans-50"/>
       <use x="63.623047" xlink:href="#DejaVuSans-53"/>
       <use x="127.246094" xlink:href="#DejaVuSans-48"/>
      </g>
     </g>
    </g>
   </g>
   <g id="matplotlib.axis_2">
    <g id="ytick_1">
     <g id="line2d_9"/>
     <g id="text_9">
      <!-- 250 -->
      <g style="fill:#262626;" transform="translate(69.412703 34.044785)scale(0.1 -0.1)">
       <use xlink:href="#DejaVuSans-50"/>
       <use x="63.623047" xlink:href="#DejaVuSans-53"/>
       <use x="127.246094" xlink:href="#DejaVuSans-48"/>
      </g>
     </g>
    </g>
    <g id="ytick_2">
     <g id="line2d_10"/>
     <g id="text_10">
      <!-- 300 -->
      <defs>
       <path d="M 40.578125 39.3125 
Q 47.65625 37.796875 51.625 33 
Q 55.609375 28.21875 55.609375 21.1875 
Q 55.609375 10.40625 48.1875 4.484375 
Q 40.765625 -1.421875 27.09375 -1.421875 
Q 22.515625 -1.421875 17.65625 -0.515625 
Q 12.796875 0.390625 7.625 2.203125 
L 7.625 11.71875 
Q 11.71875 9.328125 16.59375 8.109375 
Q 21.484375 6.890625 26.8125 6.890625 
Q 36.078125 6.890625 40.9375 10.546875 
Q 45.796875 14.203125 45.796875 21.1875 
Q 45.796875 27.640625 41.28125 31.265625 
Q 36.765625 34.90625 28.71875 34.90625 
L 20.21875 34.90625 
L 20.21875 43.015625 
L 29.109375 43.015625 
Q 36.375 43.015625 40.234375 45.921875 
Q 44.09375 48.828125 44.09375 54.296875 
Q 44.09375 59.90625 40.109375 62.90625 
Q 36.140625 65.921875 28.71875 65.921875 
Q 24.65625 65.921875 20.015625 65.03125 
Q 15.375 64.15625 9.8125 62.3125 
L 9.8125 71.09375 
Q 15.4375 72.65625 20.34375 73.4375 
Q 25.25 74.21875 29.59375 74.21875 
Q 40.828125 74.21875 47.359375 69.109375 
Q 53.90625 64.015625 53.90625 55.328125 
Q 53.90625 49.265625 50.4375 45.09375 
Q 46.96875 40.921875 40.578125 39.3125 
z
" id="DejaVuSans-51"/>
      </defs>
      <g style="fill:#262626;" transform="translate(69.412703 102.336564)scale(0.1 -0.1)">
       <use xlink:href="#DejaVuSans-51"/>
       <use x="63.623047" xlink:href="#DejaVuSans-48"/>
       <use x="127.246094" xlink:href="#DejaVuSans-48"/>
      </g>
     </g>
    </g>
    <g id="ytick_3">
     <g id="line2d_11"/>
     <g id="text_11">
      <!-- 350 -->
      <g style="fill:#262626;" transform="translate(69.412703 170.628343)scale(0.1 -0.1)">
       <use xlink:href="#DejaVuSans-51"/>
       <use x="63.623047" xlink:href="#DejaVuSans-53"/>
       <use x="127.246094" xlink:href="#DejaVuSans-48"/>
      </g>
     </g>
    </g>
    <g id="ytick_4">
     <g id="line2d_12"/>
     <g id="text_12">
      <!-- 400 -->
      <defs>
       <path d="M 37.796875 64.3125 
L 12.890625 25.390625 
L 37.796875 25.390625 
z
M 35.203125 72.90625 
L 47.609375 72.90625 
L 47.609375 25.390625 
L 58.015625 25.390625 
L 58.015625 17.1875 
L 47.609375 17.1875 
L 47.609375 0 
L 37.796875 0 
L 37.796875 17.1875 
L 4.890625 17.1875 
L 4.890625 26.703125 
z
" id="DejaVuSans-52"/>
      </defs>
      <g style="fill:#262626;" transform="translate(69.412703 238.920123)scale(0.1 -0.1)">
       <use xlink:href="#DejaVuSans-52"/>
       <use x="63.623047" xlink:href="#DejaVuSans-48"/>
       <use x="127.246094" xlink:href="#DejaVuSans-48"/>
      </g>
     </g>
    </g>
    <g id="ytick_5">
     <g id="line2d_13"/>
     <g id="text_13">
      <!-- 450 -->
      <g style="fill:#262626;" transform="translate(69.412703 307.211902)scale(0.1 -0.1)">
       <use xlink:href="#DejaVuSans-52"/>
       <use x="63.623047" xlink:href="#DejaVuSans-53"/>
       <use x="127.246094" xlink:href="#DejaVuSans-48"/>
      </g>
     </g>
    </g>
   </g>
   <g id="patch_3">
    <path clip-path="url(#pc32f2309f3)" d="M 149.419763 237.750028 
L 152.091428 230.882948 
L 152.296064 219.947868 
L 156.172958 214.292895 
L 160.18545 208.677819 
L 166.627309 207.078799 
L 169.79111 199.698204 
L 173.331545 192.660052 
L 176.167418 183.889127 
L 180.936476 178.562078 
L 184.14782 169.67172 
L 187.226537 159.90849 
L 193.181598 156.236596 
L 196.985909 147.14328 
L 203.611197 144.716474 
L 206.721727 132.64404 
L 211.721338 124.955702 
L 218.495562 122.0918 
L 225.406453 119.599657 
L 232.176753 116.571288 
L 238.932976 113.349459 
L 245.50921 109.209024 
L 252.065956 104.607666 
L 258.846595 100.554566 
L 265.962231 97.757534 
L 273.607303 97.684096 
L 280.879562 95.53689 
L 288.219175 93.622357 
L 295.686559 92.497998 
L 303.343501 93.108389 
L 311.133736 95.805983 
L 318.895353 99.778739 
L 326.401633 101.883607 
L 333.677826 99.894865 
L 332.195631 57.45034 
L 324.476713 65.153954 
L 316.420968 64.393389 
L 308.725353 68.278041 
L 300.8043 68.949507 
L 291.825121 61.049111 
L 283.784055 62.064844 
L 275.766035 63.25135 
L 267.815609 64.837767 
L 258.856387 61.201132 
L 251.22746 64.709351 
L 244.007828 69.704078 
L 236.892073 74.647576 
L 229.929277 79.747199 
L 223.145751 85.076438 
L 216.228465 89.57981 
L 209.040054 92.990738 
L 201.526958 95.349071 
L 194.516615 99.110771 
L 187.049181 101.570948 
L 180.283281 105.802824 
L 173.455111 109.763905 
L 166.074645 112.400561 
L 160.093067 118.086138 
L 153.546054 122.403389 
L 146.719044 126.093439 
L 144.783455 138.968904 
L 137.955256 142.264801 
L 131.102564 145.548136 
L 136.424668 169.133237 
L 130.659005 173.462035 
L 125.133257 178.120811 
L 123.839027 188.997041 
L 110.683157 182.42842 
z
" style="fill:#ff69b5;opacity:0.2;stroke:#ff69b5;stroke-linecap:round;stroke-linejoin:miter;stroke-width:0.5;"/>
   </g>
   <g id="patch_4">
    <path clip-path="url(#pc32f2309f3)" d="M 135.689534 277.232353 
L 139.115038 272.510977 
L 142.573766 267.752154 
L 146.376578 263.347467 
L 150.104738 258.778192 
L 152.85645 252.781486 
L 155.537566 246.487156 
L 159.105433 241.281638 
L 167.36094 243.145741 
L 171.806161 239.311251 
L 177.058925 236.759998 
L 182.050511 233.79257 
L 187.38062 231.430519 
L 192.798306 229.271704 
L 198.067701 226.870853 
L 202.545756 222.867667 
L 206.674717 217.980807 
L 211.867086 215.252069 
L 217.281443 213.012274 
L 222.554662 210.428165 
L 226.110178 203.328323 
L 231.730661 201.355523 
L 236.086792 195.718119 
L 240.445046 189.645365 
L 245.859353 186.498079 
L 251.284386 183.207521 
L 256.38521 178.482086 
L 261.653139 173.958788 
L 266.811103 168.475913 
L 271.425723 159.734709 
L 277.316558 156.17048 
L 283.415177 153.307314 
L 289.486047 149.8761 
L 296.412121 151.918197 
L 302.723871 149.812302 
L 309.449544 151.203505 
L 315.646311 147.384947 
L 321.840825 141.900957 
L 328.357992 139.213163 
L 327.119956 115.590029 
L 319.864185 113.63369 
L 313.177519 119.166527 
L 306.880966 126.765117 
L 299.896443 126.784753 
L 293.242614 129.365986 
L 288.848182 145.848779 
L 281.98518 145.197399 
L 276.455163 151.738989 
L 270.374898 154.790968 
L 263.927812 155.987006 
L 258.415648 160.973918 
L 252.918434 165.5439 
L 246.85189 167.74957 
L 241.425505 171.995615 
L 237.116479 179.40109 
L 229.451689 176.448379 
L 223.456168 178.621538 
L 219.749032 186.756973 
L 216.004654 194.216326 
L 210.191244 196.308812 
L 204.891995 199.585759 
L 199.895761 203.443289 
L 195.664765 208.759544 
L 189.853564 210.749702 
L 183.466359 211.720866 
L 177.896999 214.321614 
L 172.338006 216.970017 
L 167.647409 221.096604 
L 163.156498 225.468895 
L 158.301788 229.195871 
L 153.860458 233.505643 
L 152.416047 242.029165 
L 147.440701 245.327348 
L 140.937982 246.613496 
L 135.552779 249.493636 
L 129.416055 251.503734 
L 124.067374 254.57787 
L 118.665351 257.64827 
z
" style="fill:#00d9ff;opacity:0.2;stroke:#00d9ff;stroke-linecap:round;stroke-linejoin:miter;stroke-width:0.5;"/>
   </g>
   <g id="patch_5">
    <path clip-path="url(#pc32f2309f3)" d="M 180.546914 242.564986 
L 184.767161 238.497944 
L 190.397988 236.873995 
L 199.402156 241.691739 
L 207.389934 245.166767 
L 212.639016 243.561917 
L 217.863813 241.975903 
L 223.230624 240.774994 
L 228.651791 239.799134 
L 233.320253 237.073938 
L 237.147808 232.082331 
L 240.365121 225.078505 
L 245.074758 221.821068 
L 248.375336 214.052289 
L 252.183716 207.184139 
L 256.4911 201.365493 
L 261.339898 196.973232 
L 266.206395 192.220898 
L 271.03123 186.755289 
L 276.614154 184.144356 
L 282.500932 182.841774 
L 288.389614 181.51875 
L 294.558618 181.903053 
L 300.352392 179.954685 
L 306.244955 178.489232 
L 312.725923 182.376173 
L 318.09465 175.369587 
L 324.021943 173.092388 
L 329.869451 168.053519 
L 329.27643 156.738007 
L 323.014175 158.680638 
L 316.611424 158.416242 
L 307.259987 130.371261 
L 301.231804 137.660393 
L 295.144947 142.901791 
L 289.104517 147.467213 
L 283.303412 152.673463 
L 277.335653 156.268716 
L 271.369606 159.470701 
L 265.405348 162.38692 
L 259.266622 164.386992 
L 253.174153 166.498257 
L 247.035748 168.39076 
L 240.979327 170.536233 
L 234.594759 171.640034 
L 230.832295 180.457951 
L 225.472489 184.161334 
L 220.844521 189.610819 
L 216.442669 195.300451 
L 211.549728 199.509199 
L 206.389984 202.950297 
L 201.312939 206.482438 
L 196.336632 210.137076 
L 191.403506 213.791635 
L 185.366246 215.294033 
L 179.837081 217.821615 
L 173.884525 219.648666 
L 169.624773 224.387491 
z
" style="fill:#0000ff;opacity:0.2;stroke:#0000ff;stroke-linecap:round;stroke-linejoin:miter;stroke-width:0.5;"/>
   </g>
   <g id="patch_6">
    <path clip-path="url(#pc32f2309f3)" d="M 148.743556 236.784304 
L 153.38405 232.79934 
L 158.240111 229.100896 
L 163.431428 225.908876 
L 168.709728 222.8646 
L 173.999135 219.847177 
L 179.161037 216.601998 
L 184.24826 213.191407 
L 187.778635 206.677425 
L 191.00367 199.202882 
L 192.973407 188.598254 
L 194.906223 177.157346 
L 198.545307 168.872704 
L 204.196337 164.989715 
L 210.180246 161.829431 
L 214.64717 154.419015 
L 220.431275 150.251196 
L 226.270778 146.021455 
L 231.925364 140.922056 
L 237.383655 134.729912 
L 242.627506 127.137636 
L 248.169055 119.877082 
L 253.990913 112.945568 
L 260.453731 108.115546 
L 267.337071 104.830472 
L 274.338497 101.830902 
L 281.35759 98.555042 
L 288.406328 94.95402 
L 295.665015 92.322537 
L 303.140708 91.17894 
L 310.744013 91.351423 
L 318.537545 94.661852 
L 317.174817 75.173932 
L 309.365981 75.600443 
L 301.428356 74.886999 
L 293.481252 74.537212 
L 285.593887 74.942463 
L 277.886373 76.63864 
L 270.463659 79.855609 
L 263.350472 84.321197 
L 256.366141 88.884948 
L 249.310495 92.672449 
L 241.899998 94.733266 
L 234.191839 95.655297 
L 226.458169 96.628216 
L 219.260721 99.497875 
L 212.290272 102.993882 
L 205.747795 107.607275 
L 200.13365 114.543448 
L 196.948754 127.360218 
L 191.705033 134.072654 
L 187.84218 143.657717 
L 183.590304 151.741377 
L 176.662616 153.619651 
L 169.99444 156.127579 
L 163.643458 159.309473 
L 157.519931 162.922732 
L 151.669533 167.006012 
L 145.791866 170.990754 
L 140.442536 175.820093 
L 135.235801 180.786441 
L 130.045023 185.684268 
L 125.079932 190.836759 
L 120.066329 195.828979 
z
" style="fill:#ff69b5;opacity:0.2;stroke:#ff69b5;stroke-linecap:round;stroke-linejoin:miter;stroke-width:0.5;"/>
   </g>
   <g id="patch_7">
    <path clip-path="url(#pc32f2309f3)" d="M 140.969571 283.306341 
L 139.686122 273.19157 
L 138.728455 263.00359 
L 142.846976 258.829782 
L 146.737565 254.309802 
L 150.401481 249.402512 
L 151.984562 241.41294 
L 155.87081 236.486113 
L 160.143858 232.032411 
L 164.527824 227.663477 
L 169.205295 223.689362 
L 175.199959 221.927065 
L 180.291024 218.640549 
L 185.254563 215.083988 
L 187.653085 206.431019 
L 191.54237 200.307382 
L 195.618646 194.270988 
L 197.078883 182.03722 
L 201.197127 175.119999 
L 206.226501 170.014549 
L 211.475111 165.202671 
L 216.608204 159.806912 
L 222.037658 154.91647 
L 227.548982 149.955362 
L 232.812387 143.823377 
L 236.816632 132.752466 
L 243.066818 128.777169 
L 249.181516 123.937839 
L 255.45326 119.279687 
L 262.158855 116.137521 
L 269.073479 113.763515 
L 275.795275 110.092704 
L 282.555933 106.121082 
L 289.565389 103.20117 
L 296.744841 101.11701 
L 304.025401 99.596233 
L 311.5413 100.464457 
L 318.875016 99.487909 
L 324.487916 65.36771 
L 333.02703 81.25849 
L 331.61053 40.695243 
L 322.754574 32.29358 
L 313.675584 25.132574 
L 304.93274 24.928267 
L 297.162406 34.299196 
L 288.754085 36.037528 
L 280.362698 37.720619 
L 272.244744 41.018794 
L 264.288072 44.832111 
L 256.362334 48.370342 
L 248.635314 52.514265 
L 241.197695 57.532052 
L 234.286921 64.198882 
L 227.601057 71.058165 
L 220.877425 77.165848 
L 213.000842 79.022732 
L 205.963068 83.520751 
L 199.015115 88.054152 
L 192.822291 94.455655 
L 186.826845 100.991743 
L 180.485723 106.303887 
L 174.050137 111.165699 
L 167.295623 115.142924 
L 161.520925 121.148188 
L 155.39706 126.198514 
L 149.012387 130.594379 
L 147.143791 143.40805 
L 141.100531 147.939028 
L 134.603381 151.611729 
L 143.732523 181.29555 
L 137.405395 184.258517 
L 131.315345 187.640392 
L 125.854915 191.985719 
L 120.646801 196.657978 
L 124.401369 213.616429 
L 120.43449 219.404443 
L 115.806275 224.219263 
L 110.16378 227.729154 
L 105.796931 232.804004 
L 113.226788 251.391919 
z
" style="fill:#b20000;opacity:0.2;stroke:#b20000;stroke-linecap:round;stroke-linejoin:miter;stroke-width:0.5;"/>
   </g>
   <g id="patch_8">
    <path clip-path="url(#pc32f2309f3)" d="M 120.629694 268.963844 
L 124.873781 264.790252 
L 128.419666 259.76473 
L 131.862226 254.524504 
L 136.209365 250.334028 
L 141.784181 247.73644 
L 147.175149 244.961847 
L 150.051362 238.652043 
L 156.036875 236.732314 
L 160.187194 232.099142 
L 165.637187 229.438828 
L 175.460141 234.099174 
L 180.307962 230.774386 
L 179.947466 218.020755 
L 183.717051 212.192347 
L 188.449338 207.993753 
L 193.893619 205.128157 
L 199.569954 202.744594 
L 203.43876 196.321739 
L 208.738725 192.886891 
L 215.005409 191.743106 
L 219.370677 185.771324 
L 222.735629 176.641875 
L 227.719248 171.417006 
L 234.535349 171.457189 
L 239.396572 165.359274 
L 243.334658 155.483525 
L 247.609458 145.730532 
L 252.518171 137.320433 
L 257.663942 128.855207 
L 262.933322 119.781105 
L 269.147453 114.144079 
L 275.837869 110.334267 
L 282.741804 107.294623 
L 290.347927 108.76922 
L 295.456028 90.620474 
L 302.823831 88.164062 
L 310.457282 88.074076 
L 318.097545 88.369551 
L 325.747459 89.401234 
L 333.099736 83.340535 
L 340.701565 79.975825 
L 348.41619 71.219373 
L 348.41619 67.791902 
L 340.01061 40.391004 
L 331.825234 46.843568 
L 323.251021 41.766354 
L 314.895206 42.573975 
L 306.905308 47.474823 
L 298.183353 44.012863 
L 289.797695 44.537048 
L 281.330989 44.610367 
L 272.652261 43.591757 
L 264.711079 47.231103 
L 257.027386 51.791742 
L 249.494879 56.558201 
L 242.010805 61.054019 
L 234.403603 64.666866 
L 227.385895 70.255168 
L 220.837894 77.027985 
L 214.678649 84.510591 
L 208.521937 91.396137 
L 201.774713 96.068607 
L 196.002831 103.194115 
L 190.154077 109.659478 
L 184.012678 115.033407 
L 176.704076 117.417987 
L 169.801328 120.77083 
L 163.379937 125.134852 
L 156.885623 129.250521 
L 149.984254 132.501775 
L 140.966149 131.789594 
L 133.791793 134.753717 
L 138.440356 158.257564 
L 135.004444 166.769588 
L 150.356124 204.984015 
L 152.129407 219.691238 
L 146.542107 222.655742 
L 140.695697 225.290769 
L 134.802135 227.931854 
L 130.167435 232.320497 
L 125.705467 236.889651 
L 121.068169 241.194952 
L 115.683033 244.585801 
L 109.952015 247.624724 
L 105.699132 252.381776 
z
" style="fill:#b20000;opacity:0.2;stroke:#b20000;stroke-linecap:round;stroke-linejoin:miter;stroke-width:0.5;"/>
   </g>
   <g id="patch_9">
    <path clip-path="url(#pc32f2309f3)" d="M 148.435747 307.493608 
L 144.54049 295.519474 
L 147.937226 291.321711 
L 151.799279 287.627467 
L 157.071936 285.655902 
L 162.33525 283.773635 
L 166.886476 281.04831 
L 171.432984 278.349892 
L 176.644802 276.631413 
L 181.500652 274.483916 
L 186.534242 272.670038 
L 188.848435 266.58459 
L 194.991787 266.605292 
L 199.264622 263.608284 
L 203.135217 259.852565 
L 207.34467 256.629437 
L 212.884986 255.951412 
L 217.636285 253.807836 
L 222.42508 251.75757 
L 226.672961 248.506609 
L 229.684781 242.232706 
L 234.240433 239.351462 
L 238.502137 235.61048 
L 241.484011 228.152631 
L 245.411219 222.79822 
L 249.532675 217.614211 
L 254.913531 216.112962 
L 259.336705 211.289294 
L 263.692083 205.751705 
L 268.738469 202.376494 
L 273.774549 198.63791 
L 278.715461 194.030229 
L 284.350252 192.3557 
L 290.488486 193.422041 
L 296.708863 195.479162 
L 303.295463 200.895721 
L 308.892212 200.04941 
L 313.008021 185.060154 
L 318.748817 182.846756 
L 324.245455 176.288773 
L 330.007853 170.69439 
L 335.950568 164.977674 
L 333.393755 91.76014 
L 325.749829 89.446455 
L 318.011849 87.144049 
L 312.401001 110.290886 
L 305.199135 110.763569 
L 298.911207 118.760645 
L 291.921932 119.968842 
L 286.761209 132.672151 
L 280.908568 139.091627 
L 275.194341 145.252623 
L 269.721068 151.714936 
L 263.713647 155.059357 
L 257.486341 157.246672 
L 251.289325 159.463984 
L 245.668012 163.620898 
L 241.142221 171.069037 
L 236.819076 178.485778 
L 233.336981 187.732087 
L 228.06177 191.275326 
L 223.411053 196.296862 
L 217.562037 198.070984 
L 211.615945 199.665197 
L 206.763186 203.788523 
L 202.661328 209.374068 
L 197.324069 212.161621 
L 191.682415 214.339024 
L 184.741104 214.118312 
L 178.732809 215.829456 
L 178.572178 227.76792 
L 173.2573 230.433031 
L 165.819694 229.7309 
L 165.666353 240.536306 
L 159.871573 242.417487 
L 153.961165 244.235822 
L 144.086345 240.710473 
L 138.026351 242.749631 
L 131.765881 244.646627 
L 125.554417 246.735008 
L 120.175738 249.939999 
L 115.250018 253.71938 
L 112.465711 259.896823 
L 104.582002 260.466224 
z
" style="fill:#0000ff;opacity:0.2;stroke:#0000ff;stroke-linecap:round;stroke-linejoin:miter;stroke-width:0.5;"/>
   </g>
   <g id="patch_10">
    <path clip-path="url(#pc32f2309f3)" d="M 119.242515 267.423226 
L 124.554609 264.423087 
L 129.826681 261.441545 
L 133.572128 256.636057 
L 137.743952 252.29821 
L 142.989789 249.336336 
L 147.778157 245.791816 
L 153.306354 243.300654 
L 161.967797 245.525268 
L 167.466999 243.309058 
L 173.57018 242.134271 
L 184.160076 248.578298 
L 189.034963 245.889994 
L 193.411449 242.310423 
L 197.718496 238.525236 
L 202.483367 235.537087 
L 209.520595 237.168205 
L 214.566638 234.905088 
L 219.944233 233.393637 
L 224.47054 229.948725 
L 228.95876 226.278863 
L 234.171596 224.329036 
L 237.688527 217.724623 
L 241.644344 211.858422 
L 246.733321 208.998687 
L 250.855337 202.839207 
L 255.368157 197.449323 
L 260.320237 193.167805 
L 265.212931 188.236332 
L 269.213182 178.88046 
L 274.263233 173.084144 
L 280.027413 170.11662 
L 285.424964 164.705381 
L 291.554262 162.934295 
L 297.289814 158.163308 
L 302.753231 150.051425 
L 309.216371 148.985018 
L 316.159991 153.256334 
L 320.493565 122.63424 
L 327.386605 120.677998 
L 334.42283 121.228983 
L 341.407377 120.41174 
L 341.276699 112.92523 
L 334.130905 112.869356 
L 326.955311 112.448416 
L 319.84305 113.331435 
L 312.314416 109.301211 
L 305.844116 116.900152 
L 299.203285 121.139433 
L 292.755512 125.900073 
L 286.628651 131.835213 
L 280.506611 136.812017 
L 275.002933 144.267911 
L 269.224702 149.37972 
L 263.338911 153.436195 
L 257.39807 156.892637 
L 251.097805 158.749222 
L 244.582933 159.836777 
L 238.310487 161.806851 
L 232.010955 163.687901 
L 225.854012 165.999967 
L 219.888964 168.820727 
L 213.995853 171.769428 
L 208.542476 175.746787 
L 203.178691 179.788272 
L 197.720099 183.477416 
L 193.266953 189.227765 
L 188.643973 194.364788 
L 182.646653 196.605343 
L 177.807409 201.077927 
L 171.483594 202.751524 
L 166.545934 206.937854 
L 161.271672 210.485596 
L 154.354681 211.383044 
L 148.298561 213.792253 
L 141.431282 215.078632 
L 129.660414 209.530752 
L 123.969965 213.022651 
L 118.521667 216.866041 
L 113.298741 221.009767 
L 117.610285 236.924822 
L 119.802657 249.495379 
L 114.952848 253.377524 
L 110.113496 257.284423 
z
" style="fill:#00d9ff;opacity:0.2;stroke:#00d9ff;stroke-linecap:round;stroke-linejoin:miter;stroke-width:0.5;"/>
   </g>
   <g id="line2d_14">
    <path clip-path="url(#pc32f2309f3)" d="M 119.976076 249.702051 
L 124.712011 245.694722 
L 129.451514 241.684373 
L 134.198101 237.669372 
L 138.966638 233.663801 
L 130.05146 210.089224 
L 137.965227 209.939995 
L 138.71466 199.034339 
L 143.415981 193.877465 
L 148.305059 188.905528 
L 148.864936 176.313468 
L 153.873183 170.981502 
L 159.0575 165.814478 
L 161.443231 154.991283 
L 167.241265 150.482733 
L 172.120443 143.878929 
L 176.650591 136.154526 
L 183.318354 133.000251 
L 188.634595 126.473052 
L 195.330189 123.143711 
L 200.619171 115.877406 
L 206.624148 110.152386 
L 213.767808 107.541269 
L 220.817459 104.589733 
L 227.661252 100.823863 
L 234.431126 96.548329 
L 241.200642 91.9283 
L 248.036892 87.155872 
L 255.037028 82.631959 
L 262.409309 79.479333 
L 270.711456 81.260932 
L 278.322798 79.39412 
L 286.001615 77.843601 
L 293.75584 76.773555 
L 302.073901 81.028948 
L 309.929545 82.042012 
L 317.65816 82.086064 
L 325.439173 83.51878 
L 332.936729 78.672603 
" style="fill:none;stroke:#ff69b5;stroke-linecap:round;"/>
   </g>
   <g id="line2d_15">
    <path clip-path="url(#pc32f2309f3)" d="M 122.792282 271.365642 
L 127.177442 267.440312 
L 131.591206 263.544424 
L 135.994911 259.627944 
L 140.964679 256.420552 
L 145.52136 252.695844 
L 150.148575 249.054417 
L 153.976807 244.25816 
L 156.482945 237.39364 
L 162.831364 236.170806 
L 167.48133 232.390073 
L 172.353167 228.928301 
L 177.194259 225.381293 
L 182.63881 222.876067 
L 188.132333 220.496285 
L 193.960632 218.810278 
L 199.105261 215.813606 
L 203.285239 210.712048 
L 208.379541 207.418914 
L 213.736344 204.660543 
L 219.279658 202.322245 
L 222.929605 195.042648 
L 227.593414 189.98853 
L 232.76924 186.083249 
L 238.780762 184.523228 
L 243.642429 179.246847 
L 249.068138 175.478546 
L 254.651822 172.012993 
L 260.034393 167.466353 
L 265.369457 162.231459 
L 270.900311 157.262839 
L 276.885861 153.954735 
L 282.700178 149.252357 
L 289.167115 147.862439 
L 294.827367 140.642092 
L 301.310157 138.298528 
L 308.165255 138.984311 
L 314.411915 133.275737 
L 320.852505 127.767324 
L 327.738974 127.401596 
L 334.457795 122.230238 
" style="fill:none;stroke:#00d9ff;stroke-linecap:round;"/>
   </g>
   <g id="line2d_16">
    <path clip-path="url(#pc32f2309f3)" d="M 135.103743 276.558478 
L 141.14379 274.92875 
L 147.962191 274.406304 
L 151.922531 270.445963 
L 155.899884 266.468611 
L 158.109251 260.011347 
L 160.042873 252.9214 
L 162.033453 245.622607 
L 166.700245 242.12836 
L 172.500488 240.422406 
L 175.085843 233.476238 
L 179.325843 229.073305 
L 185.117535 227.347805 
L 192.384201 228.492886 
L 199.39672 229.479201 
L 204.487824 226.849497 
L 209.588376 224.22917 
L 214.810304 221.862646 
L 220.100759 219.654167 
L 224.881461 216.187195 
L 228.996164 210.846575 
L 232.918805 204.61992 
L 237.953527 201.139509 
L 241.485048 192.846161 
L 246.581521 188.860186 
L 251.763424 184.878126 
L 257.257026 181.735745 
L 262.736508 178.303945 
L 268.218289 174.571104 
L 273.99188 171.807529 
L 279.918293 169.555245 
L 285.846513 167.096106 
L 291.831568 164.685133 
L 297.74867 161.428238 
L 303.73838 158.074813 
L 309.992955 156.373717 
L 317.353037 166.892915 
L 323.518059 165.886513 
L 329.572941 162.395763 
" style="fill:none;stroke:#0000ff;stroke-linecap:round;"/>
   </g>
   <g id="line2d_17">
    <path clip-path="url(#pc32f2309f3)" d="M 112.610046 230.75004 
L 116.266492 224.808315 
L 119.970701 218.788975 
L 123.848655 212.855682 
L 134.404943 216.306641 
L 139.231991 211.818049 
L 144.142567 207.392582 
L 149.333615 203.347658 
L 154.576132 199.342347 
L 159.895501 195.418965 
L 165.415285 191.804005 
L 170.884096 188.057069 
L 175.711047 182.993449 
L 180.499055 177.665231 
L 184.818012 171.108952 
L 189.248264 164.449362 
L 193.193744 156.265211 
L 197.950685 149.531184 
L 203.5645 144.594824 
L 207.39041 134.481232 
L 213.089535 128.929235 
L 219.280525 124.507668 
L 225.593043 120.209966 
L 231.920912 115.679064 
L 238.409673 111.396467 
L 245.034527 107.305174 
L 251.650704 102.809008 
L 258.409936 98.500247 
L 265.343772 94.575835 
L 272.401078 90.843256 
L 279.621982 87.596841 
L 287.000107 84.948242 
L 294.573134 83.429874 
L 302.284532 83.032969 
L 310.054997 83.475933 
L 317.856181 84.917892 
" style="fill:none;stroke:#ff69b5;stroke-dasharray:3.7,1.6;stroke-dashoffset:0;"/>
   </g>
   <g id="line2d_18">
    <path clip-path="url(#pc32f2309f3)" d="M 110.411506 266.717601 
L 113.898122 261.487677 
L 127.098179 267.34913 
L 122.741527 252.997787 
L 124.446117 245.366372 
L 129.326626 241.524523 
L 133.586027 236.857123 
L 137.401425 231.50947 
L 136.315681 219.035459 
L 140.862863 214.235916 
L 145.729602 209.836401 
L 150.96661 205.960997 
L 156.468909 202.492456 
L 154.90167 186.769397 
L 160.695777 183.289789 
L 166.199177 179.246019 
L 168.332736 168.512699 
L 173.469715 163.252948 
L 178.569785 157.709588 
L 182.187253 148.590072 
L 187.623632 143.142849 
L 193.356112 138.159218 
L 199.150978 133.097207 
L 204.715248 127.131283 
L 210.526387 121.485311 
L 216.756025 116.738056 
L 222.906615 111.423055 
L 228.847028 104.959157 
L 235.333938 99.917667 
L 241.734218 94.06836 
L 248.325477 88.40587 
L 255.397084 84.325893 
L 262.717906 81.066928 
L 270.041673 77.462407 
L 277.400338 73.569938 
L 284.964043 70.460894 
L 292.749463 68.577269 
L 300.593903 66.947714 
L 308.23702 62.696362 
L 316.2753 62.310242 
L 323.621245 48.830645 
L 332.31878 60.976867 
L 340.119609 46.635593 
" style="fill:none;stroke:#b20000;stroke-dasharray:3.7,1.6;stroke-dashoffset:0;"/>
   </g>
   <g id="line2d_19">
    <path clip-path="url(#pc32f2309f3)" d="M 113.556055 270.089717 
L 113.164413 260.67281 
L 117.412898 256.207488 
L 122.05135 252.175266 
L 126.465197 247.859728 
L 130.957416 243.611839 
L 135.975808 240.028469 
L 140.988642 236.44685 
L 145.373529 231.971406 
L 151.289491 229.694028 
L 156.158301 225.89519 
L 157.996656 217.211422 
L 155.232293 200.434381 
L 159.374159 194.515975 
L 156.86963 176.387236 
L 162.3416 171.990971 
L 169.216796 170.247764 
L 175.389621 167.189339 
L 181.474945 163.939723 
L 186.620044 158.546284 
L 192.7214 155.152439 
L 199.509043 153.388257 
L 204.762377 147.715401 
L 209.36923 139.917995 
L 214.746981 133.742806 
L 221.528643 131.426663 
L 227.03761 124.934932 
L 232.086276 116.255755 
L 237.497677 107.99285 
L 243.460887 100.99365 
L 249.837374 94.954613 
L 256.214101 88.169653 
L 263.08742 82.96791 
L 270.274474 78.782685 
L 277.697032 75.44319 
L 285.839458 76.689793 
L 292.626862 67.578761 
L 300.503592 66.088462 
L 308.681295 67.774449 
L 316.496375 65.471763 
L 324.49924 65.583794 
L 332.462485 65.092052 
L 340.356087 60.183414 
L 348.41619 69.505637 
L 356.217998 74.981107 
" style="fill:none;stroke:#b20000;stroke-linecap:round;"/>
   </g>
   <g id="line2d_20">
    <path clip-path="url(#pc32f2309f3)" d="M 126.508875 283.979916 
L 128.503101 277.708148 
L 131.593622 272.520545 
L 135.987508 268.783733 
L 141.313177 266.195455 
L 147.050565 264.210131 
L 152.456413 261.89897 
L 157.759664 259.530183 
L 165.302984 260.433617 
L 170.686112 258.450702 
L 176.100297 256.603172 
L 177.334065 248.157745 
L 184.124544 248.519162 
L 188.9184 245.688102 
L 190.934013 237.84101 
L 196.042887 235.373875 
L 202.2837 235.145218 
L 207.480177 232.984729 
L 212.543204 230.565819 
L 216.718074 226.147566 
L 220.650363 220.948952 
L 225.901235 218.711223 
L 230.956595 215.953671 
L 234.77289 209.713978 
L 239.3741 205.265153 
L 243.175875 198.049994 
L 248.027876 193.590999 
L 252.502358 187.455096 
L 257.490704 182.607845 
L 263.112405 179.811583 
L 268.744098 176.848634 
L 274.218264 172.872582 
L 279.772297 168.804161 
L 285.698527 166.256834 
L 291.735036 164.075657 
L 297.608697 160.432281 
L 303.901709 159.405027 
L 309.103578 147.911862 
L 315.574909 146.568821 
L 321.128652 131.716411 
L 327.878841 130.070423 
L 334.672162 128.368907 
" style="fill:none;stroke:#0000ff;stroke-dasharray:3.7,1.6;stroke-dashoffset:0;"/>
   </g>
   <g id="line2d_21">
    <path clip-path="url(#pc32f2309f3)" d="M 106.656847 262.691222 
L 114.678005 262.353824 
L 119.753728 258.900306 
L 124.814669 255.468462 
L 125.591207 246.780439 
L 125.521347 236.653988 
L 130.755728 233.101189 
L 135.874061 229.407234 
L 141.483384 226.415703 
L 151.69954 230.30195 
L 157.88278 228.550655 
L 163.96243 226.758657 
L 172.715874 229.531947 
L 177.790448 226.413924 
L 182.447521 222.530974 
L 187.762952 219.801582 
L 192.56501 216.071215 
L 199.082284 215.766497 
L 203.916796 212.066427 
L 208.832166 208.435527 
L 213.824616 204.868499 
L 218.750618 201.012825 
L 224.083725 198.049232 
L 228.788745 193.272675 
L 233.749178 188.929194 
L 239.372138 186.343294 
L 244.582912 182.323029 
L 249.975545 178.64305 
L 255.709021 175.958513 
L 261.3055 172.564484 
L 266.276046 166.158328 
L 271.743968 161.231932 
L 277.515173 157.192265 
L 282.965787 150.758699 
L 289.091457 147.384754 
L 295.022663 142.031691 
L 300.978258 135.595429 
L 307.530244 132.942585 
L 314.237203 131.278772 
L 320.168307 117.982837 
L 327.170958 116.563207 
L 334.276868 117.04917 
L 341.342038 116.668485 
L 348.41619 116.851959 
L 355.420452 120.672466 
" style="fill:none;stroke:#00d9ff;stroke-dasharray:3.7,1.6;stroke-dashoffset:0;"/>
   </g>
   <g id="patch_11">
    <path d="M 92.000203 321.621875 
L 92.000203 10.8 
" style="fill:none;stroke:#262626;stroke-linecap:square;stroke-linejoin:miter;stroke-width:1.25;"/>
   </g>
   <g id="patch_12">
    <path d="M 368.799797 321.621875 
L 368.799797 10.8 
" style="fill:none;stroke:#262626;stroke-linecap:square;stroke-linejoin:miter;stroke-width:1.25;"/>
   </g>
   <g id="patch_13">
    <path d="M 92.000203 321.621875 
L 368.799797 321.621875 
" style="fill:none;stroke:#262626;stroke-linecap:square;stroke-linejoin:miter;stroke-width:1.25;"/>
   </g>
   <g id="patch_14">
    <path d="M 92.000203 10.8 
L 368.799797 10.8 
" style="fill:none;stroke:#262626;stroke-linecap:square;stroke-linejoin:miter;stroke-width:1.25;"/>
   </g>
   <g id="legend_1">
    <g id="line2d_22">
     <path d="M 263.829485 263.007812 
L 283.829485 263.007812 
" style="fill:none;stroke:#b20000;stroke-dasharray:3.7,1.6;stroke-dashoffset:0;"/>
    </g>
    <g id="line2d_23"/>
    <g id="text_14">
     <!-- u -->
     <defs>
      <path d="M 8.5 21.578125 
L 8.5 54.6875 
L 17.484375 54.6875 
L 17.484375 21.921875 
Q 17.484375 14.15625 20.5 10.265625 
Q 23.53125 6.390625 29.59375 6.390625 
Q 36.859375 6.390625 41.078125 11.03125 
Q 45.3125 15.671875 45.3125 23.6875 
L 45.3125 54.6875 
L 54.296875 54.6875 
L 54.296875 0 
L 45.3125 0 
L 45.3125 8.40625 
Q 42.046875 3.421875 37.71875 1 
Q 33.40625 -1.421875 27.6875 -1.421875 
Q 18.265625 -1.421875 13.375 4.4375 
Q 8.5 10.296875 8.5 21.578125 
z
M 31.109375 56 
z
" id="DejaVuSans-117"/>
     </defs>
     <g style="fill:#262626;" transform="translate(291.829485 266.507812)scale(0.1 -0.1)">
      <use xlink:href="#DejaVuSans-117"/>
     </g>
    </g>
    <g id="line2d_24">
     <path d="M 263.829485 277.685937 
L 283.829485 277.685937 
" style="fill:none;stroke:#b20000;stroke-linecap:round;"/>
    </g>
    <g id="line2d_25"/>
    <g id="text_15">
     <!-- ɯ -->
     <defs>
      <path d="M 46 10.546875 
Q 42.71875 4.640625 37.9375 1.65625 
Q 33.25 -1.265625 26.90625 -1.265625 
Q 18.359375 -1.265625 13.71875 4.734375 
Q 9.078125 10.75 9.078125 21.78125 
L 9.078125 54.78125 
L 18.109375 54.78125 
L 18.109375 22.078125 
Q 18.109375 14.15625 20.890625 10.34375 
Q 23.6875 6.546875 29.390625 6.546875 
Q 36.375 6.546875 40.4375 11.234375 
Q 44.484375 15.828125 44.484375 23.828125 
L 44.484375 54.78125 
L 53.515625 54.78125 
L 53.515625 22.078125 
Q 53.515625 14.15625 56.296875 10.34375 
Q 59.078125 6.546875 64.890625 6.546875 
Q 71.78125 6.546875 75.828125 11.234375 
Q 79.890625 15.921875 79.890625 23.828125 
L 79.890625 54.78125 
L 88.921875 54.78125 
L 88.921875 0 
L 79.890625 0 
L 79.890625 8.59375 
Q 76.90625 3.65625 72.515625 1.171875 
Q 68.21875 -1.265625 62.3125 -1.265625 
Q 56.34375 -1.265625 52.15625 1.765625 
Q 48 4.78125 46 10.546875 
z
" id="DejaVuSans-623"/>
     </defs>
     <g style="fill:#262626;" transform="translate(291.829485 281.185937)scale(0.1 -0.1)">
      <use xlink:href="#DejaVuSans-623"/>
     </g>
    </g>
    <g id="line2d_26">
     <path d="M 263.829485 292.364062 
L 283.829485 292.364062 
" style="fill:none;stroke:#ff69b5;stroke-dasharray:3.7,1.6;stroke-dashoffset:0;"/>
    </g>
    <g id="line2d_27"/>
    <g id="text_16">
     <!-- o -->
     <defs>
      <path d="M 30.609375 48.390625 
Q 23.390625 48.390625 19.1875 42.75 
Q 14.984375 37.109375 14.984375 27.296875 
Q 14.984375 17.484375 19.15625 11.84375 
Q 23.34375 6.203125 30.609375 6.203125 
Q 37.796875 6.203125 41.984375 11.859375 
Q 46.1875 17.53125 46.1875 27.296875 
Q 46.1875 37.015625 41.984375 42.703125 
Q 37.796875 48.390625 30.609375 48.390625 
z
M 30.609375 56 
Q 42.328125 56 49.015625 48.375 
Q 55.71875 40.765625 55.71875 27.296875 
Q 55.71875 13.875 49.015625 6.21875 
Q 42.328125 -1.421875 30.609375 -1.421875 
Q 18.84375 -1.421875 12.171875 6.21875 
Q 5.515625 13.875 5.515625 27.296875 
Q 5.515625 40.765625 12.171875 48.375 
Q 18.84375 56 30.609375 56 
z
" id="DejaVuSans-111"/>
     </defs>
     <g style="fill:#262626;" transform="translate(291.829485 295.864062)scale(0.1 -0.1)">
      <use xlink:href="#DejaVuSans-111"/>
     </g>
    </g>
    <g id="line2d_28">
     <path d="M 263.829485 307.042187 
L 283.829485 307.042187 
" style="fill:none;stroke:#ff69b5;stroke-linecap:round;"/>
    </g>
    <g id="line2d_29"/>
    <g id="text_17">
     <!-- a -->
     <defs>
      <path d="M 34.28125 27.484375 
Q 23.390625 27.484375 19.1875 25 
Q 14.984375 22.515625 14.984375 16.5 
Q 14.984375 11.71875 18.140625 8.90625 
Q 21.296875 6.109375 26.703125 6.109375 
Q 34.1875 6.109375 38.703125 11.40625 
Q 43.21875 16.703125 43.21875 25.484375 
L 43.21875 27.484375 
z
M 52.203125 31.203125 
L 52.203125 0 
L 43.21875 0 
L 43.21875 8.296875 
Q 40.140625 3.328125 35.546875 0.953125 
Q 30.953125 -1.421875 24.3125 -1.421875 
Q 15.921875 -1.421875 10.953125 3.296875 
Q 6 8.015625 6 15.921875 
Q 6 25.140625 12.171875 29.828125 
Q 18.359375 34.515625 30.609375 34.515625 
L 43.21875 34.515625 
L 43.21875 35.40625 
Q 43.21875 41.609375 39.140625 45 
Q 35.0625 48.390625 27.6875 48.390625 
Q 23 48.390625 18.546875 47.265625 
Q 14.109375 46.140625 10.015625 43.890625 
L 10.015625 52.203125 
Q 14.9375 54.109375 19.578125 55.046875 
Q 24.21875 56 28.609375 56 
Q 40.484375 56 46.34375 49.84375 
Q 52.203125 43.703125 52.203125 31.203125 
z
" id="DejaVuSans-97"/>
     </defs>
     <g style="fill:#262626;" transform="translate(291.829485 310.542187)scale(0.1 -0.1)">
      <use xlink:href="#DejaVuSans-97"/>
     </g>
    </g>
    <g id="line2d_30">
     <path d="M 321.57011 263.007812 
L 341.57011 263.007812 
" style="fill:none;stroke:#0000ff;stroke-linecap:round;"/>
    </g>
    <g id="line2d_31"/>
    <g id="text_18">
     <!-- i -->
     <defs>
      <path d="M 9.421875 54.6875 
L 18.40625 54.6875 
L 18.40625 0 
L 9.421875 0 
z
M 9.421875 75.984375 
L 18.40625 75.984375 
L 18.40625 64.59375 
L 9.421875 64.59375 
z
" id="DejaVuSans-105"/>
     </defs>
     <g style="fill:#262626;" transform="translate(349.57011 266.507812)scale(0.1 -0.1)">
      <use xlink:href="#DejaVuSans-105"/>
     </g>
    </g>
    <g id="line2d_32">
     <path d="M 321.57011 277.685937 
L 341.57011 277.685937 
" style="fill:none;stroke:#0000ff;stroke-dasharray:3.7,1.6;stroke-dashoffset:0;"/>
    </g>
    <g id="line2d_33"/>
    <g id="text_19">
     <!-- y -->
     <defs>
      <path d="M 32.171875 -5.078125 
Q 28.375 -14.84375 24.75 -17.8125 
Q 21.140625 -20.796875 15.09375 -20.796875 
L 7.90625 -20.796875 
L 7.90625 -13.28125 
L 13.1875 -13.28125 
Q 16.890625 -13.28125 18.9375 -11.515625 
Q 21 -9.765625 23.484375 -3.21875 
L 25.09375 0.875 
L 2.984375 54.6875 
L 12.5 54.6875 
L 29.59375 11.921875 
L 46.6875 54.6875 
L 56.203125 54.6875 
z
" id="DejaVuSans-121"/>
     </defs>
     <g style="fill:#262626;" transform="translate(349.57011 281.185937)scale(0.1 -0.1)">
      <use xlink:href="#DejaVuSans-121"/>
     </g>
    </g>
    <g id="line2d_34">
     <path d="M 321.57011 292.364062 
L 341.57011 292.364062 
" style="fill:none;stroke:#00d9ff;stroke-linecap:round;"/>
    </g>
    <g id="line2d_35"/>
    <g id="text_20">
     <!-- e -->
     <defs>
      <path d="M 56.203125 29.59375 
L 56.203125 25.203125 
L 14.890625 25.203125 
Q 15.484375 15.921875 20.484375 11.0625 
Q 25.484375 6.203125 34.421875 6.203125 
Q 39.59375 6.203125 44.453125 7.46875 
Q 49.3125 8.734375 54.109375 11.28125 
L 54.109375 2.78125 
Q 49.265625 0.734375 44.1875 -0.34375 
Q 39.109375 -1.421875 33.890625 -1.421875 
Q 20.796875 -1.421875 13.15625 6.1875 
Q 5.515625 13.8125 5.515625 26.8125 
Q 5.515625 40.234375 12.765625 48.109375 
Q 20.015625 56 32.328125 56 
Q 43.359375 56 49.78125 48.890625 
Q 56.203125 41.796875 56.203125 29.59375 
z
M 47.21875 32.234375 
Q 47.125 39.59375 43.09375 43.984375 
Q 39.0625 48.390625 32.421875 48.390625 
Q 24.90625 48.390625 20.390625 44.140625 
Q 15.875 39.890625 15.1875 32.171875 
z
" id="DejaVuSans-101"/>
     </defs>
     <g style="fill:#262626;" transform="translate(349.57011 295.864062)scale(0.1 -0.1)">
      <use xlink:href="#DejaVuSans-101"/>
     </g>
    </g>
    <g id="line2d_36">
     <path d="M 321.57011 307.042187 
L 341.57011 307.042187 
" style="fill:none;stroke:#00d9ff;stroke-dasharray:3.7,1.6;stroke-dashoffset:0;"/>
    </g>
    <g id="line2d_37"/>
    <g id="text_21">
     <!-- œ -->
     <defs>
      <path d="M 87.984375 32.234375 
Q 87.890625 39.65625 83.890625 44.015625 
Q 79.890625 48.390625 73.1875 48.390625 
Q 65.71875 48.390625 61.203125 44.140625 
Q 56.6875 39.890625 56 32.171875 
z
M 97.015625 29.59375 
L 97.015625 25.203125 
L 55.71875 25.203125 
Q 56.296875 15.921875 61.28125 11.0625 
Q 66.265625 6.203125 75.203125 6.203125 
Q 80.375 6.203125 85.25 7.46875 
Q 90.140625 8.734375 94.921875 11.28125 
L 94.921875 2.78125 
Q 90.046875 0.734375 84.96875 -0.34375 
Q 79.890625 -1.421875 74.703125 -1.421875 
Q 66.890625 -1.421875 60.984375 1.265625 
Q 55.078125 3.953125 51.125 9.28125 
Q 47.65625 3.90625 42.546875 1.234375 
Q 37.453125 -1.421875 30.609375 -1.421875 
Q 18.84375 -1.421875 12.171875 6.21875 
Q 5.515625 13.875 5.515625 27.296875 
Q 5.515625 40.765625 12.171875 48.375 
Q 18.84375 56 30.609375 56 
Q 37.453125 56 42.59375 53.296875 
Q 47.75 50.59375 50.984375 45.3125 
Q 54.78125 50.53125 60.4375 53.265625 
Q 66.109375 56 73.09375 56 
Q 84.125 56 90.5625 48.890625 
Q 97.015625 41.796875 97.015625 29.59375 
z
M 30.609375 48.390625 
Q 23.390625 48.390625 19.1875 42.75 
Q 14.984375 37.109375 14.984375 27.296875 
Q 14.984375 17.484375 19.15625 11.84375 
Q 23.34375 6.203125 30.609375 6.203125 
Q 37.796875 6.203125 41.984375 11.859375 
Q 46.1875 17.53125 46.1875 27.296875 
Q 46.1875 37.015625 41.984375 42.703125 
Q 37.796875 48.390625 30.609375 48.390625 
z
" id="DejaVuSans-339"/>
     </defs>
     <g style="fill:#262626;" transform="translate(349.57011 310.542187)scale(0.1 -0.1)">
      <use xlink:href="#DejaVuSans-339"/>
     </g>
    </g>
   </g>
  </g>
 </g>
 <defs>
  <clipPath id="pc32f2309f3">
   <rect height="310.821875" width="276.799595" x="92.000203" y="10.8"/>
  </clipPath>
 </defs>
</svg>
