<?xml version="1.0" encoding="utf-8" standalone="no"?>
<!DOCTYPE svg PUBLIC "-//W3C//DTD SVG 1.1//EN"
  "http://www.w3.org/Graphics/SVG/1.1/DTD/svg11.dtd">
<!-- Created with matplotlib (https://matplotlib.org/) -->
<svg height="345.6pt" version="1.1" viewBox="0 0 460.8 345.6" width="460.8pt" xmlns="http://www.w3.org/2000/svg" xmlns:xlink="http://www.w3.org/1999/xlink">
 <defs>
  <style type="text/css">
*{stroke-linecap:butt;stroke-linejoin:round;}
  </style>
 </defs>
 <g id="figure_1">
  <g id="patch_1">
   <path d="M 0 345.6 
L 460.8 345.6 
L 460.8 0 
L 0 0 
z
" style="fill:#ffffff;"/>
  </g>
  <g id="axes_1">
   <g id="patch_2">
    <path d="M 33.3875 322.716583 
L 450 322.716583 
L 450 10.916902 
L 33.3875 10.916902 
z
" style="fill:#ffffff;"/>
   </g>
   <g id="matplotlib.axis_1">
    <g id="xtick_1">
     <g id="line2d_1"/>
     <g id="text_1">
      <!-- 100 -->
      <defs>
       <path d="M 12.40625 8.296875 
L 28.515625 8.296875 
L 28.515625 63.921875 
L 10.984375 60.40625 
L 10.984375 69.390625 
L 28.421875 72.90625 
L 38.28125 72.90625 
L 38.28125 8.296875 
L 54.390625 8.296875 
L 54.390625 0 
L 12.40625 0 
z
" id="DejaVuSans-49"/>
       <path d="M 31.78125 66.40625 
Q 24.171875 66.40625 20.328125 58.90625 
Q 16.5 51.421875 16.5 36.375 
Q 16.5 21.390625 20.328125 13.890625 
Q 24.171875 6.390625 31.78125 6.390625 
Q 39.453125 6.390625 43.28125 13.890625 
Q 47.125 21.390625 47.125 36.375 
Q 47.125 51.421875 43.28125 58.90625 
Q 39.453125 66.40625 31.78125 66.40625 
z
M 31.78125 74.21875 
Q 44.046875 74.21875 50.515625 64.515625 
Q 56.984375 54.828125 56.984375 36.375 
Q 56.984375 17.96875 50.515625 8.265625 
Q 44.046875 -1.421875 31.78125 -1.421875 
Q 19.53125 -1.421875 13.0625 8.265625 
Q 6.59375 17.96875 6.59375 36.375 
Q 6.59375 54.828125 13.0625 64.515625 
Q 19.53125 74.21875 31.78125 74.21875 
z
" id="DejaVuSans-48"/>
      </defs>
      <g style="fill:#262626;" transform="translate(90.02707 333.81502)scale(0.1 -0.1)">
       <use xlink:href="#DejaVuSans-49"/>
       <use x="63.623047" xlink:href="#DejaVuSans-48"/>
       <use x="127.246094" xlink:href="#DejaVuSans-48"/>
      </g>
     </g>
    </g>
    <g id="xtick_2">
     <g id="line2d_2"/>
     <g id="text_2">
      <!-- 150 -->
      <defs>
       <path d="M 10.796875 72.90625 
L 49.515625 72.90625 
L 49.515625 64.59375 
L 19.828125 64.59375 
L 19.828125 46.734375 
Q 21.96875 47.46875 24.109375 47.828125 
Q 26.265625 48.1875 28.421875 48.1875 
Q 40.625 48.1875 47.75 41.5 
Q 54.890625 34.8125 54.890625 23.390625 
Q 54.890625 11.625 47.5625 5.09375 
Q 40.234375 -1.421875 26.90625 -1.421875 
Q 22.3125 -1.421875 17.546875 -0.640625 
Q 12.796875 0.140625 7.71875 1.703125 
L 7.71875 11.625 
Q 12.109375 9.234375 16.796875 8.0625 
Q 21.484375 6.890625 26.703125 6.890625 
Q 35.15625 6.890625 40.078125 11.328125 
Q 45.015625 15.765625 45.015625 23.390625 
Q 45.015625 31 40.078125 35.4375 
Q 35.15625 39.890625 26.703125 39.890625 
Q 22.75 39.890625 18.8125 39.015625 
Q 14.890625 38.140625 10.796875 36.28125 
z
" id="DejaVuSans-53"/>
      </defs>
      <g style="fill:#262626;" transform="translate(172.10222 333.81502)scale(0.1 -0.1)">
       <use xlink:href="#DejaVuSans-49"/>
       <use x="63.623047" xlink:href="#DejaVuSans-53"/>
       <use x="127.246094" xlink:href="#DejaVuSans-48"/>
      </g>
     </g>
    </g>
    <g id="xtick_3">
     <g id="line2d_3"/>
     <g id="text_3">
      <!-- 200 -->
      <defs>
       <path d="M 19.1875 8.296875 
L 53.609375 8.296875 
L 53.609375 0 
L 7.328125 0 
L 7.328125 8.296875 
Q 12.9375 14.109375 22.625 23.890625 
Q 32.328125 33.6875 34.8125 36.53125 
Q 39.546875 41.84375 41.421875 45.53125 
Q 43.3125 49.21875 43.3125 52.78125 
Q 43.3125 58.59375 39.234375 62.25 
Q 35.15625 65.921875 28.609375 65.921875 
Q 23.96875 65.921875 18.8125 64.3125 
Q 13.671875 62.703125 7.8125 59.421875 
L 7.8125 69.390625 
Q 13.765625 71.78125 18.9375 73 
Q 24.125 74.21875 28.421875 74.21875 
Q 39.75 74.21875 46.484375 68.546875 
Q 53.21875 62.890625 53.21875 53.421875 
Q 53.21875 48.921875 51.53125 44.890625 
Q 49.859375 40.875 45.40625 35.40625 
Q 44.1875 33.984375 37.640625 27.21875 
Q 31.109375 20.453125 19.1875 8.296875 
z
" id="DejaVuSans-50"/>
      </defs>
      <g style="fill:#262626;" transform="translate(254.17737 333.81502)scale(0.1 -0.1)">
       <use xlink:href="#DejaVuSans-50"/>
       <use x="63.623047" xlink:href="#DejaVuSans-48"/>
       <use x="127.246094" xlink:href="#DejaVuSans-48"/>
      </g>
     </g>
    </g>
    <g id="xtick_4">
     <g id="line2d_4"/>
     <g id="text_4">
      <!-- 250 -->
      <g style="fill:#262626;" transform="translate(336.252521 333.81502)scale(0.1 -0.1)">
       <use xlink:href="#DejaVuSans-50"/>
       <use x="63.623047" xlink:href="#DejaVuSans-53"/>
       <use x="127.246094" xlink:href="#DejaVuSans-48"/>
      </g>
     </g>
    </g>
    <g id="xtick_5">
     <g id="line2d_5"/>
     <g id="text_5">
      <!-- 300 -->
      <defs>
       <path d="M 40.578125 39.3125 
Q 47.65625 37.796875 51.625 33 
Q 55.609375 28.21875 55.609375 21.1875 
Q 55.609375 10.40625 48.1875 4.484375 
Q 40.765625 -1.421875 27.09375 -1.421875 
Q 22.515625 -1.421875 17.65625 -0.515625 
Q 12.796875 0.390625 7.625 2.203125 
L 7.625 11.71875 
Q 11.71875 9.328125 16.59375 8.109375 
Q 21.484375 6.890625 26.8125 6.890625 
Q 36.078125 6.890625 40.9375 10.546875 
Q 45.796875 14.203125 45.796875 21.1875 
Q 45.796875 27.640625 41.28125 31.265625 
Q 36.765625 34.90625 28.71875 34.90625 
L 20.21875 34.90625 
L 20.21875 43.015625 
L 29.109375 43.015625 
Q 36.375 43.015625 40.234375 45.921875 
Q 44.09375 48.828125 44.09375 54.296875 
Q 44.09375 59.90625 40.109375 62.90625 
Q 36.140625 65.921875 28.71875 65.921875 
Q 24.65625 65.921875 20.015625 65.03125 
Q 15.375 64.15625 9.8125 62.3125 
L 9.8125 71.09375 
Q 15.4375 72.65625 20.34375 73.4375 
Q 25.25 74.21875 29.59375 74.21875 
Q 40.828125 74.21875 47.359375 69.109375 
Q 53.90625 64.015625 53.90625 55.328125 
Q 53.90625 49.265625 50.4375 45.09375 
Q 46.96875 40.921875 40.578125 39.3125 
z
" id="DejaVuSans-51"/>
      </defs>
      <g style="fill:#262626;" transform="translate(418.327671 333.81502)scale(0.1 -0.1)">
       <use xlink:href="#DejaVuSans-51"/>
       <use x="63.623047" xlink:href="#DejaVuSans-48"/>
       <use x="127.246094" xlink:href="#DejaVuSans-48"/>
      </g>
     </g>
    </g>
   </g>
   <g id="matplotlib.axis_2">
    <g id="ytick_1">
     <g id="line2d_6"/>
     <g id="text_6">
      <!-- 300 -->
      <g style="fill:#262626;" transform="translate(10.8 22.057999)scale(0.1 -0.1)">
       <use xlink:href="#DejaVuSans-51"/>
       <use x="63.623047" xlink:href="#DejaVuSans-48"/>
       <use x="127.246094" xlink:href="#DejaVuSans-48"/>
      </g>
     </g>
    </g>
    <g id="ytick_2">
     <g id="line2d_7"/>
     <g id="text_7">
      <!-- 325 -->
      <g style="fill:#262626;" transform="translate(10.8 63.095574)scale(0.1 -0.1)">
       <use xlink:href="#DejaVuSans-51"/>
       <use x="63.623047" xlink:href="#DejaVuSans-50"/>
       <use x="127.246094" xlink:href="#DejaVuSans-53"/>
      </g>
     </g>
    </g>
    <g id="ytick_3">
     <g id="line2d_8"/>
     <g id="text_8">
      <!-- 350 -->
      <g style="fill:#262626;" transform="translate(10.8 104.133149)scale(0.1 -0.1)">
       <use xlink:href="#DejaVuSans-51"/>
       <use x="63.623047" xlink:href="#DejaVuSans-53"/>
       <use x="127.246094" xlink:href="#DejaVuSans-48"/>
      </g>
     </g>
    </g>
    <g id="ytick_4">
     <g id="line2d_9"/>
     <g id="text_9">
      <!-- 375 -->
      <defs>
       <path d="M 8.203125 72.90625 
L 55.078125 72.90625 
L 55.078125 68.703125 
L 28.609375 0 
L 18.3125 0 
L 43.21875 64.59375 
L 8.203125 64.59375 
z
" id="DejaVuSans-55"/>
      </defs>
      <g style="fill:#262626;" transform="translate(10.8 145.170725)scale(0.1 -0.1)">
       <use xlink:href="#DejaVuSans-51"/>
       <use x="63.623047" xlink:href="#DejaVuSans-55"/>
       <use x="127.246094" xlink:href="#DejaVuSans-53"/>
      </g>
     </g>
    </g>
    <g id="ytick_5">
     <g id="line2d_10"/>
     <g id="text_10">
      <!-- 400 -->
      <defs>
       <path d="M 37.796875 64.3125 
L 12.890625 25.390625 
L 37.796875 25.390625 
z
M 35.203125 72.90625 
L 47.609375 72.90625 
L 47.609375 25.390625 
L 58.015625 25.390625 
L 58.015625 17.1875 
L 47.609375 17.1875 
L 47.609375 0 
L 37.796875 0 
L 37.796875 17.1875 
L 4.890625 17.1875 
L 4.890625 26.703125 
z
" id="DejaVuSans-52"/>
      </defs>
      <g style="fill:#262626;" transform="translate(10.8 186.2083)scale(0.1 -0.1)">
       <use xlink:href="#DejaVuSans-52"/>
       <use x="63.623047" xlink:href="#DejaVuSans-48"/>
       <use x="127.246094" xlink:href="#DejaVuSans-48"/>
      </g>
     </g>
    </g>
    <g id="ytick_6">
     <g id="line2d_11"/>
     <g id="text_11">
      <!-- 425 -->
      <g style="fill:#262626;" transform="translate(10.8 227.245875)scale(0.1 -0.1)">
       <use xlink:href="#DejaVuSans-52"/>
       <use x="63.623047" xlink:href="#DejaVuSans-50"/>
       <use x="127.246094" xlink:href="#DejaVuSans-53"/>
      </g>
     </g>
    </g>
    <g id="ytick_7">
     <g id="line2d_12"/>
     <g id="text_12">
      <!-- 450 -->
      <g style="fill:#262626;" transform="translate(10.8 268.28345)scale(0.1 -0.1)">
       <use xlink:href="#DejaVuSans-52"/>
       <use x="63.623047" xlink:href="#DejaVuSans-53"/>
       <use x="127.246094" xlink:href="#DejaVuSans-48"/>
      </g>
     </g>
    </g>
    <g id="ytick_8">
     <g id="line2d_13"/>
     <g id="text_13">
      <!-- 475 -->
      <g style="fill:#262626;" transform="translate(10.8 309.321025)scale(0.1 -0.1)">
       <use xlink:href="#DejaVuSans-52"/>
       <use x="63.623047" xlink:href="#DejaVuSans-55"/>
       <use x="127.246094" xlink:href="#DejaVuSans-53"/>
      </g>
     </g>
    </g>
   </g>
   <g id="patch_3">
    <path clip-path="url(#pb28597d57a)" d="M 94.144001 250.185909 
L 93.141897 239.354757 
L 91.15791 226.873855 
L 87.31679 211.498562 
L 91.237906 205.243992 
L 97.117429 201.442472 
L 103.066115 197.765979 
L 109.371024 194.630001 
L 115.371904 191.10867 
L 120.183605 185.784127 
L 125.625645 181.346817 
L 131.641883 177.805545 
L 137.021998 173.166886 
L 141.343407 166.522721 
L 146.420247 161.023026 
L 151.612932 155.560596 
L 156.66649 149.613085 
L 160.941731 141.737935 
L 165.296647 133.584289 
L 170.633075 127.235765 
L 176.54472 121.960724 
L 182.975116 117.7764 
L 189.649146 114.097963 
L 196.504836 110.821245 
L 203.291504 107.234261 
L 210.080707 103.498666 
L 217.360455 101.272788 
L 224.899142 99.995337 
L 232.449092 98.866541 
L 239.942752 97.607392 
L 247.459101 96.532012 
L 255.029415 95.827714 
L 262.652308 95.572989 
L 270.51083 97.045342 
L 278.503137 100.142679 
L 286.514251 104.590239 
L 294.402481 109.668742 
L 302.179812 115.832624 
L 309.605447 120.378745 
L 317.012108 127.932863 
L 324.205128 137.30175 
L 331.075873 147.435915 
L 337.588756 160.389332 
L 343.637425 174.030653 
L 349.25209 186.564516 
L 355.753628 173.9523 
L 361.342544 180.8637 
L 366.923229 185.26414 
L 375.216329 162.556253 
L 380.937903 167.508225 
L 386.878591 169.8433 
L 392.642782 172.961261 
L 399.564696 169.075678 
L 405.670632 170.307813 
L 411.92568 170.830971 
L 417.467163 174.567305 
L 420.079096 163.253782 
L 413.904825 161.519823 
L 407.259885 162.131811 
L 402.283529 153.656412 
L 396.140696 150.876297 
L 390.066533 147.159913 
L 383.621074 145.655551 
L 377.592704 139.946554 
L 372.165939 125.339686 
L 365.579385 120.274055 
L 359.076709 110.544121 
L 352.08728 105.37528 
L 344.930115 99.972494 
L 337.588756 95.61096 
L 330.110309 92.118769 
L 322.516776 88.95367 
L 314.826374 86.226583 
L 307.027526 83.512758 
L 298.948354 78.896891 
L 290.630348 73.779295 
L 281.993509 67.771752 
L 273.105264 61.734817 
L 264.189874 57.136398 
L 255.349974 54.159393 
L 246.460969 51.746881 
L 237.722062 50.722847 
L 229.110412 50.687372 
L 220.804638 52.163188 
L 212.485098 53.665493 
L 204.217103 55.436474 
L 196.121894 57.841446 
L 188.064388 60.370017 
L 179.884941 62.553568 
L 171.832779 65.147899 
L 163.926319 68.152585 
L 156.769404 73.015101 
L 149.570529 77.615515 
L 142.213209 81.738039 
L 134.788042 85.651167 
L 127.630064 90.079588 
L 122.298124 98.027045 
L 117.391306 106.427529 
L 112.711695 114.869744 
L 108.827567 124.332699 
L 104.119512 132.000629 
L 99.338814 139.279092 
L 94.316826 145.95278 
L 88.647459 151.48805 
L 83.048823 157.038003 
L 77.787762 162.973311 
L 72.836256 169.220267 
L 66.146254 173.128142 
L 60.977919 178.972765 
L 53.716662 182.253114 
L 52.774168 192.916997 
L 54.537041 206.197924 
z
" style="fill:#ff69b5;opacity:0.2;stroke:#ff69b5;stroke-linecap:round;stroke-linejoin:miter;stroke-width:0.5;"/>
   </g>
   <g id="patch_4">
    <path clip-path="url(#pb28597d57a)" d="M 127.022431 286.701106 
L 131.924831 283.969419 
L 136.834234 281.308778 
L 139.934722 276.476296 
L 157.656697 290.256168 
L 161.356519 286.690623 
L 165.141647 283.205618 
L 168.227688 278.68603 
L 168.985796 270.594534 
L 164.977943 254.761358 
L 166.96913 247.510222 
L 166.397366 235.648383 
L 167.373801 225.737751 
L 170.567297 219.244014 
L 175.365656 215.461424 
L 179.893013 211.06338 
L 184.407091 206.489745 
L 189.96801 203.984991 
L 195.398681 201.194564 
L 200.737645 198.157687 
L 205.532277 193.707446 
L 210.32519 189.025777 
L 214.650469 182.788533 
L 219.090464 176.414674 
L 223.534157 169.534741 
L 228.141622 162.573257 
L 233.551183 157.736568 
L 239.066797 152.869744 
L 244.510262 147.241251 
L 249.675048 139.762597 
L 254.946333 131.756672 
L 260.597738 124.47425 
L 266.750395 118.814394 
L 272.957742 112.494539 
L 279.217491 105.225571 
L 285.402286 95.534013 
L 292.266939 89.350416 
L 299.517745 85.40506 
L 307.052426 83.868846 
L 314.635506 82.584604 
L 322.246453 81.212619 
L 329.90402 80.300506 
L 337.588756 81.174068 
L 345.222575 83.217511 
L 352.740149 86.679568 
L 360.196808 89.171365 
L 367.557325 91.988191 
L 374.714373 96.21095 
L 381.63911 101.447581 
L 391.446081 81.92599 
L 398.418095 87.735465 
L 405.066639 94.520112 
L 411.607053 100.780079 
L 417.931529 107.230962 
L 424.370704 112.281732 
L 427.259452 98.691242 
L 420.792226 92.513951 
L 414.149133 86.363225 
L 407.335837 80.192963 
L 400.086962 75.860854 
L 392.738575 71.39947 
L 386.049704 59.48358 
L 378.328574 54.900446 
L 370.484213 50.131739 
L 362.397185 47.185674 
L 354.260548 43.141035 
L 345.968354 40.49184 
L 337.588756 39.115156 
L 329.155846 37.437627 
L 320.676493 36.254863 
L 312.188412 35.891264 
L 303.702594 35.964004 
L 295.272546 36.882207 
L 286.897444 38.263087 
L 278.66408 40.655726 
L 270.380149 42.344618 
L 262.543308 46.74039 
L 254.851033 51.329759 
L 247.559075 57.396146 
L 240.493383 63.760887 
L 233.563208 69.974551 
L 227.193455 77.787332 
L 220.972246 85.33996 
L 214.866789 92.57634 
L 208.89891 99.633182 
L 203.044469 106.473964 
L 197.377846 113.356651 
L 191.754279 119.881769 
L 186.340923 126.544625 
L 181.889936 135.190599 
L 177.864041 144.270854 
L 172.915103 150.69562 
L 167.912377 156.686532 
L 163.227757 163.065675 
L 158.203446 168.495207 
L 153.145381 173.671165 
L 147.463893 177.56437 
L 140.699161 179.535919 
L 134.691171 182.880414 
L 131.707682 191.08011 
L 125.670671 194.233467 
L 121.734254 200.541241 
L 120.881072 211.068054 
L 117.019977 216.971821 
L 113.319806 222.943752 
L 109.501776 228.62068 
L 97.16571 223.660965 
L 91.921001 227.783272 
L 86.835003 232.099506 
L 81.488696 236.130769 
z
" style="fill:#00d9ff;opacity:0.2;stroke:#00d9ff;stroke-linecap:round;stroke-linejoin:miter;stroke-width:0.5;"/>
   </g>
   <g id="patch_5">
    <path clip-path="url(#pb28597d57a)" d="M 151.10913 290.275541 
L 154.994064 286.848153 
L 157.053374 280.980157 
L 158.066616 273.467673 
L 161.627987 269.260679 
L 166.84719 267.42392 
L 166.933824 257.77315 
L 167.351138 248.121563 
L 170.284079 242.116961 
L 172.972903 235.43568 
L 176.074368 229.179032 
L 180.562848 225.23592 
L 185.836171 222.727484 
L 190.901233 219.80471 
L 195.127852 215.050307 
L 199.219701 209.776716 
L 203.276635 204.139174 
L 207.058226 197.484303 
L 209.774529 187.591256 
L 212.425936 176.676679 
L 216.70254 169.479638 
L 221.362366 162.850656 
L 225.802676 154.922909 
L 231.742058 151.427399 
L 237.443048 146.809832 
L 242.606353 139.605092 
L 248.383251 134.167211 
L 254.544846 129.867824 
L 260.784823 125.436722 
L 266.975802 120.092741 
L 273.248306 114.329088 
L 279.683586 108.542012 
L 286.517365 104.615599 
L 293.484216 100.932031 
L 300.589212 97.651976 
L 307.845281 95.207191 
L 315.191424 93.192158 
L 322.636167 92.372584 
L 330.111998 92.215554 
L 337.588756 94.409636 
L 344.993547 96.338522 
L 352.334175 98.305152 
L 359.592499 100.702273 
L 366.778199 103.130221 
L 373.853963 106.045485 
L 380.643349 110.921607 
L 387.25329 116.07353 
L 394.334215 116.793777 
L 400.235242 125.024353 
L 405.183702 137.208709 
L 410.982384 142.981216 
L 417.490419 144.65093 
L 420.993534 128.170072 
L 420.321766 94.934261 
L 413.664441 89.112049 
L 407.547803 78.854658 
L 400.329376 74.135988 
L 392.613111 72.421291 
L 385.042008 69.07116 
L 377.367384 65.8869 
L 369.548328 63.515525 
L 361.734236 59.83549 
L 353.800889 56.303937 
L 345.712553 55.146668 
L 337.588756 54.421028 
L 329.450092 54.294985 
L 321.343294 55.349544 
L 313.328255 57.64077 
L 305.403248 60.284497 
L 297.665885 64.238199 
L 290.069038 68.438788 
L 282.569952 72.466503 
L 275.473204 78.583582 
L 268.285956 82.998041 
L 261.080119 86.656657 
L 254.047907 90.778291 
L 247.541479 96.91957 
L 241.513807 104.412379 
L 235.432508 110.832371 
L 229.182091 115.979521 
L 223.178715 121.563473 
L 217.835443 128.863265 
L 212.418247 135.323486 
L 206.768639 140.629496 
L 201.479647 146.601998 
L 196.723377 153.591844 
L 191.974007 160.14955 
L 186.721645 165.138061 
L 181.159125 169.211997 
L 175.721439 173.433119 
L 170.466928 177.908175 
L 165.858311 183.518725 
L 161.564869 189.505918 
L 156.343085 193.582856 
L 148.164348 192.466002 
L 142.711816 196.229008 
L 140.400161 204.990984 
L 142.28113 219.811331 
L 139.318018 226.610244 
L 134.206822 230.099198 
L 139.323561 247.670071 
L 133.465534 249.678037 
L 128.104008 252.430451 
L 122.980589 255.539686 
z
" style="fill:#0000ff;opacity:0.2;stroke:#0000ff;stroke-linecap:round;stroke-linejoin:miter;stroke-width:0.5;"/>
   </g>
   <g id="patch_6">
    <path clip-path="url(#pb28597d57a)" d="M 96.205607 242.879152 
L 102.324569 240.181762 
L 91.178998 216.267991 
L 81.759739 193.112491 
L 87.572566 188.77601 
L 92.219642 182.837088 
L 94.477512 173.359862 
L 97.424398 164.500399 
L 101.461976 156.955346 
L 105.900329 149.779712 
L 110.726875 142.997127 
L 116.484009 137.594046 
L 120.178108 128.339509 
L 122.563469 116.154953 
L 127.843499 108.910457 
L 133.561815 102.24148 
L 139.370786 95.478894 
L 145.222112 88.496145 
L 151.801042 82.870276 
L 158.875663 78.228275 
L 166.310543 74.363701 
L 173.953918 70.97568 
L 181.502802 67.252177 
L 189.014165 63.293129 
L 197.093451 61.019267 
L 205.332542 59.326472 
L 213.462946 57.314873 
L 221.923347 56.650084 
L 230.645624 57.337107 
L 239.815548 60.571921 
L 248.912558 64.359214 
L 258.401856 71.467476 
L 267.525358 78.195819 
L 276.501011 85.896812 
L 285.073463 92.855967 
L 293.600494 102.038342 
L 301.760391 111.038613 
L 309.593137 120.202696 
L 317.414078 135.602915 
L 324.561896 147.518255 
L 331.476118 170.36592 
L 337.588756 173.363912 
L 343.587097 176.913981 
L 349.507162 179.260203 
L 355.387351 180.941278 
L 361.060853 184.892074 
L 366.647664 188.413858 
L 371.924978 193.871366 
L 376.887468 200.496372 
L 380.41252 215.851784 
L 384.767868 222.681509 
L 389.671845 225.180822 
L 394.561566 227.459001 
L 407.240526 162.231407 
L 401.245395 159.543958 
L 395.234925 156.595116 
L 389.009742 154.679374 
L 383.366528 147.728663 
L 377.236939 143.331437 
L 370.986069 138.825663 
L 364.717012 132.606568 
L 358.35727 124.271844 
L 351.828883 112.774817 
L 344.914576 100.86272 
L 337.588756 92.638456 
L 329.888875 79.432815 
L 322.030057 75.015866 
L 313.950251 69.509166 
L 305.744777 65.168584 
L 297.276795 59.790885 
L 288.625643 54.705803 
L 279.789783 49.823844 
L 270.39271 42.433994 
L 260.924752 36.52123 
L 251.696362 33.438729 
L 242.700864 32.402817 
L 233.644603 31.53991 
L 224.588244 31.09971 
L 215.733841 31.825331 
L 207.063428 33.431544 
L 198.628169 35.945543 
L 190.802792 40.443447 
L 183.399072 46.01165 
L 175.328225 49.319903 
L 167.462419 53.140433 
L 160.212577 58.477957 
L 152.880314 63.389265 
L 145.072 67.017645 
L 137.279878 70.657595 
L 129.360657 74.012103 
L 121.48787 77.486225 
L 114.898314 83.504101 
L 110.885621 94.192116 
L 107.213957 104.951562 
L 103.817008 115.654157 
L 100.966648 126.753383 
L 95.533809 133.189811 
L 89.714927 138.866477 
L 83.758388 144.239705 
L 79.90764 152.551929 
L 75.606768 159.97143 
L 70.000992 165.457744 
L 64.263272 170.718035 
L 56.069312 172.91114 
L 53.058552 181.468809 
L 61.133203 202.532967 
z
" style="fill:#ff69b5;opacity:0.2;stroke:#ff69b5;stroke-linecap:round;stroke-linejoin:miter;stroke-width:0.5;"/>
   </g>
   <g id="patch_7">
    <path clip-path="url(#pb28597d57a)" d="M 107.668999 226.274832 
L 112.109023 221.33699 
L 116.767411 216.624195 
L 116.049152 204.167357 
L 122.709563 201.987197 
L 129.332065 199.871519 
L 134.771641 195.983469 
L 139.413958 190.740452 
L 143.747207 184.815289 
L 147.907893 178.365366 
L 147.391581 162.84984 
L 149.186155 150.797776 
L 151.475784 138.970559 
L 156.448208 132.101542 
L 161.029787 124.000765 
L 165.673113 115.550827 
L 171.29103 108.957385 
L 176.902455 101.956577 
L 183.122769 96.16689 
L 189.497804 90.471347 
L 195.836728 84.290819 
L 202.880308 79.947223 
L 210.444123 77.152673 
L 218.18518 74.938489 
L 226.124987 73.501942 
L 234.115053 72.364854 
L 242.079446 71.222726 
L 250.154744 70.749703 
L 258.303572 70.910079 
L 266.558545 72.091599 
L 275.095551 75.896447 
L 284.339203 86.875893 
L 292.700116 93.47182 
L 300.767801 99.693256 
L 308.711415 107.593493 
L 316.412902 116.499332 
L 323.715155 123.270768 
L 330.791471 131.142518 
L 337.588756 144.980754 
L 343.850324 161.8337 
L 349.831001 169.986675 
L 355.609203 176.708078 
L 361.140417 183.754255 
L 366.539153 189.654144 
L 371.698487 196.026285 
L 376.833155 200.938718 
L 381.993629 204.601613 
L 387.208835 207.269851 
L 393.18287 205.268812 
L 399.09041 204.160119 
L 404.360518 206.422259 
L 413.564836 191.470143 
L 429.108977 124.14107 
L 420.963782 128.310041 
L 414.259302 126.122935 
L 406.328113 130.718432 
L 398.156215 138.150814 
L 391.844414 134.509633 
L 385.487663 130.45341 
L 379.134377 125.278517 
L 372.641725 119.901428 
L 365.999139 114.271295 
L 359.24752 107.284856 
L 352.226182 101.397669 
L 345.001692 95.871847 
L 337.588756 89.686739 
L 329.947864 82.812312 
L 322.084562 76.576667 
L 314.087749 72.132774 
L 305.869808 66.956613 
L 297.481161 62.126794 
L 288.550328 53.989223 
L 279.661392 48.778179 
L 270.901933 46.057303 
L 261.831984 42.249267 
L 252.659605 38.901555 
L 243.214303 35.044231 
L 233.98453 33.13914 
L 225.001046 32.887753 
L 216.114518 33.352146 
L 207.601305 35.438929 
L 199.496015 38.972081 
L 191.616489 43.104928 
L 183.855243 47.415598 
L 176.066624 51.464368 
L 168.453628 55.863758 
L 160.786322 59.972614 
L 152.802474 63.196603 
L 145.029105 66.916591 
L 137.739813 71.690627 
L 130.692454 76.868149 
L 124.217489 83.082772 
L 123.49156 100.369295 
L 118.605277 108.710676 
L 113.849179 116.92182 
L 109.730583 125.896768 
L 105.657412 134.560124 
L 101.214299 142.280496 
L 95.604477 147.935588 
L 86.549464 148.377646 
L 76.381404 147.515941 
L 68.632571 150.372271 
L 62.497881 155.50078 
L 56.246141 160.456575 
z
" style="fill:#b20000;opacity:0.2;stroke:#b20000;stroke-linecap:round;stroke-linejoin:miter;stroke-width:0.5;"/>
   </g>
   <g id="patch_8">
    <path clip-path="url(#pb28597d57a)" d="M 63.581013 216.242272 
L 69.853956 212.565045 
L 76.172225 209.014612 
L 94.968189 220.947253 
L 99.856196 216.274901 
L 105.215259 212.188655 
L 111.240937 209.017656 
L 117.506184 206.248215 
L 123.587303 203.2885 
L 126.610818 195.681166 
L 130.824476 189.666685 
L 135.125785 183.603733 
L 139.610825 177.650866 
L 149.374528 181.011246 
L 153.304704 173.970807 
L 156.892317 165.921972 
L 160.51083 157.49515 
L 162.409673 144.885945 
L 165.062244 133.057811 
L 168.038011 121.122179 
L 172.895473 112.928521 
L 178.746324 106.760018 
L 184.960292 101.215442 
L 191.613114 96.614653 
L 198.532856 92.588647 
L 205.698512 89.165151 
L 212.688211 84.978738 
L 219.770904 80.856491 
L 226.745275 75.98978 
L 234.406355 73.62662 
L 242.053869 71.102394 
L 249.929532 69.591092 
L 257.769947 67.883744 
L 265.826194 67.467716 
L 273.89834 67.377846 
L 282.180729 69.296537 
L 290.686292 74.311566 
L 298.950312 78.919271 
L 307.137893 85.091079 
L 315.178909 92.953346 
L 322.930517 100.801668 
L 330.404533 108.97486 
L 337.588756 117.894243 
L 344.422655 129.044855 
L 350.893073 139.5729 
L 356.928901 151.526752 
L 362.648277 162.190844 
L 368.265064 169.926893 
L 373.752749 176.481286 
L 379.102671 182.454994 
L 384.543309 186.459692 
L 389.920248 190.150665 
L 395.340651 193.031429 
L 403.607941 180.919437 
L 409.880104 180.454646 
L 415.270144 184.083644 
L 425.598136 139.348195 
L 421.411354 126.20438 
L 413.623773 129.392446 
L 407.150924 126.05204 
L 400.683886 122.191725 
L 394.224638 117.57346 
L 387.727382 112.212357 
L 381.231363 105.327026 
L 374.50734 98.577351 
L 367.55997 91.950368 
L 360.261289 87.941004 
L 352.905959 81.931399 
L 345.343482 76.290724 
L 337.588756 71.581428 
L 329.656296 66.108398 
L 321.525165 60.55764 
L 313.270314 56.535188 
L 304.77355 51.279389 
L 296.114431 46.505 
L 287.424375 43.276496 
L 278.673825 40.735098 
L 269.728538 37.708162 
L 260.733537 35.313949 
L 251.913855 34.672192 
L 243.064717 34.274676 
L 234.474884 35.446075 
L 225.880402 36.696662 
L 217.310129 38.147478 
L 208.894546 40.265371 
L 200.567723 42.709573 
L 192.339791 45.470745 
L 184.271665 48.697216 
L 176.359043 52.313615 
L 168.428029 55.793425 
L 161.212385 61.082546 
L 154.335816 66.991759 
L 147.228488 72.098013 
L 140.278271 77.392096 
L 133.600609 83.104709 
L 127.056549 88.903708 
L 121.257027 95.983778 
L 117.364713 106.377515 
L 112.458821 114.413547 
L 105.668584 118.861181 
L 100.010164 125.161524 
L 94.558708 131.629324 
L 93.764468 145.102222 
L 90.84706 154.749094 
L 86.314293 161.701578 
L 82.628396 169.635872 
L 79.500029 178.063392 
L 74.88691 184.315671 
L 68.659385 188.458586 
L 64.699614 195.342085 
L 63.725026 205.514518 
L 58.174908 210.238185 
z
" style="fill:#b20000;opacity:0.2;stroke:#b20000;stroke-linecap:round;stroke-linejoin:miter;stroke-width:0.5;"/>
   </g>
   <g id="patch_9">
    <path clip-path="url(#pb28597d57a)" d="M 135.86029 296.516542 
L 145.970057 300.126604 
L 142.589382 288.167497 
L 145.703863 283.600592 
L 146.10088 275.465396 
L 142.360667 261.482277 
L 139.320191 247.665433 
L 134.867692 231.043018 
L 145.04925 235.107145 
L 136.199863 210.447001 
L 144.682904 211.844805 
L 149.273933 207.150206 
L 153.935496 202.461925 
L 157.981903 196.53936 
L 162.356962 190.995628 
L 165.861489 183.524963 
L 169.909711 176.76571 
L 174.430437 170.664557 
L 179.436106 165.342033 
L 184.528109 159.970413 
L 189.481815 153.981159 
L 194.636343 148.154934 
L 198.787229 139.204639 
L 202.403788 127.953046 
L 207.08561 118.911319 
L 212.459444 111.279165 
L 218.277393 104.47053 
L 224.57763 98.795439 
L 231.062046 93.303406 
L 237.675665 87.78756 
L 244.651995 83.325618 
L 251.950777 79.989495 
L 259.284503 76.473215 
L 266.675162 72.82789 
L 274.020701 68.248489 
L 281.475097 63.549623 
L 289.250669 60.652527 
L 297.138167 58.206357 
L 305.070633 55.527882 
L 313.09366 53.16443 
L 321.245034 52.535748 
L 329.433417 53.339633 
L 337.588756 55.694112 
L 345.65098 58.674166 
L 353.566663 63.011295 
L 361.263117 68.824973 
L 368.772576 74.609301 
L 376.047775 80.970101 
L 383.011969 88.385697 
L 389.770774 95.570265 
L 396.326625 102.617042 
L 402.722644 109.319516 
L 409.150301 114.713013 
L 416.705927 113.536142 
L 424.610931 111.151555 
L 427.091378 99.48197 
L 420.674883 93.117633 
L 413.48358 90.137764 
L 406.186973 87.446603 
L 399.12176 82.728629 
L 392.064147 76.892239 
L 384.76475 71.709095 
L 377.236456 67.383408 
L 369.553859 63.436422 
L 361.720197 60.103378 
L 353.793917 56.503586 
L 345.796519 50.336271 
L 337.588756 45.578637 
L 329.220306 41.130546 
L 320.725339 37.65362 
L 312.077608 33.777006 
L 303.248816 29.474686 
L 294.317933 25.970936 
L 285.512856 25.089615 
L 276.802896 25.497597 
L 268.246413 27.162291 
L 259.833727 29.632769 
L 251.646804 33.157675 
L 243.721059 37.651262 
L 235.87829 42.048583 
L 228.538696 48.210998 
L 221.341052 54.314628 
L 214.393263 60.786861 
L 207.42849 66.635909 
L 200.412138 71.8742 
L 193.59964 77.405768 
L 187.063587 83.40187 
L 180.670254 89.428661 
L 174.476815 95.637568 
L 170.344866 106.615547 
L 166.875289 118.382976 
L 163.198498 128.871768 
L 159.353659 138.332303 
L 154.77458 145.734093 
L 150.005234 152.405311 
L 145.413769 159.130117 
L 140.731628 165.419042 
L 135.882675 171.193521 
L 130.914435 176.594869 
L 124.657489 179.797442 
L 117.814971 182.13675 
L 113.632445 188.529816 
L 107.310481 191.687241 
L 109.238536 206.261587 
L 109.479606 217.847635 
L 109.335212 228.407487 
L 103.463134 231.437636 
L 97.444296 234.365678 
L 87.404641 232.754799 
L 123.018347 282.25412 
z
" style="fill:#0000ff;opacity:0.2;stroke:#0000ff;stroke-linecap:round;stroke-linejoin:miter;stroke-width:0.5;"/>
   </g>
   <g id="patch_10">
    <path clip-path="url(#pb28597d57a)" d="M 117.662079 315.473757 
L 121.356242 311.74539 
L 124.219134 307.189079 
L 127.523443 303.029701 
L 124.601989 292.158356 
L 127.406266 287.127397 
L 127.969114 279.418887 
L 129.488614 272.55461 
L 132.377538 267.143951 
L 134.277369 260.331993 
L 136.627291 253.87383 
L 136.941929 244.392036 
L 137.019104 234.115553 
L 137.63083 224.108885 
L 138.422243 213.869167 
L 143.296061 209.625393 
L 148.788185 206.341784 
L 153.799247 202.225935 
L 158.25762 197.036767 
L 162.655618 191.55732 
L 167.329838 186.40676 
L 172.221452 181.505482 
L 177.106716 176.403857 
L 181.21845 169.345244 
L 185.541474 162.357752 
L 189.90642 155.032092 
L 194.802475 148.587723 
L 199.859257 142.150012 
L 205.257784 136.241652 
L 210.955918 130.822902 
L 216.904883 125.819539 
L 223.144528 121.444249 
L 229.815144 118.342106 
L 236.628412 115.628879 
L 243.318558 112.229615 
L 250.197538 109.415344 
L 257.148497 106.729444 
L 264.241266 104.584414 
L 271.278855 101.894467 
L 278.370622 99.199782 
L 285.716066 98.089541 
L 293.187717 98.111032 
L 300.750647 99.497196 
L 308.262236 101.169929 
L 315.687988 102.667167 
L 323.074254 104.917738 
L 330.396914 108.538372 
L 337.588756 112.495867 
L 344.617179 117.900616 
L 351.419164 124.507636 
L 357.883128 133.319018 
L 364.097073 141.472098 
L 370.313772 146.510055 
L 377.329942 142.44657 
L 383.078639 150.07333 
L 387.10613 117.272049 
L 380.697516 110.406246 
L 374.847751 94.686442 
L 367.891055 87.215634 
L 360.548816 82.454657 
L 353.159555 74.669353 
L 345.512662 66.598432 
L 337.588756 59.97918 
L 329.448585 54.208634 
L 321.112716 48.746656 
L 312.582984 43.420154 
L 303.859398 38.206415 
L 294.99248 33.681036 
L 286.009465 29.814532 
L 277.032282 27.365797 
L 268.073393 25.931191 
L 259.078212 24.862637 
L 250.278043 25.395042 
L 241.815569 27.848368 
L 233.608255 31.368906 
L 225.61785 35.559423 
L 217.671987 39.598812 
L 210.029186 44.499905 
L 202.719806 50.214776 
L 195.433282 55.589099 
L 188.340812 61.22076 
L 181.259459 66.545458 
L 174.666278 72.932873 
L 168.211175 79.315018 
L 162.212694 86.487717 
L 156.437078 93.792092 
L 151.441422 102.464943 
L 147.297561 112.477917 
L 142.48475 120.536208 
L 138.915227 130.639946 
L 136.495043 142.356434 
L 131.611706 148.966267 
L 126.632434 155.171633 
L 121.872092 161.545883 
L 117.237664 167.923241 
L 113.331908 175.233438 
L 107.675369 179.698088 
L 102.708956 185.115582 
L 99.807542 193.280937 
L 96.659301 200.834516 
L 95.907738 211.221105 
L 100.02647 227.193709 
L 100.786059 238.348236 
L 98.920849 246.002681 
L 99.066073 255.652424 
L 95.630065 261.089771 
L 120.489904 295.746259 
L 115.489023 298.458968 
L 110.043936 300.821222 
L 102.799292 301.613983 
z
" style="fill:#00d9ff;opacity:0.2;stroke:#00d9ff;stroke-linecap:round;stroke-linejoin:miter;stroke-width:0.5;"/>
   </g>
   <g id="line2d_14">
    <path clip-path="url(#pb28597d57a)" d="M 90.864603 255.979439 
L 74.340521 228.191917 
L 72.958032 216.135877 
L 72.437286 204.563484 
L 74.147354 195.235663 
L 78.69208 189.186067 
L 84.976843 185.33137 
L 90.426939 180.369645 
L 96.209923 175.834002 
L 102.009681 171.29836 
L 107.250216 165.868453 
L 112.48223 160.312954 
L 117.880697 154.903087 
L 122.924782 148.749792 
L 127.027551 140.696233 
L 131.905776 133.725278 
L 136.955528 126.79382 
L 142.148277 119.846337 
L 147.864887 113.694551 
L 153.754928 107.661164 
L 160.101802 102.42564 
L 166.657062 97.487912 
L 173.450718 92.964492 
L 180.740963 89.622931 
L 188.194888 86.687406 
L 195.677946 83.802139 
L 203.101301 80.670056 
L 210.788779 78.354631 
L 218.69212 76.830415 
L 226.626865 75.514865 
L 234.526582 74.147382 
L 242.590581 73.62743 
L 250.745192 73.787297 
L 259.001141 74.866191 
L 267.350352 77.09087 
L 275.804201 80.938748 
L 284.25388 86.180995 
L 292.516414 91.724018 
L 300.564083 97.364758 
L 308.316487 101.945751 
L 315.919241 107.079723 
L 323.360952 113.12771 
L 330.593091 119.777342 
L 337.588756 128.000146 
L 344.28377 137.001574 
L 350.669685 145.969898 
L 357.415168 142.24821 
L 363.460965 150.568877 
L 369.544584 155.301913 
L 376.404517 151.251404 
L 382.279489 156.581888 
L 388.472562 158.501606 
L 394.391739 161.918779 
L 400.924112 161.366045 
L 406.465259 166.219812 
L 412.915252 166.175397 
L 418.77313 168.910544 
" style="fill:none;stroke:#ff69b5;stroke-linecap:round;"/>
   </g>
   <g id="line2d_15">
    <path clip-path="url(#pb28597d57a)" d="M 104.255564 261.415937 
L 109.379917 258.034463 
L 114.377618 254.546025 
L 118.550216 250.068631 
L 133.579237 259.438424 
L 137.338162 254.817188 
L 141.080812 250.08872 
L 144.55438 244.877042 
L 145.360025 235.567888 
L 145.324307 224.497413 
L 149.338406 219.295166 
L 150.544269 209.264399 
L 154.036481 202.636835 
L 159.015595 198.404192 
L 164.255519 194.566295 
L 169.04823 189.779294 
L 173.817424 184.77771 
L 178.940194 180.335761 
L 184.156892 175.945092 
L 189.300843 171.214271 
L 193.711106 164.449022 
L 198.333056 157.785201 
L 203.202374 151.335151 
L 208.234155 144.885663 
L 213.289313 138.004353 
L 218.520266 131.10322 
L 224.208986 125.156454 
L 230.019521 119.104852 
L 235.851858 112.514291 
L 241.619128 104.868574 
L 247.719858 97.758779 
L 254.078406 90.935198 
L 260.800714 85.072076 
L 267.750525 79.617465 
L 274.79882 73.785095 
L 282.033183 68.09487 
L 289.582191 63.806751 
L 297.395146 61.143634 
L 305.37751 59.916425 
L 313.411959 59.237934 
L 321.461473 58.733741 
L 329.529933 58.869067 
L 337.588756 60.144612 
L 345.595464 61.854675 
L 353.500349 64.910301 
L 361.296996 68.178519 
L 369.020769 71.059965 
L 376.521474 75.555698 
L 383.844407 80.46558 
L 392.092328 76.66273 
L 399.252529 81.798159 
L 406.201238 87.356537 
L 412.878093 93.571652 
L 419.361878 99.872457 
L 425.815078 105.486487 
L 431.063068 115.676972 
" style="fill:none;stroke:#00d9ff;stroke-linecap:round;"/>
   </g>
   <g id="line2d_16">
    <path clip-path="url(#pb28597d57a)" d="M 114.699571 273.015183 
L 118.174034 268.150936 
L 121.677653 263.245869 
L 137.044859 272.907613 
L 141.549036 269.639302 
L 145.259454 265.329097 
L 148.695089 260.568872 
L 147.917405 249.679939 
L 153.082604 247.017082 
L 154.607477 238.79224 
L 153.875649 226.556273 
L 156.497948 219.172984 
L 160.568625 213.950841 
L 166.208727 211.380944 
L 171.063858 207.370919 
L 175.847241 203.123104 
L 180.68408 198.856442 
L 185.424645 194.241713 
L 190.189413 189.494356 
L 194.99914 184.638618 
L 199.516117 178.816927 
L 203.248953 170.59155 
L 206.952791 161.639339 
L 211.73559 155.054567 
L 216.890307 149.087071 
L 221.81906 141.893087 
L 227.460387 136.495436 
L 233.31257 131.394677 
L 239.019431 125.218731 
L 244.948529 119.289795 
L 251.043162 113.393697 
L 257.416365 108.107507 
L 264.02796 103.374699 
L 270.767131 98.663564 
L 277.578395 93.562797 
L 284.543658 88.541051 
L 291.776627 84.685409 
L 299.127548 80.945087 
L 306.624264 77.745844 
L 314.25984 75.416464 
L 321.989731 73.861064 
L 329.781045 73.255269 
L 337.588756 74.415332 
L 345.35305 75.742595 
L 353.067532 77.304545 
L 360.663367 80.268882 
L 368.163263 83.322873 
L 375.610674 85.966193 
L 382.842679 89.996384 
L 389.9332 94.24741 
L 397.331796 95.464882 
L 403.891523 101.939505 
L 409.424072 113.160379 
L 415.652075 118.957738 
L 419.241976 136.410501 
" style="fill:none;stroke:#0000ff;stroke-linecap:round;"/>
   </g>
   <g id="line2d_17">
    <path clip-path="url(#pb28597d57a)" d="M 57.156835 219.832283 
L 61.700055 214.153258 
L 78.669405 222.70606 
L 77.691561 210.825285 
L 73.624155 194.589566 
L 73.011505 181.915263 
L 78.786779 177.116877 
L 83.913205 171.404259 
L 87.192576 162.955896 
L 90.591393 154.370052 
L 95.588452 147.910912 
L 100.717069 141.484761 
L 105.846762 134.875255 
L 110.150509 126.624102 
L 113.696032 116.645536 
L 116.724545 105.173534 
L 121.370907 96.207279 
L 127.524842 89.863852 
L 134.365722 84.745498 
L 141.250995 79.57687 
L 148.436521 74.943961 
L 155.877989 70.80877 
L 163.26156 66.420829 
L 170.708169 62.058056 
L 178.415514 58.28604 
L 186.206619 54.652389 
L 193.948122 50.731357 
L 201.980356 47.636008 
L 210.263187 45.373208 
L 218.828594 44.237708 
L 227.616934 44.218408 
L 236.730075 46.055916 
L 245.806711 48.381015 
L 255.049109 52.453103 
L 264.225055 57.358525 
L 273.446861 64.165403 
L 282.431623 71.339906 
L 291.113068 78.372073 
L 299.518593 85.414749 
L 307.668957 92.68564 
L 315.682165 102.55604 
L 323.295977 111.26706 
L 330.682496 124.899367 
L 337.588756 133.001184 
L 344.250837 138.888351 
L 350.668022 146.01751 
L 356.87231 152.606561 
L 362.888932 158.749321 
L 368.816867 163.61976 
L 374.580959 168.601401 
L 380.126998 174.112517 
L 384.711131 185.265579 
L 390.001396 189.638312 
L 395.45862 192.36239 
L 400.901046 194.845204 
L 409.469103 182.388256 
L 415.09052 184.861679 
" style="fill:none;stroke:#ff69b5;stroke-dasharray:3.7,1.6;stroke-dashoffset:0;"/>
   </g>
   <g id="line2d_18">
    <path clip-path="url(#pb28597d57a)" d="M 102.552901 230.313593 
L 81.95757 193.365703 
L 87.303452 188.418885 
L 92.699991 183.498233 
L 96.215278 175.841649 
L 104.629514 175.182421 
L 112.468271 173.903553 
L 117.99297 169.131982 
L 122.535685 162.650288 
L 126.738895 155.356028 
L 130.878536 147.643593 
L 132.998429 135.780258 
L 136.338857 125.583535 
L 137.846636 111.026666 
L 143.570331 104.484846 
L 149.3848 97.845696 
L 155.351109 91.233709 
L 162.046752 86.076994 
L 168.844389 80.964595 
L 175.788199 76.015324 
L 182.782214 70.967857 
L 189.845985 65.853209 
L 197.248398 61.526075 
L 204.970069 58.062377 
L 212.893242 55.188709 
L 221.119753 53.427044 
L 229.55805 52.626304 
L 238.031988 52.180933 
L 246.684523 52.896967 
L 255.481589 54.905817 
L 264.195264 57.170433 
L 272.998742 60.976875 
L 282.000297 67.827036 
L 290.625222 73.730521 
L 299.124481 80.910025 
L 307.290612 87.275053 
L 315.250325 94.316053 
L 322.899858 99.923718 
L 330.369668 106.977415 
L 337.588756 117.333746 
L 344.426008 128.852774 
L 351.028591 135.692172 
L 357.428362 141.996467 
L 363.569778 149.012775 
L 369.590439 154.777786 
L 375.416432 160.652401 
L 381.160409 165.696064 
L 386.919021 169.555623 
L 392.682525 172.710332 
L 399.755492 167.993622 
L 406.674856 165.141527 
L 412.66215 167.36615 
L 421.336907 157.805606 
" style="fill:none;stroke:#b20000;stroke-dasharray:3.7,1.6;stroke-dashoffset:0;"/>
   </g>
   <g id="line2d_19">
    <path clip-path="url(#pb28597d57a)" d="M 52.324432 214.650166 
L 60.87796 213.240229 
L 66.789491 209.039782 
L 70.435919 202.178348 
L 81.813787 204.702919 
L 87.371553 200.295286 
L 92.357644 195.126024 
L 96.934667 189.326764 
L 101.910239 183.974896 
L 107.217182 179.018797 
L 110.187643 170.391694 
L 112.691592 160.648005 
L 117.567974 154.382629 
L 122.639705 148.256024 
L 130.916674 147.712397 
L 135.334708 140.174161 
L 139.074672 130.952875 
L 143.78369 123.199429 
L 148.005141 113.995327 
L 152.670257 105.224953 
L 157.63325 96.610096 
L 163.615644 89.96014 
L 169.979354 83.921282 
L 176.694161 78.504433 
L 183.986078 74.464134 
L 191.402261 70.642932 
L 199.019152 67.317948 
L 206.627967 63.844155 
L 214.332725 60.560931 
L 222.027702 57.068629 
L 230.143378 55.161641 
L 238.264376 53.274234 
L 246.497125 51.932884 
L 254.841901 51.277968 
L 263.279865 51.390832 
L 271.813439 52.543004 
L 280.427277 55.015818 
L 289.055333 58.794031 
L 297.532372 62.712135 
L 305.955721 68.185234 
L 314.224611 74.744267 
L 322.227841 80.679654 
L 330.030415 87.541629 
L 337.588756 94.737836 
L 344.883069 102.667789 
L 351.899516 110.75215 
L 358.595095 119.733878 
L 365.104124 127.070606 
L 371.386202 134.252122 
L 377.492056 140.904156 
L 383.415027 147.333676 
L 389.383974 152.016576 
L 395.302067 156.171195 
L 401.245787 159.541734 
L 408.615857 155.155941 
L 415.645729 153.329513 
L 420.43414 161.715919 
L 430.741624 146.942954 
" style="fill:none;stroke:#b20000;stroke-linecap:round;"/>
   </g>
   <g id="line2d_20">
    <path clip-path="url(#pb28597d57a)" d="M 120.659251 287.930288 
L 129.439319 289.385331 
L 116.687349 266.440701 
L 120.016839 261.266587 
L 124.583498 257.519114 
L 127.718046 251.936441 
L 125.920137 239.664956 
L 124.279364 226.96351 
L 121.089086 211.36513 
L 129.340848 211.81848 
L 127.007417 196.291876 
L 134.670196 195.821124 
L 140.094184 191.872537 
L 144.909086 186.827723 
L 149.356765 180.979201 
L 153.885365 175.062873 
L 157.933362 167.965137 
L 162.342145 161.249902 
L 166.892048 154.49843 
L 171.317302 147.1069 
L 175.701699 139.176695 
L 179.91334 130.298353 
L 184.556579 121.896251 
L 189.728741 114.31665 
L 194.733687 105.677458 
L 200.342625 98.158544 
L 206.435791 91.576683 
L 212.852941 85.55322 
L 219.485446 79.79115 
L 226.201549 73.809017 
L 233.107181 67.999279 
L 240.265143 62.6871 
L 247.835918 58.820379 
L 255.465654 54.815445 
L 263.254444 51.230329 
L 271.133557 47.70539 
L 279.138996 44.52361 
L 287.381763 42.871071 
L 295.72805 42.088646 
L 304.159725 42.501284 
L 312.585634 43.470718 
L 320.985186 45.094684 
L 329.326861 47.235089 
L 337.588756 50.636375 
L 345.72375 54.505219 
L 353.68029 59.75744 
L 361.491657 64.464175 
L 369.163218 69.022861 
L 376.642116 74.176755 
L 383.88836 80.047396 
L 390.917461 86.231252 
L 397.724192 92.672835 
L 404.454808 98.38306 
L 411.31694 102.425388 
L 418.690405 103.326887 
L 425.851154 105.316763 
" style="fill:none;stroke:#0000ff;stroke-dasharray:3.7,1.6;stroke-dashoffset:0;"/>
   </g>
   <g id="line2d_21">
    <path clip-path="url(#pb28597d57a)" d="M 110.230685 308.54387 
L 115.700089 306.283306 
L 119.854078 302.824023 
L 124.006673 299.38798 
L 110.116027 276.624064 
L 113.236169 271.389911 
L 113.444981 262.710784 
L 115.137337 255.451423 
L 116.202004 247.16883 
L 115.092554 235.776549 
L 116.643296 227.354173 
L 118.374735 218.836486 
L 119.86403 209.615568 
L 122.6531 201.903486 
L 125.877076 194.551303 
L 130.266863 188.774317 
L 135.330138 183.943834 
L 140.215841 178.698784 
L 144.934663 173.001517 
L 149.575331 166.956877 
L 153.122533 158.523353 
L 157.353101 151.020845 
L 162.202139 144.440887 
L 166.329936 135.905094 
L 170.989276 128.074922 
L 176.059557 120.759905 
L 181.506825 113.95137 
L 187.262768 107.541443 
L 193.258622 101.393555 
L 199.648365 96.021831 
L 206.169083 90.704319 
L 212.932167 85.829513 
L 219.922165 81.421005 
L 227.1502 77.613845 
L 234.468204 73.894519 
L 241.902896 70.392125 
L 249.482033 67.288906 
L 257.259654 64.989728 
L 265.178534 63.378552 
L 273.222007 62.565486 
L 281.374174 62.727669 
L 289.598591 63.962782 
L 297.871564 66.589116 
L 306.060817 69.688172 
L 314.135486 73.04366 
L 322.093485 76.832197 
L 329.92275 81.373503 
L 337.588756 86.237524 
L 345.06492 92.249524 
L 352.289359 99.588495 
L 359.215972 107.886837 
L 365.994064 114.343866 
L 372.580761 120.598249 
L 379.013729 126.426408 
L 385.092385 133.67269 
L 392.591089 129.196763 
L 398.987839 132.900145 
L 405.299136 136.554053 
L 411.725841 139.156461 
L 418.160916 141.496488 
L 424.564564 143.825087 
" style="fill:none;stroke:#00d9ff;stroke-dasharray:3.7,1.6;stroke-dashoffset:0;"/>
   </g>
   <g id="patch_11">
    <path d="M 33.3875 322.716583 
L 33.3875 10.916902 
" style="fill:none;stroke:#262626;stroke-linecap:square;stroke-linejoin:miter;stroke-width:1.25;"/>
   </g>
   <g id="patch_12">
    <path d="M 450 322.716583 
L 450 10.916902 
" style="fill:none;stroke:#262626;stroke-linecap:square;stroke-linejoin:miter;stroke-width:1.25;"/>
   </g>
   <g id="patch_13">
    <path d="M 33.3875 322.716583 
L 450 322.716583 
" style="fill:none;stroke:#262626;stroke-linecap:square;stroke-linejoin:miter;stroke-width:1.25;"/>
   </g>
   <g id="patch_14">
    <path d="M 33.3875 10.916902 
L 450 10.916902 
" style="fill:none;stroke:#262626;stroke-linecap:square;stroke-linejoin:miter;stroke-width:1.25;"/>
   </g>
   <g id="legend_1">
    <g id="line2d_22">
     <path d="M 345.029687 264.10252 
L 365.029687 264.10252 
" style="fill:none;stroke:#b20000;stroke-dasharray:3.7,1.6;stroke-dashoffset:0;"/>
    </g>
    <g id="line2d_23"/>
    <g id="text_14">
     <!-- u -->
     <defs>
      <path d="M 8.5 21.578125 
L 8.5 54.6875 
L 17.484375 54.6875 
L 17.484375 21.921875 
Q 17.484375 14.15625 20.5 10.265625 
Q 23.53125 6.390625 29.59375 6.390625 
Q 36.859375 6.390625 41.078125 11.03125 
Q 45.3125 15.671875 45.3125 23.6875 
L 45.3125 54.6875 
L 54.296875 54.6875 
L 54.296875 0 
L 45.3125 0 
L 45.3125 8.40625 
Q 42.046875 3.421875 37.71875 1 
Q 33.40625 -1.421875 27.6875 -1.421875 
Q 18.265625 -1.421875 13.375 4.4375 
Q 8.5 10.296875 8.5 21.578125 
z
M 31.109375 56 
z
" id="DejaVuSans-117"/>
     </defs>
     <g style="fill:#262626;" transform="translate(373.029687 267.60252)scale(0.1 -0.1)">
      <use xlink:href="#DejaVuSans-117"/>
     </g>
    </g>
    <g id="line2d_24">
     <path d="M 345.029687 278.780645 
L 365.029687 278.780645 
" style="fill:none;stroke:#b20000;stroke-linecap:round;"/>
    </g>
    <g id="line2d_25"/>
    <g id="text_15">
     <!-- ɯ -->
     <defs>
      <path d="M 46 10.546875 
Q 42.71875 4.640625 37.9375 1.65625 
Q 33.25 -1.265625 26.90625 -1.265625 
Q 18.359375 -1.265625 13.71875 4.734375 
Q 9.078125 10.75 9.078125 21.78125 
L 9.078125 54.78125 
L 18.109375 54.78125 
L 18.109375 22.078125 
Q 18.109375 14.15625 20.890625 10.34375 
Q 23.6875 6.546875 29.390625 6.546875 
Q 36.375 6.546875 40.4375 11.234375 
Q 44.484375 15.828125 44.484375 23.828125 
L 44.484375 54.78125 
L 53.515625 54.78125 
L 53.515625 22.078125 
Q 53.515625 14.15625 56.296875 10.34375 
Q 59.078125 6.546875 64.890625 6.546875 
Q 71.78125 6.546875 75.828125 11.234375 
Q 79.890625 15.921875 79.890625 23.828125 
L 79.890625 54.78125 
L 88.921875 54.78125 
L 88.921875 0 
L 79.890625 0 
L 79.890625 8.59375 
Q 76.90625 3.65625 72.515625 1.171875 
Q 68.21875 -1.265625 62.3125 -1.265625 
Q 56.34375 -1.265625 52.15625 1.765625 
Q 48 4.78125 46 10.546875 
z
" id="DejaVuSans-623"/>
     </defs>
     <g style="fill:#262626;" transform="translate(373.029687 282.280645)scale(0.1 -0.1)">
      <use xlink:href="#DejaVuSans-623"/>
     </g>
    </g>
    <g id="line2d_26">
     <path d="M 345.029687 293.45877 
L 365.029687 293.45877 
" style="fill:none;stroke:#ff69b5;stroke-dasharray:3.7,1.6;stroke-dashoffset:0;"/>
    </g>
    <g id="line2d_27"/>
    <g id="text_16">
     <!-- o -->
     <defs>
      <path d="M 30.609375 48.390625 
Q 23.390625 48.390625 19.1875 42.75 
Q 14.984375 37.109375 14.984375 27.296875 
Q 14.984375 17.484375 19.15625 11.84375 
Q 23.34375 6.203125 30.609375 6.203125 
Q 37.796875 6.203125 41.984375 11.859375 
Q 46.1875 17.53125 46.1875 27.296875 
Q 46.1875 37.015625 41.984375 42.703125 
Q 37.796875 48.390625 30.609375 48.390625 
z
M 30.609375 56 
Q 42.328125 56 49.015625 48.375 
Q 55.71875 40.765625 55.71875 27.296875 
Q 55.71875 13.875 49.015625 6.21875 
Q 42.328125 -1.421875 30.609375 -1.421875 
Q 18.84375 -1.421875 12.171875 6.21875 
Q 5.515625 13.875 5.515625 27.296875 
Q 5.515625 40.765625 12.171875 48.375 
Q 18.84375 56 30.609375 56 
z
" id="DejaVuSans-111"/>
     </defs>
     <g style="fill:#262626;" transform="translate(373.029687 296.95877)scale(0.1 -0.1)">
      <use xlink:href="#DejaVuSans-111"/>
     </g>
    </g>
    <g id="line2d_28">
     <path d="M 345.029687 308.136895 
L 365.029687 308.136895 
" style="fill:none;stroke:#ff69b5;stroke-linecap:round;"/>
    </g>
    <g id="line2d_29"/>
    <g id="text_17">
     <!-- a -->
     <defs>
      <path d="M 34.28125 27.484375 
Q 23.390625 27.484375 19.1875 25 
Q 14.984375 22.515625 14.984375 16.5 
Q 14.984375 11.71875 18.140625 8.90625 
Q 21.296875 6.109375 26.703125 6.109375 
Q 34.1875 6.109375 38.703125 11.40625 
Q 43.21875 16.703125 43.21875 25.484375 
L 43.21875 27.484375 
z
M 52.203125 31.203125 
L 52.203125 0 
L 43.21875 0 
L 43.21875 8.296875 
Q 40.140625 3.328125 35.546875 0.953125 
Q 30.953125 -1.421875 24.3125 -1.421875 
Q 15.921875 -1.421875 10.953125 3.296875 
Q 6 8.015625 6 15.921875 
Q 6 25.140625 12.171875 29.828125 
Q 18.359375 34.515625 30.609375 34.515625 
L 43.21875 34.515625 
L 43.21875 35.40625 
Q 43.21875 41.609375 39.140625 45 
Q 35.0625 48.390625 27.6875 48.390625 
Q 23 48.390625 18.546875 47.265625 
Q 14.109375 46.140625 10.015625 43.890625 
L 10.015625 52.203125 
Q 14.9375 54.109375 19.578125 55.046875 
Q 24.21875 56 28.609375 56 
Q 40.484375 56 46.34375 49.84375 
Q 52.203125 43.703125 52.203125 31.203125 
z
" id="DejaVuSans-97"/>
     </defs>
     <g style="fill:#262626;" transform="translate(373.029687 311.636895)scale(0.1 -0.1)">
      <use xlink:href="#DejaVuSans-97"/>
     </g>
    </g>
    <g id="line2d_30">
     <path d="M 402.770312 264.10252 
L 422.770312 264.10252 
" style="fill:none;stroke:#0000ff;stroke-linecap:round;"/>
    </g>
    <g id="line2d_31"/>
    <g id="text_18">
     <!-- i -->
     <defs>
      <path d="M 9.421875 54.6875 
L 18.40625 54.6875 
L 18.40625 0 
L 9.421875 0 
z
M 9.421875 75.984375 
L 18.40625 75.984375 
L 18.40625 64.59375 
L 9.421875 64.59375 
z
" id="DejaVuSans-105"/>
     </defs>
     <g style="fill:#262626;" transform="translate(430.770312 267.60252)scale(0.1 -0.1)">
      <use xlink:href="#DejaVuSans-105"/>
     </g>
    </g>
    <g id="line2d_32">
     <path d="M 402.770312 278.780645 
L 422.770312 278.780645 
" style="fill:none;stroke:#0000ff;stroke-dasharray:3.7,1.6;stroke-dashoffset:0;"/>
    </g>
    <g id="line2d_33"/>
    <g id="text_19">
     <!-- y -->
     <defs>
      <path d="M 32.171875 -5.078125 
Q 28.375 -14.84375 24.75 -17.8125 
Q 21.140625 -20.796875 15.09375 -20.796875 
L 7.90625 -20.796875 
L 7.90625 -13.28125 
L 13.1875 -13.28125 
Q 16.890625 -13.28125 18.9375 -11.515625 
Q 21 -9.765625 23.484375 -3.21875 
L 25.09375 0.875 
L 2.984375 54.6875 
L 12.5 54.6875 
L 29.59375 11.921875 
L 46.6875 54.6875 
L 56.203125 54.6875 
z
" id="DejaVuSans-121"/>
     </defs>
     <g style="fill:#262626;" transform="translate(430.770312 282.280645)scale(0.1 -0.1)">
      <use xlink:href="#DejaVuSans-121"/>
     </g>
    </g>
    <g id="line2d_34">
     <path d="M 402.770312 293.45877 
L 422.770312 293.45877 
" style="fill:none;stroke:#00d9ff;stroke-linecap:round;"/>
    </g>
    <g id="line2d_35"/>
    <g id="text_20">
     <!-- e -->
     <defs>
      <path d="M 56.203125 29.59375 
L 56.203125 25.203125 
L 14.890625 25.203125 
Q 15.484375 15.921875 20.484375 11.0625 
Q 25.484375 6.203125 34.421875 6.203125 
Q 39.59375 6.203125 44.453125 7.46875 
Q 49.3125 8.734375 54.109375 11.28125 
L 54.109375 2.78125 
Q 49.265625 0.734375 44.1875 -0.34375 
Q 39.109375 -1.421875 33.890625 -1.421875 
Q 20.796875 -1.421875 13.15625 6.1875 
Q 5.515625 13.8125 5.515625 26.8125 
Q 5.515625 40.234375 12.765625 48.109375 
Q 20.015625 56 32.328125 56 
Q 43.359375 56 49.78125 48.890625 
Q 56.203125 41.796875 56.203125 29.59375 
z
M 47.21875 32.234375 
Q 47.125 39.59375 43.09375 43.984375 
Q 39.0625 48.390625 32.421875 48.390625 
Q 24.90625 48.390625 20.390625 44.140625 
Q 15.875 39.890625 15.1875 32.171875 
z
" id="DejaVuSans-101"/>
     </defs>
     <g style="fill:#262626;" transform="translate(430.770312 296.95877)scale(0.1 -0.1)">
      <use xlink:href="#DejaVuSans-101"/>
     </g>
    </g>
    <g id="line2d_36">
     <path d="M 402.770312 308.136895 
L 422.770312 308.136895 
" style="fill:none;stroke:#00d9ff;stroke-dasharray:3.7,1.6;stroke-dashoffset:0;"/>
    </g>
    <g id="line2d_37"/>
    <g id="text_21">
     <!-- œ -->
     <defs>
      <path d="M 87.984375 32.234375 
Q 87.890625 39.65625 83.890625 44.015625 
Q 79.890625 48.390625 73.1875 48.390625 
Q 65.71875 48.390625 61.203125 44.140625 
Q 56.6875 39.890625 56 32.171875 
z
M 97.015625 29.59375 
L 97.015625 25.203125 
L 55.71875 25.203125 
Q 56.296875 15.921875 61.28125 11.0625 
Q 66.265625 6.203125 75.203125 6.203125 
Q 80.375 6.203125 85.25 7.46875 
Q 90.140625 8.734375 94.921875 11.28125 
L 94.921875 2.78125 
Q 90.046875 0.734375 84.96875 -0.34375 
Q 79.890625 -1.421875 74.703125 -1.421875 
Q 66.890625 -1.421875 60.984375 1.265625 
Q 55.078125 3.953125 51.125 9.28125 
Q 47.65625 3.90625 42.546875 1.234375 
Q 37.453125 -1.421875 30.609375 -1.421875 
Q 18.84375 -1.421875 12.171875 6.21875 
Q 5.515625 13.875 5.515625 27.296875 
Q 5.515625 40.765625 12.171875 48.375 
Q 18.84375 56 30.609375 56 
Q 37.453125 56 42.59375 53.296875 
Q 47.75 50.59375 50.984375 45.3125 
Q 54.78125 50.53125 60.4375 53.265625 
Q 66.109375 56 73.09375 56 
Q 84.125 56 90.5625 48.890625 
Q 97.015625 41.796875 97.015625 29.59375 
z
M 30.609375 48.390625 
Q 23.390625 48.390625 19.1875 42.75 
Q 14.984375 37.109375 14.984375 27.296875 
Q 14.984375 17.484375 19.15625 11.84375 
Q 23.34375 6.203125 30.609375 6.203125 
Q 37.796875 6.203125 41.984375 11.859375 
Q 46.1875 17.53125 46.1875 27.296875 
Q 46.1875 37.015625 41.984375 42.703125 
Q 37.796875 48.390625 30.609375 48.390625 
z
" id="DejaVuSans-339"/>
     </defs>
     <g style="fill:#262626;" transform="translate(430.770312 311.636895)scale(0.1 -0.1)">
      <use xlink:href="#DejaVuSans-339"/>
     </g>
    </g>
   </g>
  </g>
 </g>
 <defs>
  <clipPath id="pb28597d57a">
   <rect height="311.799681" width="416.6125" x="33.3875" y="10.916902"/>
  </clipPath>
 </defs>
</svg>
